%!PS-Adobe-3.0 EPSF-3.0
%Produced by poppler pdftops version: 0.24.1 (http://poppler.freedesktop.org)
%%Creator: TeX
%%LanguageLevel: 2
%%DocumentSuppliedResources: (atend)
%%BoundingBox: 0 0 506 191
%%HiResBoundingBox: 0 0 506 191
%%DocumentSuppliedResources: (atend)
%%EndComments
%%BeginProlog
%%BeginResource: procset xpdf 3.00 0
%%Copyright: Copyright 1996-2011 Glyph & Cog, LLC
/xpdf 75 dict def xpdf begin
% PDF special state
/pdfDictSize 15 def
/pdfSetup {
  /setpagedevice where {
    pop 2 dict begin
      /Policies 1 dict dup begin /PageSize 6 def end def
      { /Duplex true def } if
    currentdict end setpagedevice
  } {
    pop
  } ifelse
} def
/pdfSetupPaper {
  2 array astore
  /setpagedevice where {
    pop 2 dict begin
      /PageSize exch def
      /ImagingBBox null def
    currentdict end setpagedevice
  } {
    pop
  } ifelse
} def
/pdfStartPage {
  pdfDictSize dict begin
  /pdfFillCS [] def
  /pdfFillXform {} def
  /pdfStrokeCS [] def
  /pdfStrokeXform {} def
  /pdfFill [0] def
  /pdfStroke [0] def
  /pdfFillOP false def
  /pdfStrokeOP false def
  /pdfLastFill false def
  /pdfLastStroke false def
  /pdfTextMat [1 0 0 1 0 0] def
  /pdfFontSize 0 def
  /pdfCharSpacing 0 def
  /pdfTextRender 0 def
  /pdfPatternCS false def
  /pdfTextRise 0 def
  /pdfWordSpacing 0 def
  /pdfHorizScaling 1 def
  /pdfTextClipPath [] def
} def
/pdfEndPage { end } def
% PDF color state
/cs { /pdfFillXform exch def dup /pdfFillCS exch def
      setcolorspace } def
/CS { /pdfStrokeXform exch def dup /pdfStrokeCS exch def
      setcolorspace } def
/sc { pdfLastFill not { pdfFillCS setcolorspace } if
      dup /pdfFill exch def aload pop pdfFillXform setcolor
     /pdfLastFill true def /pdfLastStroke false def } def
/SC { pdfLastStroke not { pdfStrokeCS setcolorspace } if
      dup /pdfStroke exch def aload pop pdfStrokeXform setcolor
     /pdfLastStroke true def /pdfLastFill false def } def
/op { /pdfFillOP exch def
      pdfLastFill { pdfFillOP setoverprint } if } def
/OP { /pdfStrokeOP exch def
      pdfLastStroke { pdfStrokeOP setoverprint } if } def
/fCol {
  pdfLastFill not {
    pdfFillCS setcolorspace
    pdfFill aload pop pdfFillXform setcolor
    pdfFillOP setoverprint
    /pdfLastFill true def /pdfLastStroke false def
  } if
} def
/sCol {
  pdfLastStroke not {
    pdfStrokeCS setcolorspace
    pdfStroke aload pop pdfStrokeXform setcolor
    pdfStrokeOP setoverprint
    /pdfLastStroke true def /pdfLastFill false def
  } if
} def
% build a font
/pdfMakeFont {
  4 3 roll findfont
  4 2 roll matrix scale makefont
  dup length dict begin
    { 1 index /FID ne { def } { pop pop } ifelse } forall
    /Encoding exch def
    currentdict
  end
  definefont pop
} def
/pdfMakeFont16 {
  exch findfont
  dup length dict begin
    { 1 index /FID ne { def } { pop pop } ifelse } forall
    /WMode exch def
    currentdict
  end
  definefont pop
} def
% graphics state operators
/q { gsave pdfDictSize dict begin } def
/Q {
  end grestore
  /pdfLastFill where {
    pop
    pdfLastFill {
      pdfFillOP setoverprint
    } {
      pdfStrokeOP setoverprint
    } ifelse
  } if
} def
/cm { concat } def
/d { setdash } def
/i { setflat } def
/j { setlinejoin } def
/J { setlinecap } def
/M { setmiterlimit } def
/w { setlinewidth } def
% path segment operators
/m { moveto } def
/l { lineto } def
/c { curveto } def
/re { 4 2 roll moveto 1 index 0 rlineto 0 exch rlineto
      neg 0 rlineto closepath } def
/h { closepath } def
% path painting operators
/S { sCol stroke } def
/Sf { fCol stroke } def
/f { fCol fill } def
/f* { fCol eofill } def
% clipping operators
/W { clip newpath } def
/W* { eoclip newpath } def
/Ws { strokepath clip newpath } def
% text state operators
/Tc { /pdfCharSpacing exch def } def
/Tf { dup /pdfFontSize exch def
      dup pdfHorizScaling mul exch matrix scale
      pdfTextMat matrix concatmatrix dup 4 0 put dup 5 0 put
      exch findfont exch makefont setfont } def
/Tr { /pdfTextRender exch def } def
/Tp { /pdfPatternCS exch def } def
/Ts { /pdfTextRise exch def } def
/Tw { /pdfWordSpacing exch def } def
/Tz { /pdfHorizScaling exch def } def
% text positioning operators
/Td { pdfTextMat transform moveto } def
/Tm { /pdfTextMat exch def } def
% text string operators
/xyshow where {
  pop
  /xyshow2 {
    dup length array
    0 2 2 index length 1 sub {
      2 index 1 index 2 copy get 3 1 roll 1 add get
      pdfTextMat dtransform
      4 2 roll 2 copy 6 5 roll put 1 add 3 1 roll dup 4 2 roll put
    } for
    exch pop
    xyshow
  } def
}{
  /xyshow2 {
    currentfont /FontType get 0 eq {
      0 2 3 index length 1 sub {
        currentpoint 4 index 3 index 2 getinterval show moveto
        2 copy get 2 index 3 2 roll 1 add get
        pdfTextMat dtransform rmoveto
      } for
    } {
      0 1 3 index length 1 sub {
        currentpoint 4 index 3 index 1 getinterval show moveto
        2 copy 2 mul get 2 index 3 2 roll 2 mul 1 add get
        pdfTextMat dtransform rmoveto
      } for
    } ifelse
    pop pop
  } def
} ifelse
/cshow where {
  pop
  /xycp {
    0 3 2 roll
    {
      pop pop currentpoint 3 2 roll
      1 string dup 0 4 3 roll put false charpath moveto
      2 copy get 2 index 2 index 1 add get
      pdfTextMat dtransform rmoveto
      2 add
    } exch cshow
    pop pop
  } def
}{
  /xycp {
    currentfont /FontType get 0 eq {
      0 2 3 index length 1 sub {
        currentpoint 4 index 3 index 2 getinterval false charpath moveto
        2 copy get 2 index 3 2 roll 1 add get
        pdfTextMat dtransform rmoveto
      } for
    } {
      0 1 3 index length 1 sub {
        currentpoint 4 index 3 index 1 getinterval false charpath moveto
        2 copy 2 mul get 2 index 3 2 roll 2 mul 1 add get
        pdfTextMat dtransform rmoveto
      } for
    } ifelse
    pop pop
  } def
} ifelse
/Tj {
  fCol
  0 pdfTextRise pdfTextMat dtransform rmoveto
  currentpoint 4 2 roll
  pdfTextRender 1 and 0 eq {
    2 copy xyshow2
  } if
  pdfTextRender 3 and dup 1 eq exch 2 eq or {
    3 index 3 index moveto
    2 copy
    currentfont /FontType get 3 eq { fCol } { sCol } ifelse
    xycp currentpoint stroke moveto
  } if
  pdfTextRender 4 and 0 ne {
    4 2 roll moveto xycp
    /pdfTextClipPath [ pdfTextClipPath aload pop
      {/moveto cvx}
      {/lineto cvx}
      {/curveto cvx}
      {/closepath cvx}
    pathforall ] def
    currentpoint newpath moveto
  } {
    pop pop pop pop
  } ifelse
  0 pdfTextRise neg pdfTextMat dtransform rmoveto
} def
/TJm { 0.001 mul pdfFontSize mul pdfHorizScaling mul neg 0
       pdfTextMat dtransform rmoveto } def
/TJmV { 0.001 mul pdfFontSize mul neg 0 exch
        pdfTextMat dtransform rmoveto } def
/Tclip { pdfTextClipPath cvx exec clip newpath
         /pdfTextClipPath [] def } def
/Tclip* { pdfTextClipPath cvx exec eoclip newpath
         /pdfTextClipPath [] def } def
% Level 2/3 image operators
/pdfImBuf 100 string def
/pdfImStr {
  2 copy exch length lt {
    2 copy get exch 1 add exch
  } {
    ()
  } ifelse
} def
/skipEOD {
  { currentfile pdfImBuf readline
    not { pop exit } if
    (%-EOD-) eq { exit } if } loop
} def
/pdfIm { image skipEOD } def
/pdfImM { fCol imagemask skipEOD } def
/pr { 2 index 2 index 3 2 roll putinterval 4 add } def
/pdfImClip {
  gsave
  0 2 4 index length 1 sub {
    dup 4 index exch 2 copy
    get 5 index div put
    1 add 3 index exch 2 copy
    get 3 index div put
  } for
  pop pop rectclip
} def
/pdfImClipEnd { grestore } def
% shading operators
/colordelta {
  false 0 1 3 index length 1 sub {
    dup 4 index exch get 3 index 3 2 roll get sub abs 0.004 gt {
      pop true
    } if
  } for
  exch pop exch pop
} def
/funcCol { func n array astore } def
/funcSH {
  dup 0 eq {
    true
  } {
    dup 6 eq {
      false
    } {
      4 index 4 index funcCol dup
      6 index 4 index funcCol dup
      3 1 roll colordelta 3 1 roll
      5 index 5 index funcCol dup
      3 1 roll colordelta 3 1 roll
      6 index 8 index funcCol dup
      3 1 roll colordelta 3 1 roll
      colordelta or or or
    } ifelse
  } ifelse
  {
    1 add
    4 index 3 index add 0.5 mul exch 4 index 3 index add 0.5 mul exch
    6 index 6 index 4 index 4 index 4 index funcSH
    2 index 6 index 6 index 4 index 4 index funcSH
    6 index 2 index 4 index 6 index 4 index funcSH
    5 3 roll 3 2 roll funcSH pop pop
  } {
    pop 3 index 2 index add 0.5 mul 3 index  2 index add 0.5 mul
    funcCol sc
    dup 4 index exch mat transform m
    3 index 3 index mat transform l
    1 index 3 index mat transform l
    mat transform l pop pop h f*
  } ifelse
} def
/axialCol {
  dup 0 lt {
    pop t0
  } {
    dup 1 gt {
      pop t1
    } {
      dt mul t0 add
    } ifelse
  } ifelse
  func n array astore
} def
/axialSH {
  dup 0 eq {
    true
  } {
    dup 8 eq {
      false
    } {
      2 index axialCol 2 index axialCol colordelta
    } ifelse
  } ifelse
  {
    1 add 3 1 roll 2 copy add 0.5 mul
    dup 4 3 roll exch 4 index axialSH
    exch 3 2 roll axialSH
  } {
    pop 2 copy add 0.5 mul
    axialCol sc
    exch dup dx mul x0 add exch dy mul y0 add
    3 2 roll dup dx mul x0 add exch dy mul y0 add
    dx abs dy abs ge {
      2 copy yMin sub dy mul dx div add yMin m
      yMax sub dy mul dx div add yMax l
      2 copy yMax sub dy mul dx div add yMax l
      yMin sub dy mul dx div add yMin l
      h f*
    } {
      exch 2 copy xMin sub dx mul dy div add xMin exch m
      xMax sub dx mul dy div add xMax exch l
      exch 2 copy xMax sub dx mul dy div add xMax exch l
      xMin sub dx mul dy div add xMin exch l
      h f*
    } ifelse
  } ifelse
} def
/radialCol {
  dup t0 lt {
    pop t0
  } {
    dup t1 gt {
      pop t1
    } if
  } ifelse
  func n array astore
} def
/radialSH {
  dup 0 eq {
    true
  } {
    dup 8 eq {
      false
    } {
      2 index dt mul t0 add radialCol
      2 index dt mul t0 add radialCol colordelta
    } ifelse
  } ifelse
  {
    1 add 3 1 roll 2 copy add 0.5 mul
    dup 4 3 roll exch 4 index radialSH
    exch 3 2 roll radialSH
  } {
    pop 2 copy add 0.5 mul dt mul t0 add
    radialCol sc
    encl {
      exch dup dx mul x0 add exch dup dy mul y0 add exch dr mul r0 add
      0 360 arc h
      dup dx mul x0 add exch dup dy mul y0 add exch dr mul r0 add
      360 0 arcn h f
    } {
      2 copy
      dup dx mul x0 add exch dup dy mul y0 add exch dr mul r0 add
      a1 a2 arcn
      dup dx mul x0 add exch dup dy mul y0 add exch dr mul r0 add
      a2 a1 arcn h
      dup dx mul x0 add exch dup dy mul y0 add exch dr mul r0 add
      a1 a2 arc
      dup dx mul x0 add exch dup dy mul y0 add exch dr mul r0 add
      a2 a1 arc h f
    } ifelse
  } ifelse
} def
end
%%EndResource
%%EndProlog
%%BeginSetup
xpdf begin
%%EndSetup
pdfStartPage
[] 0 d
1 i
0 j
0 J
10 M
1 w
/DeviceGray {} cs
[0] sc
/DeviceGray {} CS
[0] SC
false op
false OP
{} settransfer
0 0 506 191 re
W
q
q
[1 0 0 1 -62 -341] cm
q
[1 0 0 1 0 0] cm
0 0 792 612 re
W
[1 0 0 -1 0 612] cm
[0.45 0 0 0.45 0 0] cm
[1 0 0 1 0 0] cm
q
/DeviceRGB {} cs
[1 1 1] sc
0 0 1760 1360 re
f
Q
q
[1 0 0 1 0 0] cm
q
q
q
/DeviceRGB {} cs
[0.8 1 0.8] sc
140 185 m
140 182.2 142.2 180 145 180 c
235 180 l
237.8 180 240 182.2 240 185 c
240 219.6 l
240 222.3 237.8 224.6 235 224.6 c
145 224.6 l
142.2 224.6 140 222.3 140 219.6 c
140 185 l
h
f
Q
q
q
q
2 w
/DeviceRGB {} CS
[0 0 0] SC
140 185 m
140 182.2 142.2 180 145 180 c
235 180 l
237.8 180 240 182.2 240 185 c
240 219.6 l
240 222.3 237.8 224.6 235 224.6 c
145 224.6 l
142.2 224.6 140 222.3 140 219.6 c
140 185 l
h
S
Q
Q
Q
q
q
q
[1 0 0 1 165.3 206.2] cm
[0.0617 0 0 0.0617 0 0] cm
[1 0 0 1 0 -612] cm
q
[1 0 0 1 0 0] cm
q
[1 0 0 1 0 612] cm
[1 0 0 1 0 0] cm
q
q
/DeviceRGB {} cs
[0 0 0] sc
33 -248 34 248 re
f
Q
Q
Q
Q
q
[1 0 0 1 100 0] cm
q
[1 0 0 1 0 612] cm
[1 0 0 1 0 0] cm
q
q
/DeviceRGB {} cs
[0 0 0] sc
117 -194 m
206 -198 170 -78 177 0 c
145 0 l
145 -121 l
145 -152 137 -170 106 -169 c
34 -167 62 -67 57 0 c
25 0 l
24 -190 l
54 -190 l
55 -180 53 -166 56 -158 c
67 -180 85 -193 117 -194 c
f
Q
Q
Q
Q
q
[1 0 0 1 300 0] cm
q
[1 0 0 1 0 612] cm
[1 0 0 1 0 0] cm
q
q
/DeviceRGB {} cs
[0 0 0] sc
115 -194 m
170 -193 185 -153 185 -96 c
185 -39 169 2 115 4 c
84 4 66 -9 55 -30 c
56 75 l
24 75 l
23 -190 l
54 -190 l
56 -160 l
66 -181 84 -194 115 -194 c
h
107 -20 m
147 -20 152 -54 152 -95 c
152 -136 146 -168 107 -169 c
65 -169 56 -137 56 -93 c
56 -50 66 -20 107 -20 c
f
Q
Q
Q
Q
q
[1 0 0 1 500 0] cm
q
[1 0 0 1 0 612] cm
[1 0 0 1 0 0] cm
q
q
/DeviceRGB {} cs
[0 0 0] sc
84 4 m
-5 8 30 -112 23 -190 c
55 -190 l
55 -70 l
55 -39 62 -20 94 -21 c
166 -23 139 -122 144 -190 c
175 -190 l
176 0 l
146 0 l
145 -10 147 -25 144 -33 c
133 -11 116 3 84 4 c
f
Q
Q
Q
Q
q
[1 0 0 1 700 0] cm
q
[1 0 0 1 0 612] cm
[1 0 0 1 0 0] cm
q
q
/DeviceRGB {} cs
[0 0 0] sc
59 -47 m
57 -23 77 -18 97 -25 c
97 -1 l
64 9 27 4 27 -40 c
27 -167 l
5 -167 l
5 -190 l
29 -190 l
38 -233 l
59 -233 l
59 -190 l
94 -190 l
94 -167 l
59 -167 l
59 -47 l
f
Q
Q
Q
Q
Q
Q
Q
Q
Q
q
q
q
/DeviceRGB {} cs
[1 0.6 0.2] sc
260 185 m
260 182.2 262.2 180 265 180 c
355 180 l
357.8 180 360 182.2 360 185 c
360 219.6 l
360 222.3 357.8 224.6 355 224.6 c
265 224.6 l
262.2 224.6 260 222.3 260 219.6 c
260 185 l
h
f
Q
q
q
q
2 w
/DeviceRGB {} CS
[0 0 0] SC
260 185 m
260 182.2 262.2 180 265 180 c
355 180 l
357.8 180 360 182.2 360 185 c
360 219.6 l
360 222.3 357.8 224.6 355 224.6 c
265 224.6 l
262.2 224.6 260 222.3 260 219.6 c
260 185 l
h
S
Q
Q
Q
q
q
q
[1 0 0 1 268.7 206.2] cm
[0.0617 0 0 0.0617 0 0] cm
[1 0 0 1 0 -612] cm
q
[1 0 0 1 0 0] cm
q
[1 0 0 1 0 612] cm
[1 0 0 1 0 0] cm
q
q
/DeviceRGB {} cs
[0 0 0] sc
194 0 m
95 -120 l
63 -95 l
63 0 l
30 0 l
30 -248 l
63 -248 l
63 -124 l
182 -248 l
222 -248 l
117 -140 l
236 0 l
194 0 l
f
Q
Q
Q
Q
q
[1 0 0 1 240 0] cm
q
[1 0 0 1 0 612] cm
[1 0 0 1 0 0] cm
q
q
/DeviceRGB {} cs
[0 0 0] sc
100 -194 m
163 -194 186 -152 184 -88 c
49 -88 l
49 -48 63 -21 102 -20 c
128 -19 145 -32 151 -49 c
179 -41 l
168 -13 142 4 102 4 c
44 4 14 -33 15 -96 c
16 -157 41 -194 100 -194 c
h
152 -113 m
158 -173 76 -190 55 -141 c
52 -134 49 -124 49 -113 c
152 -113 l
f
Q
Q
Q
Q
q
[1 0 0 1 440 0] cm
q
[1 0 0 1 0 612] cm
[1 0 0 1 0 0] cm
q
q
/DeviceRGB {} cs
[0 0 0] sc
114 -163 m
36 -179 61 -72 57 0 c
25 0 l
24 -190 l
54 -190 l
55 -178 53 -161 56 -151 c
62 -178 79 -200 114 -192 c
114 -163 l
f
Q
Q
Q
Q
q
[1 0 0 1 559 0] cm
q
[1 0 0 1 0 612] cm
[1 0 0 1 0 0] cm
q
q
/DeviceRGB {} cs
[0 0 0] sc
117 -194 m
206 -198 170 -78 177 0 c
145 0 l
145 -121 l
145 -152 137 -170 106 -169 c
34 -167 62 -67 57 0 c
25 0 l
24 -190 l
54 -190 l
55 -180 53 -166 56 -158 c
67 -180 85 -193 117 -194 c
f
Q
Q
Q
Q
q
[1 0 0 1 759 0] cm
q
[1 0 0 1 0 612] cm
[1 0 0 1 0 0] cm
q
q
/DeviceRGB {} cs
[0 0 0] sc
100 -194 m
163 -194 186 -152 184 -88 c
49 -88 l
49 -48 63 -21 102 -20 c
128 -19 145 -32 151 -49 c
179 -41 l
168 -13 142 4 102 4 c
44 4 14 -33 15 -96 c
16 -157 41 -194 100 -194 c
h
152 -113 m
158 -173 76 -190 55 -141 c
52 -134 49 -124 49 -113 c
152 -113 l
f
Q
Q
Q
Q
q
[1 0 0 1 959 0] cm
q
[1 0 0 1 0 612] cm
[1 0 0 1 0 0] cm
q
q
/DeviceRGB {} cs
[0 0 0] sc
24 -261 32 261 re
f
Q
Q
Q
Q
q
[1 0 0 1 1038 0] cm
q
[1 0 0 1 0 612] cm
[1 0 0 1 0 0] cm
q
q
/DeviceRGB {} cs
[0 0 0] sc
Q
Q
Q
Q
Q
Q
q
q
[1 0 0 1 338.9 206.2] cm
[0.0617 0 0 0.0617 0 0] cm
[1 0 0 1 0 -612] cm
q
[1 0 0 1 0 0] cm
q
[1 0 0 1 0 612] cm
[1 0 0 1 0 0] cm
q
q
/DeviceRGB {} cs
[0 0 0] sc
27 0 m
27 -27 l
91 -27 l
91 -217 l
35 -178 l
35 -207 l
93 -248 l
122 -248 l
122 -27 l
183 -27 l
183 0 l
27 0 l
f
Q
Q
Q
Q
Q
Q
Q
Q
Q
q
q
q
/DeviceRGB {} cs
[0.8 1 0.8] sc
380 185 m
380 182.2 382.2 180 385 180 c
495 180 l
497.8 180 500 182.2 500 185 c
500 219.6 l
500 222.3 497.8 224.6 495 224.6 c
385 224.6 l
382.2 224.6 380 222.3 380 219.6 c
380 185 l
h
f
Q
q
q
q
2 w
/DeviceRGB {} CS
[0 0 0] SC
380 185 m
380 182.2 382.2 180 385 180 c
495 180 l
497.8 180 500 182.2 500 185 c
500 219.6 l
500 222.3 497.8 224.6 495 224.6 c
385 224.6 l
382.2 224.6 380 222.3 380 219.6 c
380 185 l
h
S
Q
Q
Q
q
q
q
[1 0 0 1 406.6 206.2] cm
[0.0617 0 0 0.0617 0 0] cm
[1 0 0 1 0 -612] cm
q
[1 0 0 1 0 0] cm
q
[1 0 0 1 0 612] cm
[1 0 0 1 0 0] cm
q
q
/DeviceRGB {} cs
[0 0 0] sc
140 -251 m
221 -251 263 -205 263 -125 c
263 -46 219 4 140 4 c
59 4 17 -45 17 -125 c
17 -205 59 -251 140 -251 c
h
140 -24 m
203 -24 229 -65 229 -125 c
229 -185 200 -224 140 -224 c
79 -224 51 -185 51 -125 c
51 -65 79 -25 140 -24 c
f
Q
Q
Q
Q
q
[1 0 0 1 280 0] cm
q
[1 0 0 1 0 612] cm
[1 0 0 1 0 0] cm
q
q
/DeviceRGB {} cs
[0 0 0] sc
84 4 m
-5 8 30 -112 23 -190 c
55 -190 l
55 -70 l
55 -39 62 -20 94 -21 c
166 -23 139 -122 144 -190 c
175 -190 l
176 0 l
146 0 l
145 -10 147 -25 144 -33 c
133 -11 116 3 84 4 c
f
Q
Q
Q
Q
q
[1 0 0 1 480 0] cm
q
[1 0 0 1 0 612] cm
[1 0 0 1 0 0] cm
q
q
/DeviceRGB {} cs
[0 0 0] sc
59 -47 m
57 -23 77 -18 97 -25 c
97 -1 l
64 9 27 4 27 -40 c
27 -167 l
5 -167 l
5 -190 l
29 -190 l
38 -233 l
59 -233 l
59 -190 l
94 -190 l
94 -167 l
59 -167 l
59 -47 l
f
Q
Q
Q
Q
q
[1 0 0 1 580 0] cm
q
[1 0 0 1 0 612] cm
[1 0 0 1 0 0] cm
q
q
/DeviceRGB {} cs
[0 0 0] sc
115 -194 m
170 -193 185 -153 185 -96 c
185 -39 169 2 115 4 c
84 4 66 -9 55 -30 c
56 75 l
24 75 l
23 -190 l
54 -190 l
56 -160 l
66 -181 84 -194 115 -194 c
h
107 -20 m
147 -20 152 -54 152 -95 c
152 -136 146 -168 107 -169 c
65 -169 56 -137 56 -93 c
56 -50 66 -20 107 -20 c
f
Q
Q
Q
Q
q
[1 0 0 1 780 0] cm
q
[1 0 0 1 0 612] cm
[1 0 0 1 0 0] cm
q
q
/DeviceRGB {} cs
[0 0 0] sc
84 4 m
-5 8 30 -112 23 -190 c
55 -190 l
55 -70 l
55 -39 62 -20 94 -21 c
166 -23 139 -122 144 -190 c
175 -190 l
176 0 l
146 0 l
145 -10 147 -25 144 -33 c
133 -11 116 3 84 4 c
f
Q
Q
Q
Q
q
[1 0 0 1 980 0] cm
q
[1 0 0 1 0 612] cm
[1 0 0 1 0 0] cm
q
q
/DeviceRGB {} cs
[0 0 0] sc
59 -47 m
57 -23 77 -18 97 -25 c
97 -1 l
64 9 27 4 27 -40 c
27 -167 l
5 -167 l
5 -190 l
29 -190 l
38 -233 l
59 -233 l
59 -190 l
94 -190 l
94 -167 l
59 -167 l
59 -47 l
f
Q
Q
Q
Q
Q
Q
Q
Q
Q
q
q
q
/DeviceRGB {} cs
[0.8 1 0.8] sc
520 185 m
520 182.2 522.2 180 525 180 c
615 180 l
617.8 180 620 182.2 620 185 c
620 219.6 l
620 222.3 617.8 224.6 615 224.6 c
525 224.6 l
522.2 224.6 520 222.3 520 219.6 c
520 185 l
h
f
Q
q
q
q
2 w
/DeviceRGB {} CS
[0 0 0] SC
520 185 m
520 182.2 522.2 180 525 180 c
615 180 l
617.8 180 620 182.2 620 185 c
620 219.6 l
620 222.3 617.8 224.6 615 224.6 c
525 224.6 l
522.2 224.6 520 222.3 520 219.6 c
520 185 l
h
S
Q
Q
Q
q
q
q
[1 0 0 1 545.3 206.2] cm
[0.0617 0 0 0.0617 0 0] cm
[1 0 0 1 0 -612] cm
q
[1 0 0 1 0 0] cm
q
[1 0 0 1 0 612] cm
[1 0 0 1 0 0] cm
q
q
/DeviceRGB {} cs
[0 0 0] sc
33 -248 34 248 re
f
Q
Q
Q
Q
q
[1 0 0 1 100 0] cm
q
[1 0 0 1 0 612] cm
[1 0 0 1 0 0] cm
q
q
/DeviceRGB {} cs
[0 0 0] sc
117 -194 m
206 -198 170 -78 177 0 c
145 0 l
145 -121 l
145 -152 137 -170 106 -169 c
34 -167 62 -67 57 0 c
25 0 l
24 -190 l
54 -190 l
55 -180 53 -166 56 -158 c
67 -180 85 -193 117 -194 c
f
Q
Q
Q
Q
q
[1 0 0 1 300 0] cm
q
[1 0 0 1 0 612] cm
[1 0 0 1 0 0] cm
q
q
/DeviceRGB {} cs
[0 0 0] sc
115 -194 m
170 -193 185 -153 185 -96 c
185 -39 169 2 115 4 c
84 4 66 -9 55 -30 c
56 75 l
24 75 l
23 -190 l
54 -190 l
56 -160 l
66 -181 84 -194 115 -194 c
h
107 -20 m
147 -20 152 -54 152 -95 c
152 -136 146 -168 107 -169 c
65 -169 56 -137 56 -93 c
56 -50 66 -20 107 -20 c
f
Q
Q
Q
Q
q
[1 0 0 1 500 0] cm
q
[1 0 0 1 0 612] cm
[1 0 0 1 0 0] cm
q
q
/DeviceRGB {} cs
[0 0 0] sc
84 4 m
-5 8 30 -112 23 -190 c
55 -190 l
55 -70 l
55 -39 62 -20 94 -21 c
166 -23 139 -122 144 -190 c
175 -190 l
176 0 l
146 0 l
145 -10 147 -25 144 -33 c
133 -11 116 3 84 4 c
f
Q
Q
Q
Q
q
[1 0 0 1 700 0] cm
q
[1 0 0 1 0 612] cm
[1 0 0 1 0 0] cm
q
q
/DeviceRGB {} cs
[0 0 0] sc
59 -47 m
57 -23 77 -18 97 -25 c
97 -1 l
64 9 27 4 27 -40 c
27 -167 l
5 -167 l
5 -190 l
29 -190 l
38 -233 l
59 -233 l
59 -190 l
94 -190 l
94 -167 l
59 -167 l
59 -47 l
f
Q
Q
Q
Q
Q
Q
Q
Q
Q
q
q
q
/DeviceRGB {} cs
[1 0.6 0.2] sc
640 185 m
640 182.2 642.2 180 645 180 c
735 180 l
737.8 180 740 182.2 740 185 c
740 219.6 l
740 222.3 737.8 224.6 735 224.6 c
645 224.6 l
642.2 224.6 640 222.3 640 219.6 c
640 185 l
h
f
Q
q
q
q
2 w
/DeviceRGB {} CS
[0 0 0] SC
640 185 m
640 182.2 642.2 180 645 180 c
735 180 l
737.8 180 740 182.2 740 185 c
740 219.6 l
740 222.3 737.8 224.6 735 224.6 c
645 224.6 l
642.2 224.6 640 222.3 640 219.6 c
640 185 l
h
S
Q
Q
Q
q
q
q
[1 0 0 1 648.7 206.2] cm
[0.0617 0 0 0.0617 0 0] cm
[1 0 0 1 0 -612] cm
q
[1 0 0 1 0 0] cm
q
[1 0 0 1 0 612] cm
[1 0 0 1 0 0] cm
q
q
/DeviceRGB {} cs
[0 0 0] sc
194 0 m
95 -120 l
63 -95 l
63 0 l
30 0 l
30 -248 l
63 -248 l
63 -124 l
182 -248 l
222 -248 l
117 -140 l
236 0 l
194 0 l
f
Q
Q
Q
Q
q
[1 0 0 1 240 0] cm
q
[1 0 0 1 0 612] cm
[1 0 0 1 0 0] cm
q
q
/DeviceRGB {} cs
[0 0 0] sc
100 -194 m
163 -194 186 -152 184 -88 c
49 -88 l
49 -48 63 -21 102 -20 c
128 -19 145 -32 151 -49 c
179 -41 l
168 -13 142 4 102 4 c
44 4 14 -33 15 -96 c
16 -157 41 -194 100 -194 c
h
152 -113 m
158 -173 76 -190 55 -141 c
52 -134 49 -124 49 -113 c
152 -113 l
f
Q
Q
Q
Q
q
[1 0 0 1 440 0] cm
q
[1 0 0 1 0 612] cm
[1 0 0 1 0 0] cm
q
q
/DeviceRGB {} cs
[0 0 0] sc
114 -163 m
36 -179 61 -72 57 0 c
25 0 l
24 -190 l
54 -190 l
55 -178 53 -161 56 -151 c
62 -178 79 -200 114 -192 c
114 -163 l
f
Q
Q
Q
Q
q
[1 0 0 1 559 0] cm
q
[1 0 0 1 0 612] cm
[1 0 0 1 0 0] cm
q
q
/DeviceRGB {} cs
[0 0 0] sc
117 -194 m
206 -198 170 -78 177 0 c
145 0 l
145 -121 l
145 -152 137 -170 106 -169 c
34 -167 62 -67 57 0 c
25 0 l
24 -190 l
54 -190 l
55 -180 53 -166 56 -158 c
67 -180 85 -193 117 -194 c
f
Q
Q
Q
Q
q
[1 0 0 1 759 0] cm
q
[1 0 0 1 0 612] cm
[1 0 0 1 0 0] cm
q
q
/DeviceRGB {} cs
[0 0 0] sc
100 -194 m
163 -194 186 -152 184 -88 c
49 -88 l
49 -48 63 -21 102 -20 c
128 -19 145 -32 151 -49 c
179 -41 l
168 -13 142 4 102 4 c
44 4 14 -33 15 -96 c
16 -157 41 -194 100 -194 c
h
152 -113 m
158 -173 76 -190 55 -141 c
52 -134 49 -124 49 -113 c
152 -113 l
f
Q
Q
Q
Q
q
[1 0 0 1 959 0] cm
q
[1 0 0 1 0 612] cm
[1 0 0 1 0 0] cm
q
q
/DeviceRGB {} cs
[0 0 0] sc
24 -261 32 261 re
f
Q
Q
Q
Q
q
[1 0 0 1 1038 0] cm
q
[1 0 0 1 0 612] cm
[1 0 0 1 0 0] cm
q
q
/DeviceRGB {} cs
[0 0 0] sc
Q
Q
Q
Q
Q
Q
q
q
[1 0 0 1 718.9 206.2] cm
[0.0617 0 0 0.0617 0 0] cm
[1 0 0 1 0 -612] cm
q
[1 0 0 1 0 0] cm
q
[1 0 0 1 0 612] cm
[1 0 0 1 0 0] cm
q
q
/DeviceRGB {} cs
[0 0 0] sc
101 -251 m
183 -258 194 -164 144 -119 c
82 -64 l
71 -53 59 -42 53 -27 c
182 -27 l
182 0 l
18 0 l
20 -99 146 -94 146 -182 c
146 -210 130 -225 101 -225 c
72 -225 55 -210 52 -184 c
20 -187 l
26 -228 54 -247 101 -251 c
f
Q
Q
Q
Q
Q
Q
Q
Q
Q
q
q
q
/DeviceRGB {} cs
[0.8 1 0.8] sc
760 185 m
760 182.2 762.2 180 765 180 c
875 180 l
877.8 180 880 182.2 880 185 c
880 219.6 l
880 222.3 877.8 224.6 875 224.6 c
765 224.6 l
762.2 224.6 760 222.3 760 219.6 c
760 185 l
h
f
Q
q
q
q
2 w
/DeviceRGB {} CS
[0 0 0] SC
760 185 m
760 182.2 762.2 180 765 180 c
875 180 l
877.8 180 880 182.2 880 185 c
880 219.6 l
880 222.3 877.8 224.6 875 224.6 c
765 224.6 l
762.2 224.6 760 222.3 760 219.6 c
760 185 l
h
S
Q
Q
Q
q
q
q
[1 0 0 1 786.6 206.2] cm
[0.0617 0 0 0.0617 0 0] cm
[1 0 0 1 0 -612] cm
q
[1 0 0 1 0 0] cm
q
[1 0 0 1 0 612] cm
[1 0 0 1 0 0] cm
q
q
/DeviceRGB {} cs
[0 0 0] sc
140 -251 m
221 -251 263 -205 263 -125 c
263 -46 219 4 140 4 c
59 4 17 -45 17 -125 c
17 -205 59 -251 140 -251 c
h
140 -24 m
203 -24 229 -65 229 -125 c
229 -185 200 -224 140 -224 c
79 -224 51 -185 51 -125 c
51 -65 79 -25 140 -24 c
f
Q
Q
Q
Q
q
[1 0 0 1 280 0] cm
q
[1 0 0 1 0 612] cm
[1 0 0 1 0 0] cm
q
q
/DeviceRGB {} cs
[0 0 0] sc
84 4 m
-5 8 30 -112 23 -190 c
55 -190 l
55 -70 l
55 -39 62 -20 94 -21 c
166 -23 139 -122 144 -190 c
175 -190 l
176 0 l
146 0 l
145 -10 147 -25 144 -33 c
133 -11 116 3 84 4 c
f
Q
Q
Q
Q
q
[1 0 0 1 480 0] cm
q
[1 0 0 1 0 612] cm
[1 0 0 1 0 0] cm
q
q
/DeviceRGB {} cs
[0 0 0] sc
59 -47 m
57 -23 77 -18 97 -25 c
97 -1 l
64 9 27 4 27 -40 c
27 -167 l
5 -167 l
5 -190 l
29 -190 l
38 -233 l
59 -233 l
59 -190 l
94 -190 l
94 -167 l
59 -167 l
59 -47 l
f
Q
Q
Q
Q
q
[1 0 0 1 580 0] cm
q
[1 0 0 1 0 612] cm
[1 0 0 1 0 0] cm
q
q
/DeviceRGB {} cs
[0 0 0] sc
115 -194 m
170 -193 185 -153 185 -96 c
185 -39 169 2 115 4 c
84 4 66 -9 55 -30 c
56 75 l
24 75 l
23 -190 l
54 -190 l
56 -160 l
66 -181 84 -194 115 -194 c
h
107 -20 m
147 -20 152 -54 152 -95 c
152 -136 146 -168 107 -169 c
65 -169 56 -137 56 -93 c
56 -50 66 -20 107 -20 c
f
Q
Q
Q
Q
q
[1 0 0 1 780 0] cm
q
[1 0 0 1 0 612] cm
[1 0 0 1 0 0] cm
q
q
/DeviceRGB {} cs
[0 0 0] sc
84 4 m
-5 8 30 -112 23 -190 c
55 -190 l
55 -70 l
55 -39 62 -20 94 -21 c
166 -23 139 -122 144 -190 c
175 -190 l
176 0 l
146 0 l
145 -10 147 -25 144 -33 c
133 -11 116 3 84 4 c
f
Q
Q
Q
Q
q
[1 0 0 1 980 0] cm
q
[1 0 0 1 0 612] cm
[1 0 0 1 0 0] cm
q
q
/DeviceRGB {} cs
[0 0 0] sc
59 -47 m
57 -23 77 -18 97 -25 c
97 -1 l
64 9 27 4 27 -40 c
27 -167 l
5 -167 l
5 -190 l
29 -190 l
38 -233 l
59 -233 l
59 -190 l
94 -190 l
94 -167 l
59 -167 l
59 -47 l
f
Q
Q
Q
Q
Q
Q
Q
Q
Q
q
q
q
/DeviceRGB {} cs
[1 0.6 0.2] sc
140 296.4 m
140 293.6 142.2 291.4 145 291.4 c
455 291.4 l
457.8 291.4 460 293.6 460 296.4 c
460 331 l
460 333.7 457.8 336 455 336 c
145 336 l
142.2 336 140 333.7 140 331 c
140 296.4 l
h
f
Q
q
q
q
2 w
/DeviceRGB {} CS
[0 0 0] SC
140 296.4 m
140 293.6 142.2 291.4 145 291.4 c
455 291.4 l
457.8 291.4 460 293.6 460 296.4 c
460 331 l
460 333.7 457.8 336 455 336 c
145 336 l
142.2 336 140 333.7 140 331 c
140 296.4 l
h
S
Q
Q
Q
q
q
q
[1 0 0 1 258.7 317.6] cm
[0.0617 0 0 0.0617 0 0] cm
[1 0 0 1 0 -612] cm
q
[1 0 0 1 0 0] cm
q
[1 0 0 1 0 612] cm
[1 0 0 1 0 0] cm
q
q
/DeviceRGB {} cs
[0 0 0] sc
194 0 m
95 -120 l
63 -95 l
63 0 l
30 0 l
30 -248 l
63 -248 l
63 -124 l
182 -248 l
222 -248 l
117 -140 l
236 0 l
194 0 l
f
Q
Q
Q
Q
q
[1 0 0 1 240 0] cm
q
[1 0 0 1 0 612] cm
[1 0 0 1 0 0] cm
q
q
/DeviceRGB {} cs
[0 0 0] sc
100 -194 m
163 -194 186 -152 184 -88 c
49 -88 l
49 -48 63 -21 102 -20 c
128 -19 145 -32 151 -49 c
179 -41 l
168 -13 142 4 102 4 c
44 4 14 -33 15 -96 c
16 -157 41 -194 100 -194 c
h
152 -113 m
158 -173 76 -190 55 -141 c
52 -134 49 -124 49 -113 c
152 -113 l
f
Q
Q
Q
Q
q
[1 0 0 1 440 0] cm
q
[1 0 0 1 0 612] cm
[1 0 0 1 0 0] cm
q
q
/DeviceRGB {} cs
[0 0 0] sc
114 -163 m
36 -179 61 -72 57 0 c
25 0 l
24 -190 l
54 -190 l
55 -178 53 -161 56 -151 c
62 -178 79 -200 114 -192 c
114 -163 l
f
Q
Q
Q
Q
q
[1 0 0 1 559 0] cm
q
[1 0 0 1 0 612] cm
[1 0 0 1 0 0] cm
q
q
/DeviceRGB {} cs
[0 0 0] sc
117 -194 m
206 -198 170 -78 177 0 c
145 0 l
145 -121 l
145 -152 137 -170 106 -169 c
34 -167 62 -67 57 0 c
25 0 l
24 -190 l
54 -190 l
55 -180 53 -166 56 -158 c
67 -180 85 -193 117 -194 c
f
Q
Q
Q
Q
q
[1 0 0 1 759 0] cm
q
[1 0 0 1 0 612] cm
[1 0 0 1 0 0] cm
q
q
/DeviceRGB {} cs
[0 0 0] sc
100 -194 m
163 -194 186 -152 184 -88 c
49 -88 l
49 -48 63 -21 102 -20 c
128 -19 145 -32 151 -49 c
179 -41 l
168 -13 142 4 102 4 c
44 4 14 -33 15 -96 c
16 -157 41 -194 100 -194 c
h
152 -113 m
158 -173 76 -190 55 -141 c
52 -134 49 -124 49 -113 c
152 -113 l
f
Q
Q
Q
Q
q
[1 0 0 1 959 0] cm
q
[1 0 0 1 0 612] cm
[1 0 0 1 0 0] cm
q
q
/DeviceRGB {} cs
[0 0 0] sc
24 -261 32 261 re
f
Q
Q
Q
Q
q
[1 0 0 1 1038 0] cm
q
[1 0 0 1 0 612] cm
[1 0 0 1 0 0] cm
q
q
/DeviceRGB {} cs
[0 0 0] sc
Q
Q
Q
Q
Q
Q
q
q
[1 0 0 1 328.9 317.6] cm
[0.0617 0 0 0.0617 0 0] cm
[1 0 0 1 0 -612] cm
q
[1 0 0 1 0 0] cm
q
[1 0 0 1 0 612] cm
[1 0 0 1 0 0] cm
q
q
/DeviceRGB {} cs
[0 0 0] sc
27 0 m
27 -27 l
91 -27 l
91 -217 l
35 -178 l
35 -207 l
93 -248 l
122 -248 l
122 -27 l
183 -27 l
183 0 l
27 0 l
f
Q
Q
Q
Q
Q
Q
Q
Q
Q
q
q
q
/DeviceRGB {} cs
[1 0.6 0.2] sc
480 296.4 m
480 293.6 482.2 291.4 485 291.4 c
795 291.4 l
797.8 291.4 800 293.6 800 296.4 c
800 331 l
800 333.7 797.8 336 795 336 c
485 336 l
482.2 336 480 333.7 480 331 c
480 296.4 l
h
f
Q
q
q
q
2 w
/DeviceRGB {} CS
[0 0 0] SC
480 296.4 m
480 293.6 482.2 291.4 485 291.4 c
795 291.4 l
797.8 291.4 800 293.6 800 296.4 c
800 331 l
800 333.7 797.8 336 795 336 c
485 336 l
482.2 336 480 333.7 480 331 c
480 296.4 l
h
S
Q
Q
Q
q
q
q
[1 0 0 1 598.7 317.6] cm
[0.0617 0 0 0.0617 0 0] cm
[1 0 0 1 0 -612] cm
q
[1 0 0 1 0 0] cm
q
[1 0 0 1 0 612] cm
[1 0 0 1 0 0] cm
q
q
/DeviceRGB {} cs
[0 0 0] sc
194 0 m
95 -120 l
63 -95 l
63 0 l
30 0 l
30 -248 l
63 -248 l
63 -124 l
182 -248 l
222 -248 l
117 -140 l
236 0 l
194 0 l
f
Q
Q
Q
Q
q
[1 0 0 1 240 0] cm
q
[1 0 0 1 0 612] cm
[1 0 0 1 0 0] cm
q
q
/DeviceRGB {} cs
[0 0 0] sc
100 -194 m
163 -194 186 -152 184 -88 c
49 -88 l
49 -48 63 -21 102 -20 c
128 -19 145 -32 151 -49 c
179 -41 l
168 -13 142 4 102 4 c
44 4 14 -33 15 -96 c
16 -157 41 -194 100 -194 c
h
152 -113 m
158 -173 76 -190 55 -141 c
52 -134 49 -124 49 -113 c
152 -113 l
f
Q
Q
Q
Q
q
[1 0 0 1 440 0] cm
q
[1 0 0 1 0 612] cm
[1 0 0 1 0 0] cm
q
q
/DeviceRGB {} cs
[0 0 0] sc
114 -163 m
36 -179 61 -72 57 0 c
25 0 l
24 -190 l
54 -190 l
55 -178 53 -161 56 -151 c
62 -178 79 -200 114 -192 c
114 -163 l
f
Q
Q
Q
Q
q
[1 0 0 1 559 0] cm
q
[1 0 0 1 0 612] cm
[1 0 0 1 0 0] cm
q
q
/DeviceRGB {} cs
[0 0 0] sc
117 -194 m
206 -198 170 -78 177 0 c
145 0 l
145 -121 l
145 -152 137 -170 106 -169 c
34 -167 62 -67 57 0 c
25 0 l
24 -190 l
54 -190 l
55 -180 53 -166 56 -158 c
67 -180 85 -193 117 -194 c
f
Q
Q
Q
Q
q
[1 0 0 1 759 0] cm
q
[1 0 0 1 0 612] cm
[1 0 0 1 0 0] cm
q
q
/DeviceRGB {} cs
[0 0 0] sc
100 -194 m
163 -194 186 -152 184 -88 c
49 -88 l
49 -48 63 -21 102 -20 c
128 -19 145 -32 151 -49 c
179 -41 l
168 -13 142 4 102 4 c
44 4 14 -33 15 -96 c
16 -157 41 -194 100 -194 c
h
152 -113 m
158 -173 76 -190 55 -141 c
52 -134 49 -124 49 -113 c
152 -113 l
f
Q
Q
Q
Q
q
[1 0 0 1 959 0] cm
q
[1 0 0 1 0 612] cm
[1 0 0 1 0 0] cm
q
q
/DeviceRGB {} cs
[0 0 0] sc
24 -261 32 261 re
f
Q
Q
Q
Q
q
[1 0 0 1 1038 0] cm
q
[1 0 0 1 0 612] cm
[1 0 0 1 0 0] cm
q
q
/DeviceRGB {} cs
[0 0 0] sc
Q
Q
Q
Q
Q
Q
q
q
[1 0 0 1 668.9 317.6] cm
[0.0617 0 0 0.0617 0 0] cm
[1 0 0 1 0 -612] cm
q
[1 0 0 1 0 0] cm
q
[1 0 0 1 0 612] cm
[1 0 0 1 0 0] cm
q
q
/DeviceRGB {} cs
[0 0 0] sc
101 -251 m
183 -258 194 -164 144 -119 c
82 -64 l
71 -53 59 -42 53 -27 c
182 -27 l
182 0 l
18 0 l
20 -99 146 -94 146 -182 c
146 -210 130 -225 101 -225 c
72 -225 55 -210 52 -184 c
20 -187 l
26 -228 54 -247 101 -251 c
f
Q
Q
Q
Q
Q
Q
Q
Q
Q
q
q
q
/DeviceRGB {} cs
[0.8 1 0.8] sc
140 407.8 m
140 405.1 142.2 402.8 145 402.8 c
235 402.8 l
237.8 402.8 240 405.1 240 407.8 c
240 442.4 l
240 445.1 237.8 447.4 235 447.4 c
145 447.4 l
142.2 447.4 140 445.1 140 442.4 c
140 407.8 l
h
f
Q
q
q
q
2 w
/DeviceRGB {} CS
[0 0 0] SC
140 407.8 m
140 405.1 142.2 402.8 145 402.8 c
235 402.8 l
237.8 402.8 240 405.1 240 407.8 c
240 442.4 l
240 445.1 237.8 447.4 235 447.4 c
145 447.4 l
142.2 447.4 140 445.1 140 442.4 c
140 407.8 l
h
S
Q
Q
Q
q
q
q
[1 0 0 1 162.2 429] cm
[0.0617 0 0 0.0617 0 0] cm
[1 0 0 1 0 -612] cm
q
[1 0 0 1 0 0] cm
q
[1 0 0 1 0 612] cm
[1 0 0 1 0 0] cm
q
q
/DeviceRGB {} cs
[0 0 0] sc
Q
Q
Q
Q
Q
Q
q
q
[1 0 0 1 168.4 429] cm
[0.0617 0 0 0.0617 0 0] cm
[1 0 0 1 0 -612] cm
q
[1 0 0 1 0 0] cm
q
[1 0 0 1 0 612] cm
[1 0 0 1 0 0] cm
q
q
/DeviceRGB {} cs
[0 0 0] sc
33 -248 34 248 re
f
Q
Q
Q
Q
q
[1 0 0 1 100 0] cm
q
[1 0 0 1 0 612] cm
[1 0 0 1 0 0] cm
q
q
/DeviceRGB {} cs
[0 0 0] sc
117 -194 m
206 -198 170 -78 177 0 c
145 0 l
145 -121 l
145 -152 137 -170 106 -169 c
34 -167 62 -67 57 0 c
25 0 l
24 -190 l
54 -190 l
55 -180 53 -166 56 -158 c
67 -180 85 -193 117 -194 c
f
Q
Q
Q
Q
q
[1 0 0 1 300 0] cm
q
[1 0 0 1 0 612] cm
[1 0 0 1 0 0] cm
q
q
/DeviceRGB {} cs
[0 0 0] sc
115 -194 m
170 -193 185 -153 185 -96 c
185 -39 169 2 115 4 c
84 4 66 -9 55 -30 c
56 75 l
24 75 l
23 -190 l
54 -190 l
56 -160 l
66 -181 84 -194 115 -194 c
h
107 -20 m
147 -20 152 -54 152 -95 c
152 -136 146 -168 107 -169 c
65 -169 56 -137 56 -93 c
56 -50 66 -20 107 -20 c
f
Q
Q
Q
Q
q
[1 0 0 1 500 0] cm
q
[1 0 0 1 0 612] cm
[1 0 0 1 0 0] cm
q
q
/DeviceRGB {} cs
[0 0 0] sc
84 4 m
-5 8 30 -112 23 -190 c
55 -190 l
55 -70 l
55 -39 62 -20 94 -21 c
166 -23 139 -122 144 -190 c
175 -190 l
176 0 l
146 0 l
145 -10 147 -25 144 -33 c
133 -11 116 3 84 4 c
f
Q
Q
Q
Q
q
[1 0 0 1 700 0] cm
q
[1 0 0 1 0 612] cm
[1 0 0 1 0 0] cm
q
q
/DeviceRGB {} cs
[0 0 0] sc
59 -47 m
57 -23 77 -18 97 -25 c
97 -1 l
64 9 27 4 27 -40 c
27 -167 l
5 -167 l
5 -190 l
29 -190 l
38 -233 l
59 -233 l
59 -190 l
94 -190 l
94 -167 l
59 -167 l
59 -47 l
f
Q
Q
Q
Q
Q
Q
Q
Q
Q
q
q
q
/DeviceRGB {} cs
[1 0.6 0.2] sc
260 407.8 m
260 405.1 262.2 402.8 265 402.8 c
355 402.8 l
357.8 402.8 360 405.1 360 407.8 c
360 442.4 l
360 445.1 357.8 447.4 355 447.4 c
265 447.4 l
262.2 447.4 260 445.1 260 442.4 c
260 407.8 l
h
f
Q
q
q
q
2 w
/DeviceRGB {} CS
[0 0 0] SC
260 407.8 m
260 405.1 262.2 402.8 265 402.8 c
355 402.8 l
357.8 402.8 360 405.1 360 407.8 c
360 442.4 l
360 445.1 357.8 447.4 355 447.4 c
265 447.4 l
262.2 447.4 260 445.1 260 442.4 c
260 407.8 l
h
S
Q
Q
Q
q
q
q
[1 0 0 1 268.7 429] cm
[0.0617 0 0 0.0617 0 0] cm
[1 0 0 1 0 -612] cm
q
[1 0 0 1 0 0] cm
q
[1 0 0 1 0 612] cm
[1 0 0 1 0 0] cm
q
q
/DeviceRGB {} cs
[0 0 0] sc
194 0 m
95 -120 l
63 -95 l
63 0 l
30 0 l
30 -248 l
63 -248 l
63 -124 l
182 -248 l
222 -248 l
117 -140 l
236 0 l
194 0 l
f
Q
Q
Q
Q
q
[1 0 0 1 240 0] cm
q
[1 0 0 1 0 612] cm
[1 0 0 1 0 0] cm
q
q
/DeviceRGB {} cs
[0 0 0] sc
100 -194 m
163 -194 186 -152 184 -88 c
49 -88 l
49 -48 63 -21 102 -20 c
128 -19 145 -32 151 -49 c
179 -41 l
168 -13 142 4 102 4 c
44 4 14 -33 15 -96 c
16 -157 41 -194 100 -194 c
h
152 -113 m
158 -173 76 -190 55 -141 c
52 -134 49 -124 49 -113 c
152 -113 l
f
Q
Q
Q
Q
q
[1 0 0 1 440 0] cm
q
[1 0 0 1 0 612] cm
[1 0 0 1 0 0] cm
q
q
/DeviceRGB {} cs
[0 0 0] sc
114 -163 m
36 -179 61 -72 57 0 c
25 0 l
24 -190 l
54 -190 l
55 -178 53 -161 56 -151 c
62 -178 79 -200 114 -192 c
114 -163 l
f
Q
Q
Q
Q
q
[1 0 0 1 559 0] cm
q
[1 0 0 1 0 612] cm
[1 0 0 1 0 0] cm
q
q
/DeviceRGB {} cs
[0 0 0] sc
117 -194 m
206 -198 170 -78 177 0 c
145 0 l
145 -121 l
145 -152 137 -170 106 -169 c
34 -167 62 -67 57 0 c
25 0 l
24 -190 l
54 -190 l
55 -180 53 -166 56 -158 c
67 -180 85 -193 117 -194 c
f
Q
Q
Q
Q
q
[1 0 0 1 759 0] cm
q
[1 0 0 1 0 612] cm
[1 0 0 1 0 0] cm
q
q
/DeviceRGB {} cs
[0 0 0] sc
100 -194 m
163 -194 186 -152 184 -88 c
49 -88 l
49 -48 63 -21 102 -20 c
128 -19 145 -32 151 -49 c
179 -41 l
168 -13 142 4 102 4 c
44 4 14 -33 15 -96 c
16 -157 41 -194 100 -194 c
h
152 -113 m
158 -173 76 -190 55 -141 c
52 -134 49 -124 49 -113 c
152 -113 l
f
Q
Q
Q
Q
q
[1 0 0 1 959 0] cm
q
[1 0 0 1 0 612] cm
[1 0 0 1 0 0] cm
q
q
/DeviceRGB {} cs
[0 0 0] sc
24 -261 32 261 re
f
Q
Q
Q
Q
q
[1 0 0 1 1038 0] cm
q
[1 0 0 1 0 612] cm
[1 0 0 1 0 0] cm
q
q
/DeviceRGB {} cs
[0 0 0] sc
Q
Q
Q
Q
Q
Q
q
q
[1 0 0 1 338.9 429] cm
[0.0617 0 0 0.0617 0 0] cm
[1 0 0 1 0 -612] cm
q
[1 0 0 1 0 0] cm
q
[1 0 0 1 0 612] cm
[1 0 0 1 0 0] cm
q
q
/DeviceRGB {} cs
[0 0 0] sc
27 0 m
27 -27 l
91 -27 l
91 -217 l
35 -178 l
35 -207 l
93 -248 l
122 -248 l
122 -27 l
183 -27 l
183 0 l
27 0 l
f
Q
Q
Q
Q
Q
Q
Q
Q
Q
q
q
q
/DeviceRGB {} cs
[1 0.6 0.2] sc
390 407.8 m
390 405.1 392.2 402.8 395 402.8 c
485 402.8 l
487.8 402.8 490 405.1 490 407.8 c
490 442.4 l
490 445.1 487.8 447.4 485 447.4 c
395 447.4 l
392.2 447.4 390 445.1 390 442.4 c
390 407.8 l
h
f
Q
q
q
q
2 w
/DeviceRGB {} CS
[0 0 0] SC
390 407.8 m
390 405.1 392.2 402.8 395 402.8 c
485 402.8 l
487.8 402.8 490 405.1 490 407.8 c
490 442.4 l
490 445.1 487.8 447.4 485 447.4 c
395 447.4 l
392.2 447.4 390 445.1 390 442.4 c
390 407.8 l
h
S
Q
Q
Q
q
q
q
[1 0 0 1 398.7 429] cm
[0.0617 0 0 0.0617 0 0] cm
[1 0 0 1 0 -612] cm
q
[1 0 0 1 0 0] cm
q
[1 0 0 1 0 612] cm
[1 0 0 1 0 0] cm
q
q
/DeviceRGB {} cs
[0 0 0] sc
194 0 m
95 -120 l
63 -95 l
63 0 l
30 0 l
30 -248 l
63 -248 l
63 -124 l
182 -248 l
222 -248 l
117 -140 l
236 0 l
194 0 l
f
Q
Q
Q
Q
q
[1 0 0 1 240 0] cm
q
[1 0 0 1 0 612] cm
[1 0 0 1 0 0] cm
q
q
/DeviceRGB {} cs
[0 0 0] sc
100 -194 m
163 -194 186 -152 184 -88 c
49 -88 l
49 -48 63 -21 102 -20 c
128 -19 145 -32 151 -49 c
179 -41 l
168 -13 142 4 102 4 c
44 4 14 -33 15 -96 c
16 -157 41 -194 100 -194 c
h
152 -113 m
158 -173 76 -190 55 -141 c
52 -134 49 -124 49 -113 c
152 -113 l
f
Q
Q
Q
Q
q
[1 0 0 1 440 0] cm
q
[1 0 0 1 0 612] cm
[1 0 0 1 0 0] cm
q
q
/DeviceRGB {} cs
[0 0 0] sc
114 -163 m
36 -179 61 -72 57 0 c
25 0 l
24 -190 l
54 -190 l
55 -178 53 -161 56 -151 c
62 -178 79 -200 114 -192 c
114 -163 l
f
Q
Q
Q
Q
q
[1 0 0 1 559 0] cm
q
[1 0 0 1 0 612] cm
[1 0 0 1 0 0] cm
q
q
/DeviceRGB {} cs
[0 0 0] sc
117 -194 m
206 -198 170 -78 177 0 c
145 0 l
145 -121 l
145 -152 137 -170 106 -169 c
34 -167 62 -67 57 0 c
25 0 l
24 -190 l
54 -190 l
55 -180 53 -166 56 -158 c
67 -180 85 -193 117 -194 c
f
Q
Q
Q
Q
q
[1 0 0 1 759 0] cm
q
[1 0 0 1 0 612] cm
[1 0 0 1 0 0] cm
q
q
/DeviceRGB {} cs
[0 0 0] sc
100 -194 m
163 -194 186 -152 184 -88 c
49 -88 l
49 -48 63 -21 102 -20 c
128 -19 145 -32 151 -49 c
179 -41 l
168 -13 142 4 102 4 c
44 4 14 -33 15 -96 c
16 -157 41 -194 100 -194 c
h
152 -113 m
158 -173 76 -190 55 -141 c
52 -134 49 -124 49 -113 c
152 -113 l
f
Q
Q
Q
Q
q
[1 0 0 1 959 0] cm
q
[1 0 0 1 0 612] cm
[1 0 0 1 0 0] cm
q
q
/DeviceRGB {} cs
[0 0 0] sc
24 -261 32 261 re
f
Q
Q
Q
Q
q
[1 0 0 1 1038 0] cm
q
[1 0 0 1 0 612] cm
[1 0 0 1 0 0] cm
q
q
/DeviceRGB {} cs
[0 0 0] sc
Q
Q
Q
Q
Q
Q
q
q
[1 0 0 1 468.9 429] cm
[0.0617 0 0 0.0617 0 0] cm
[1 0 0 1 0 -612] cm
q
[1 0 0 1 0 0] cm
q
[1 0 0 1 0 612] cm
[1 0 0 1 0 0] cm
q
q
/DeviceRGB {} cs
[0 0 0] sc
101 -251 m
183 -258 194 -164 144 -119 c
82 -64 l
71 -53 59 -42 53 -27 c
182 -27 l
182 0 l
18 0 l
20 -99 146 -94 146 -182 c
146 -210 130 -225 101 -225 c
72 -225 55 -210 52 -184 c
20 -187 l
26 -228 54 -247 101 -251 c
f
Q
Q
Q
Q
Q
Q
Q
Q
Q
q
q
q
/DeviceRGB {} cs
[0.8 1 0.8] sc
640 407.8 m
640 405.1 642.2 402.8 645 402.8 c
755 402.8 l
757.8 402.8 760 405.1 760 407.8 c
760 442.4 l
760 445.1 757.8 447.4 755 447.4 c
645 447.4 l
642.2 447.4 640 445.1 640 442.4 c
640 407.8 l
h
f
Q
q
q
q
2 w
/DeviceRGB {} CS
[0 0 0] SC
640 407.8 m
640 405.1 642.2 402.8 645 402.8 c
755 402.8 l
757.8 402.8 760 405.1 760 407.8 c
760 442.4 l
760 445.1 757.8 447.4 755 447.4 c
645 447.4 l
642.2 447.4 640 445.1 640 442.4 c
640 407.8 l
h
S
Q
Q
Q
q
q
q
[1 0 0 1 666.6 429] cm
[0.0617 0 0 0.0617 0 0] cm
[1 0 0 1 0 -612] cm
q
[1 0 0 1 0 0] cm
q
[1 0 0 1 0 612] cm
[1 0 0 1 0 0] cm
q
q
/DeviceRGB {} cs
[0 0 0] sc
140 -251 m
221 -251 263 -205 263 -125 c
263 -46 219 4 140 4 c
59 4 17 -45 17 -125 c
17 -205 59 -251 140 -251 c
h
140 -24 m
203 -24 229 -65 229 -125 c
229 -185 200 -224 140 -224 c
79 -224 51 -185 51 -125 c
51 -65 79 -25 140 -24 c
f
Q
Q
Q
Q
q
[1 0 0 1 280 0] cm
q
[1 0 0 1 0 612] cm
[1 0 0 1 0 0] cm
q
q
/DeviceRGB {} cs
[0 0 0] sc
84 4 m
-5 8 30 -112 23 -190 c
55 -190 l
55 -70 l
55 -39 62 -20 94 -21 c
166 -23 139 -122 144 -190 c
175 -190 l
176 0 l
146 0 l
145 -10 147 -25 144 -33 c
133 -11 116 3 84 4 c
f
Q
Q
Q
Q
q
[1 0 0 1 480 0] cm
q
[1 0 0 1 0 612] cm
[1 0 0 1 0 0] cm
q
q
/DeviceRGB {} cs
[0 0 0] sc
59 -47 m
57 -23 77 -18 97 -25 c
97 -1 l
64 9 27 4 27 -40 c
27 -167 l
5 -167 l
5 -190 l
29 -190 l
38 -233 l
59 -233 l
59 -190 l
94 -190 l
94 -167 l
59 -167 l
59 -47 l
f
Q
Q
Q
Q
q
[1 0 0 1 580 0] cm
q
[1 0 0 1 0 612] cm
[1 0 0 1 0 0] cm
q
q
/DeviceRGB {} cs
[0 0 0] sc
115 -194 m
170 -193 185 -153 185 -96 c
185 -39 169 2 115 4 c
84 4 66 -9 55 -30 c
56 75 l
24 75 l
23 -190 l
54 -190 l
56 -160 l
66 -181 84 -194 115 -194 c
h
107 -20 m
147 -20 152 -54 152 -95 c
152 -136 146 -168 107 -169 c
65 -169 56 -137 56 -93 c
56 -50 66 -20 107 -20 c
f
Q
Q
Q
Q
q
[1 0 0 1 780 0] cm
q
[1 0 0 1 0 612] cm
[1 0 0 1 0 0] cm
q
q
/DeviceRGB {} cs
[0 0 0] sc
84 4 m
-5 8 30 -112 23 -190 c
55 -190 l
55 -70 l
55 -39 62 -20 94 -21 c
166 -23 139 -122 144 -190 c
175 -190 l
176 0 l
146 0 l
145 -10 147 -25 144 -33 c
133 -11 116 3 84 4 c
f
Q
Q
Q
Q
q
[1 0 0 1 980 0] cm
q
[1 0 0 1 0 612] cm
[1 0 0 1 0 0] cm
q
q
/DeviceRGB {} cs
[0 0 0] sc
59 -47 m
57 -23 77 -18 97 -25 c
97 -1 l
64 9 27 4 27 -40 c
27 -167 l
5 -167 l
5 -190 l
29 -190 l
38 -233 l
59 -233 l
59 -190 l
94 -190 l
94 -167 l
59 -167 l
59 -47 l
f
Q
Q
Q
Q
Q
Q
Q
Q
Q
q
q
q
/DeviceRGB {} cs
[0.8 1 0.8] sc
900 185 m
900 182.2 902.2 180 905 180 c
995 180 l
997.8 180 1000 182.2 1000 185 c
1000 219.6 l
1000 222.3 997.8 224.6 995 224.6 c
905 224.6 l
902.2 224.6 900 222.3 900 219.6 c
900 185 l
h
f
Q
q
q
q
2 w
/DeviceRGB {} CS
[0 0 0] SC
900 185 m
900 182.2 902.2 180 905 180 c
995 180 l
997.8 180 1000 182.2 1000 185 c
1000 219.6 l
1000 222.3 997.8 224.6 995 224.6 c
905 224.6 l
902.2 224.6 900 222.3 900 219.6 c
900 185 l
h
S
Q
Q
Q
q
q
q
[1 0 0 1 925.3 206.2] cm
[0.0617 0 0 0.0617 0 0] cm
[1 0 0 1 0 -612] cm
q
[1 0 0 1 0 0] cm
q
[1 0 0 1 0 612] cm
[1 0 0 1 0 0] cm
q
q
/DeviceRGB {} cs
[0 0 0] sc
33 -248 34 248 re
f
Q
Q
Q
Q
q
[1 0 0 1 100 0] cm
q
[1 0 0 1 0 612] cm
[1 0 0 1 0 0] cm
q
q
/DeviceRGB {} cs
[0 0 0] sc
117 -194 m
206 -198 170 -78 177 0 c
145 0 l
145 -121 l
145 -152 137 -170 106 -169 c
34 -167 62 -67 57 0 c
25 0 l
24 -190 l
54 -190 l
55 -180 53 -166 56 -158 c
67 -180 85 -193 117 -194 c
f
Q
Q
Q
Q
q
[1 0 0 1 300 0] cm
q
[1 0 0 1 0 612] cm
[1 0 0 1 0 0] cm
q
q
/DeviceRGB {} cs
[0 0 0] sc
115 -194 m
170 -193 185 -153 185 -96 c
185 -39 169 2 115 4 c
84 4 66 -9 55 -30 c
56 75 l
24 75 l
23 -190 l
54 -190 l
56 -160 l
66 -181 84 -194 115 -194 c
h
107 -20 m
147 -20 152 -54 152 -95 c
152 -136 146 -168 107 -169 c
65 -169 56 -137 56 -93 c
56 -50 66 -20 107 -20 c
f
Q
Q
Q
Q
q
[1 0 0 1 500 0] cm
q
[1 0 0 1 0 612] cm
[1 0 0 1 0 0] cm
q
q
/DeviceRGB {} cs
[0 0 0] sc
84 4 m
-5 8 30 -112 23 -190 c
55 -190 l
55 -70 l
55 -39 62 -20 94 -21 c
166 -23 139 -122 144 -190 c
175 -190 l
176 0 l
146 0 l
145 -10 147 -25 144 -33 c
133 -11 116 3 84 4 c
f
Q
Q
Q
Q
q
[1 0 0 1 700 0] cm
q
[1 0 0 1 0 612] cm
[1 0 0 1 0 0] cm
q
q
/DeviceRGB {} cs
[0 0 0] sc
59 -47 m
57 -23 77 -18 97 -25 c
97 -1 l
64 9 27 4 27 -40 c
27 -167 l
5 -167 l
5 -190 l
29 -190 l
38 -233 l
59 -233 l
59 -190 l
94 -190 l
94 -167 l
59 -167 l
59 -47 l
f
Q
Q
Q
Q
Q
Q
Q
Q
Q
q
q
q
/DeviceRGB {} cs
[1 0.6 0.2] sc
1020 185 m
1020 182.2 1022.2 180 1025 180 c
1115 180 l
1117.8 180 1120 182.2 1120 185 c
1120 219.6 l
1120 222.3 1117.8 224.6 1115 224.6 c
1025 224.6 l
1022.2 224.6 1020 222.3 1020 219.6 c
1020 185 l
h
f
Q
q
q
q
2 w
/DeviceRGB {} CS
[0 0 0] SC
1020 185 m
1020 182.2 1022.2 180 1025 180 c
1115 180 l
1117.8 180 1120 182.2 1120 185 c
1120 219.6 l
1120 222.3 1117.8 224.6 1115 224.6 c
1025 224.6 l
1022.2 224.6 1020 222.3 1020 219.6 c
1020 185 l
h
S
Q
Q
Q
q
q
q
[1 0 0 1 1028.7 206.2] cm
[0.0617 0 0 0.0617 0 0] cm
[1 0 0 1 0 -612] cm
q
[1 0 0 1 0 0] cm
q
[1 0 0 1 0 612] cm
[1 0 0 1 0 0] cm
q
q
/DeviceRGB {} cs
[0 0 0] sc
194 0 m
95 -120 l
63 -95 l
63 0 l
30 0 l
30 -248 l
63 -248 l
63 -124 l
182 -248 l
222 -248 l
117 -140 l
236 0 l
194 0 l
f
Q
Q
Q
Q
q
[1 0 0 1 240 0] cm
q
[1 0 0 1 0 612] cm
[1 0 0 1 0 0] cm
q
q
/DeviceRGB {} cs
[0 0 0] sc
100 -194 m
163 -194 186 -152 184 -88 c
49 -88 l
49 -48 63 -21 102 -20 c
128 -19 145 -32 151 -49 c
179 -41 l
168 -13 142 4 102 4 c
44 4 14 -33 15 -96 c
16 -157 41 -194 100 -194 c
h
152 -113 m
158 -173 76 -190 55 -141 c
52 -134 49 -124 49 -113 c
152 -113 l
f
Q
Q
Q
Q
q
[1 0 0 1 440 0] cm
q
[1 0 0 1 0 612] cm
[1 0 0 1 0 0] cm
q
q
/DeviceRGB {} cs
[0 0 0] sc
114 -163 m
36 -179 61 -72 57 0 c
25 0 l
24 -190 l
54 -190 l
55 -178 53 -161 56 -151 c
62 -178 79 -200 114 -192 c
114 -163 l
f
Q
Q
Q
Q
q
[1 0 0 1 559 0] cm
q
[1 0 0 1 0 612] cm
[1 0 0 1 0 0] cm
q
q
/DeviceRGB {} cs
[0 0 0] sc
117 -194 m
206 -198 170 -78 177 0 c
145 0 l
145 -121 l
145 -152 137 -170 106 -169 c
34 -167 62 -67 57 0 c
25 0 l
24 -190 l
54 -190 l
55 -180 53 -166 56 -158 c
67 -180 85 -193 117 -194 c
f
Q
Q
Q
Q
q
[1 0 0 1 759 0] cm
q
[1 0 0 1 0 612] cm
[1 0 0 1 0 0] cm
q
q
/DeviceRGB {} cs
[0 0 0] sc
100 -194 m
163 -194 186 -152 184 -88 c
49 -88 l
49 -48 63 -21 102 -20 c
128 -19 145 -32 151 -49 c
179 -41 l
168 -13 142 4 102 4 c
44 4 14 -33 15 -96 c
16 -157 41 -194 100 -194 c
h
152 -113 m
158 -173 76 -190 55 -141 c
52 -134 49 -124 49 -113 c
152 -113 l
f
Q
Q
Q
Q
q
[1 0 0 1 959 0] cm
q
[1 0 0 1 0 612] cm
[1 0 0 1 0 0] cm
q
q
/DeviceRGB {} cs
[0 0 0] sc
24 -261 32 261 re
f
Q
Q
Q
Q
q
[1 0 0 1 1038 0] cm
q
[1 0 0 1 0 612] cm
[1 0 0 1 0 0] cm
q
q
/DeviceRGB {} cs
[0 0 0] sc
Q
Q
Q
Q
Q
Q
q
q
[1 0 0 1 1098.9 206.2] cm
[0.0617 0 0 0.0617 0 0] cm
[1 0 0 1 0 -612] cm
q
[1 0 0 1 0 0] cm
q
[1 0 0 1 0 612] cm
[1 0 0 1 0 0] cm
q
q
/DeviceRGB {} cs
[0 0 0] sc
126 -127 m
159 -121 184 -107 184 -68 c
184 20 45 24 20 -39 c
17 -47 15 -55 14 -64 c
46 -67 l
52 -40 67 -23 100 -23 c
132 -23 152 -38 152 -69 c
152 -107 116 -115 73 -112 c
73 -140 l
112 -139 145 -144 145 -182 c
145 -209 128 -225 99 -225 c
71 -225 52 -210 50 -184 c
18 -187 l
24 -229 53 -250 99 -251 c
147 -252 178 -230 178 -186 c
178 -150 157 -134 126 -127 c
f
Q
Q
Q
Q
Q
Q
Q
Q
Q
q
q
q
/DeviceRGB {} cs
[0.8 1 0.8] sc
1140 185 m
1140 182.2 1142.2 180 1145 180 c
1255 180 l
1257.8 180 1260 182.2 1260 185 c
1260 219.6 l
1260 222.3 1257.8 224.6 1255 224.6 c
1145 224.6 l
1142.2 224.6 1140 222.3 1140 219.6 c
1140 185 l
h
f
Q
q
q
q
2 w
/DeviceRGB {} CS
[0 0 0] SC
1140 185 m
1140 182.2 1142.2 180 1145 180 c
1255 180 l
1257.8 180 1260 182.2 1260 185 c
1260 219.6 l
1260 222.3 1257.8 224.6 1255 224.6 c
1145 224.6 l
1142.2 224.6 1140 222.3 1140 219.6 c
1140 185 l
h
S
Q
Q
Q
q
q
q
[1 0 0 1 1166.6 206.2] cm
[0.0617 0 0 0.0617 0 0] cm
[1 0 0 1 0 -612] cm
q
[1 0 0 1 0 0] cm
q
[1 0 0 1 0 612] cm
[1 0 0 1 0 0] cm
q
q
/DeviceRGB {} cs
[0 0 0] sc
140 -251 m
221 -251 263 -205 263 -125 c
263 -46 219 4 140 4 c
59 4 17 -45 17 -125 c
17 -205 59 -251 140 -251 c
h
140 -24 m
203 -24 229 -65 229 -125 c
229 -185 200 -224 140 -224 c
79 -224 51 -185 51 -125 c
51 -65 79 -25 140 -24 c
f
Q
Q
Q
Q
q
[1 0 0 1 280 0] cm
q
[1 0 0 1 0 612] cm
[1 0 0 1 0 0] cm
q
q
/DeviceRGB {} cs
[0 0 0] sc
84 4 m
-5 8 30 -112 23 -190 c
55 -190 l
55 -70 l
55 -39 62 -20 94 -21 c
166 -23 139 -122 144 -190 c
175 -190 l
176 0 l
146 0 l
145 -10 147 -25 144 -33 c
133 -11 116 3 84 4 c
f
Q
Q
Q
Q
q
[1 0 0 1 480 0] cm
q
[1 0 0 1 0 612] cm
[1 0 0 1 0 0] cm
q
q
/DeviceRGB {} cs
[0 0 0] sc
59 -47 m
57 -23 77 -18 97 -25 c
97 -1 l
64 9 27 4 27 -40 c
27 -167 l
5 -167 l
5 -190 l
29 -190 l
38 -233 l
59 -233 l
59 -190 l
94 -190 l
94 -167 l
59 -167 l
59 -47 l
f
Q
Q
Q
Q
q
[1 0 0 1 580 0] cm
q
[1 0 0 1 0 612] cm
[1 0 0 1 0 0] cm
q
q
/DeviceRGB {} cs
[0 0 0] sc
115 -194 m
170 -193 185 -153 185 -96 c
185 -39 169 2 115 4 c
84 4 66 -9 55 -30 c
56 75 l
24 75 l
23 -190 l
54 -190 l
56 -160 l
66 -181 84 -194 115 -194 c
h
107 -20 m
147 -20 152 -54 152 -95 c
152 -136 146 -168 107 -169 c
65 -169 56 -137 56 -93 c
56 -50 66 -20 107 -20 c
f
Q
Q
Q
Q
q
[1 0 0 1 780 0] cm
q
[1 0 0 1 0 612] cm
[1 0 0 1 0 0] cm
q
q
/DeviceRGB {} cs
[0 0 0] sc
84 4 m
-5 8 30 -112 23 -190 c
55 -190 l
55 -70 l
55 -39 62 -20 94 -21 c
166 -23 139 -122 144 -190 c
175 -190 l
176 0 l
146 0 l
145 -10 147 -25 144 -33 c
133 -11 116 3 84 4 c
f
Q
Q
Q
Q
q
[1 0 0 1 980 0] cm
q
[1 0 0 1 0 612] cm
[1 0 0 1 0 0] cm
q
q
/DeviceRGB {} cs
[0 0 0] sc
59 -47 m
57 -23 77 -18 97 -25 c
97 -1 l
64 9 27 4 27 -40 c
27 -167 l
5 -167 l
5 -190 l
29 -190 l
38 -233 l
59 -233 l
59 -190 l
94 -190 l
94 -167 l
59 -167 l
59 -47 l
f
Q
Q
Q
Q
Q
Q
Q
Q
Q
q
q
q
/DeviceRGB {} cs
[1 0.6 0.2] sc
820 296.4 m
820 293.6 822.2 291.4 825 291.4 c
1135 291.4 l
1137.8 291.4 1140 293.6 1140 296.4 c
1140 331 l
1140 333.7 1137.8 336 1135 336 c
825 336 l
822.2 336 820 333.7 820 331 c
820 296.4 l
h
f
Q
q
q
q
2 w
/DeviceRGB {} CS
[0 0 0] SC
820 296.4 m
820 293.6 822.2 291.4 825 291.4 c
1135 291.4 l
1137.8 291.4 1140 293.6 1140 296.4 c
1140 331 l
1140 333.7 1137.8 336 1135 336 c
825 336 l
822.2 336 820 333.7 820 331 c
820 296.4 l
h
S
Q
Q
Q
q
q
q
[1 0 0 1 938.7 317.6] cm
[0.0617 0 0 0.0617 0 0] cm
[1 0 0 1 0 -612] cm
q
[1 0 0 1 0 0] cm
q
[1 0 0 1 0 612] cm
[1 0 0 1 0 0] cm
q
q
/DeviceRGB {} cs
[0 0 0] sc
194 0 m
95 -120 l
63 -95 l
63 0 l
30 0 l
30 -248 l
63 -248 l
63 -124 l
182 -248 l
222 -248 l
117 -140 l
236 0 l
194 0 l
f
Q
Q
Q
Q
q
[1 0 0 1 240 0] cm
q
[1 0 0 1 0 612] cm
[1 0 0 1 0 0] cm
q
q
/DeviceRGB {} cs
[0 0 0] sc
100 -194 m
163 -194 186 -152 184 -88 c
49 -88 l
49 -48 63 -21 102 -20 c
128 -19 145 -32 151 -49 c
179 -41 l
168 -13 142 4 102 4 c
44 4 14 -33 15 -96 c
16 -157 41 -194 100 -194 c
h
152 -113 m
158 -173 76 -190 55 -141 c
52 -134 49 -124 49 -113 c
152 -113 l
f
Q
Q
Q
Q
q
[1 0 0 1 440 0] cm
q
[1 0 0 1 0 612] cm
[1 0 0 1 0 0] cm
q
q
/DeviceRGB {} cs
[0 0 0] sc
114 -163 m
36 -179 61 -72 57 0 c
25 0 l
24 -190 l
54 -190 l
55 -178 53 -161 56 -151 c
62 -178 79 -200 114 -192 c
114 -163 l
f
Q
Q
Q
Q
q
[1 0 0 1 559 0] cm
q
[1 0 0 1 0 612] cm
[1 0 0 1 0 0] cm
q
q
/DeviceRGB {} cs
[0 0 0] sc
117 -194 m
206 -198 170 -78 177 0 c
145 0 l
145 -121 l
145 -152 137 -170 106 -169 c
34 -167 62 -67 57 0 c
25 0 l
24 -190 l
54 -190 l
55 -180 53 -166 56 -158 c
67 -180 85 -193 117 -194 c
f
Q
Q
Q
Q
q
[1 0 0 1 759 0] cm
q
[1 0 0 1 0 612] cm
[1 0 0 1 0 0] cm
q
q
/DeviceRGB {} cs
[0 0 0] sc
100 -194 m
163 -194 186 -152 184 -88 c
49 -88 l
49 -48 63 -21 102 -20 c
128 -19 145 -32 151 -49 c
179 -41 l
168 -13 142 4 102 4 c
44 4 14 -33 15 -96 c
16 -157 41 -194 100 -194 c
h
152 -113 m
158 -173 76 -190 55 -141 c
52 -134 49 -124 49 -113 c
152 -113 l
f
Q
Q
Q
Q
q
[1 0 0 1 959 0] cm
q
[1 0 0 1 0 612] cm
[1 0 0 1 0 0] cm
q
q
/DeviceRGB {} cs
[0 0 0] sc
24 -261 32 261 re
f
Q
Q
Q
Q
q
[1 0 0 1 1038 0] cm
q
[1 0 0 1 0 612] cm
[1 0 0 1 0 0] cm
q
q
/DeviceRGB {} cs
[0 0 0] sc
Q
Q
Q
Q
Q
Q
q
q
[1 0 0 1 1008.9 317.6] cm
[0.0617 0 0 0.0617 0 0] cm
[1 0 0 1 0 -612] cm
q
[1 0 0 1 0 0] cm
q
[1 0 0 1 0 612] cm
[1 0 0 1 0 0] cm
q
q
/DeviceRGB {} cs
[0 0 0] sc
126 -127 m
159 -121 184 -107 184 -68 c
184 20 45 24 20 -39 c
17 -47 15 -55 14 -64 c
46 -67 l
52 -40 67 -23 100 -23 c
132 -23 152 -38 152 -69 c
152 -107 116 -115 73 -112 c
73 -140 l
112 -139 145 -144 145 -182 c
145 -209 128 -225 99 -225 c
71 -225 52 -210 50 -184 c
18 -187 l
24 -229 53 -250 99 -251 c
147 -252 178 -230 178 -186 c
178 -150 157 -134 126 -127 c
f
Q
Q
Q
Q
Q
Q
Q
Q
Q
q
q
q
/DeviceRGB {} cs
[1 0.6 0.2] sc
520 407.8 m
520 405.1 522.2 402.8 525 402.8 c
615 402.8 l
617.8 402.8 620 405.1 620 407.8 c
620 442.4 l
620 445.1 617.8 447.4 615 447.4 c
525 447.4 l
522.2 447.4 520 445.1 520 442.4 c
520 407.8 l
h
f
Q
q
q
q
2 w
/DeviceRGB {} CS
[0 0 0] SC
520 407.8 m
520 405.1 522.2 402.8 525 402.8 c
615 402.8 l
617.8 402.8 620 405.1 620 407.8 c
620 442.4 l
620 445.1 617.8 447.4 615 447.4 c
525 447.4 l
522.2 447.4 520 445.1 520 442.4 c
520 407.8 l
h
S
Q
Q
Q
q
q
q
[1 0 0 1 528.7 429] cm
[0.0617 0 0 0.0617 0 0] cm
[1 0 0 1 0 -612] cm
q
[1 0 0 1 0 0] cm
q
[1 0 0 1 0 612] cm
[1 0 0 1 0 0] cm
q
q
/DeviceRGB {} cs
[0 0 0] sc
194 0 m
95 -120 l
63 -95 l
63 0 l
30 0 l
30 -248 l
63 -248 l
63 -124 l
182 -248 l
222 -248 l
117 -140 l
236 0 l
194 0 l
f
Q
Q
Q
Q
q
[1 0 0 1 240 0] cm
q
[1 0 0 1 0 612] cm
[1 0 0 1 0 0] cm
q
q
/DeviceRGB {} cs
[0 0 0] sc
100 -194 m
163 -194 186 -152 184 -88 c
49 -88 l
49 -48 63 -21 102 -20 c
128 -19 145 -32 151 -49 c
179 -41 l
168 -13 142 4 102 4 c
44 4 14 -33 15 -96 c
16 -157 41 -194 100 -194 c
h
152 -113 m
158 -173 76 -190 55 -141 c
52 -134 49 -124 49 -113 c
152 -113 l
f
Q
Q
Q
Q
q
[1 0 0 1 440 0] cm
q
[1 0 0 1 0 612] cm
[1 0 0 1 0 0] cm
q
q
/DeviceRGB {} cs
[0 0 0] sc
114 -163 m
36 -179 61 -72 57 0 c
25 0 l
24 -190 l
54 -190 l
55 -178 53 -161 56 -151 c
62 -178 79 -200 114 -192 c
114 -163 l
f
Q
Q
Q
Q
q
[1 0 0 1 559 0] cm
q
[1 0 0 1 0 612] cm
[1 0 0 1 0 0] cm
q
q
/DeviceRGB {} cs
[0 0 0] sc
117 -194 m
206 -198 170 -78 177 0 c
145 0 l
145 -121 l
145 -152 137 -170 106 -169 c
34 -167 62 -67 57 0 c
25 0 l
24 -190 l
54 -190 l
55 -180 53 -166 56 -158 c
67 -180 85 -193 117 -194 c
f
Q
Q
Q
Q
q
[1 0 0 1 759 0] cm
q
[1 0 0 1 0 612] cm
[1 0 0 1 0 0] cm
q
q
/DeviceRGB {} cs
[0 0 0] sc
100 -194 m
163 -194 186 -152 184 -88 c
49 -88 l
49 -48 63 -21 102 -20 c
128 -19 145 -32 151 -49 c
179 -41 l
168 -13 142 4 102 4 c
44 4 14 -33 15 -96 c
16 -157 41 -194 100 -194 c
h
152 -113 m
158 -173 76 -190 55 -141 c
52 -134 49 -124 49 -113 c
152 -113 l
f
Q
Q
Q
Q
q
[1 0 0 1 959 0] cm
q
[1 0 0 1 0 612] cm
[1 0 0 1 0 0] cm
q
q
/DeviceRGB {} cs
[0 0 0] sc
24 -261 32 261 re
f
Q
Q
Q
Q
q
[1 0 0 1 1038 0] cm
q
[1 0 0 1 0 612] cm
[1 0 0 1 0 0] cm
q
q
/DeviceRGB {} cs
[0 0 0] sc
Q
Q
Q
Q
Q
Q
q
q
[1 0 0 1 598.9 429] cm
[0.0617 0 0 0.0617 0 0] cm
[1 0 0 1 0 -612] cm
q
[1 0 0 1 0 0] cm
q
[1 0 0 1 0 612] cm
[1 0 0 1 0 0] cm
q
q
/DeviceRGB {} cs
[0 0 0] sc
126 -127 m
159 -121 184 -107 184 -68 c
184 20 45 24 20 -39 c
17 -47 15 -55 14 -64 c
46 -67 l
52 -40 67 -23 100 -23 c
132 -23 152 -38 152 -69 c
152 -107 116 -115 73 -112 c
73 -140 l
112 -139 145 -144 145 -182 c
145 -209 128 -225 99 -225 c
71 -225 52 -210 50 -184 c
18 -187 l
24 -229 53 -250 99 -251 c
147 -252 178 -230 178 -186 c
178 -150 157 -134 126 -127 c
f
Q
Q
Q
Q
Q
Q
Q
Q
Q
q
q
q
/DeviceRGB {} cs
[1 0.6 0.2] sc
140 519.2 m
140 516.5 142.2 514.2 145 514.2 c
335 514.2 l
337.8 514.2 340 516.5 340 519.2 c
340 553.8 l
340 556.5 337.8 558.8 335 558.8 c
145 558.8 l
142.2 558.8 140 556.5 140 553.8 c
140 519.2 l
h
f
Q
q
q
q
2 w
/DeviceRGB {} CS
[0 0 0] SC
140 519.2 m
140 516.5 142.2 514.2 145 514.2 c
335 514.2 l
337.8 514.2 340 516.5 340 519.2 c
340 553.8 l
340 556.5 337.8 558.8 335 558.8 c
145 558.8 l
142.2 558.8 140 556.5 140 553.8 c
140 519.2 l
h
S
Q
Q
Q
q
q
q
[1 0 0 1 198.7 540.4] cm
[0.0617 0 0 0.0617 0 0] cm
[1 0 0 1 0 -612] cm
q
[1 0 0 1 0 0] cm
q
[1 0 0 1 0 612] cm
[1 0 0 1 0 0] cm
q
q
/DeviceRGB {} cs
[0 0 0] sc
194 0 m
95 -120 l
63 -95 l
63 0 l
30 0 l
30 -248 l
63 -248 l
63 -124 l
182 -248 l
222 -248 l
117 -140 l
236 0 l
194 0 l
f
Q
Q
Q
Q
q
[1 0 0 1 240 0] cm
q
[1 0 0 1 0 612] cm
[1 0 0 1 0 0] cm
q
q
/DeviceRGB {} cs
[0 0 0] sc
100 -194 m
163 -194 186 -152 184 -88 c
49 -88 l
49 -48 63 -21 102 -20 c
128 -19 145 -32 151 -49 c
179 -41 l
168 -13 142 4 102 4 c
44 4 14 -33 15 -96 c
16 -157 41 -194 100 -194 c
h
152 -113 m
158 -173 76 -190 55 -141 c
52 -134 49 -124 49 -113 c
152 -113 l
f
Q
Q
Q
Q
q
[1 0 0 1 440 0] cm
q
[1 0 0 1 0 612] cm
[1 0 0 1 0 0] cm
q
q
/DeviceRGB {} cs
[0 0 0] sc
114 -163 m
36 -179 61 -72 57 0 c
25 0 l
24 -190 l
54 -190 l
55 -178 53 -161 56 -151 c
62 -178 79 -200 114 -192 c
114 -163 l
f
Q
Q
Q
Q
q
[1 0 0 1 559 0] cm
q
[1 0 0 1 0 612] cm
[1 0 0 1 0 0] cm
q
q
/DeviceRGB {} cs
[0 0 0] sc
117 -194 m
206 -198 170 -78 177 0 c
145 0 l
145 -121 l
145 -152 137 -170 106 -169 c
34 -167 62 -67 57 0 c
25 0 l
24 -190 l
54 -190 l
55 -180 53 -166 56 -158 c
67 -180 85 -193 117 -194 c
f
Q
Q
Q
Q
q
[1 0 0 1 759 0] cm
q
[1 0 0 1 0 612] cm
[1 0 0 1 0 0] cm
q
q
/DeviceRGB {} cs
[0 0 0] sc
100 -194 m
163 -194 186 -152 184 -88 c
49 -88 l
49 -48 63 -21 102 -20 c
128 -19 145 -32 151 -49 c
179 -41 l
168 -13 142 4 102 4 c
44 4 14 -33 15 -96 c
16 -157 41 -194 100 -194 c
h
152 -113 m
158 -173 76 -190 55 -141 c
52 -134 49 -124 49 -113 c
152 -113 l
f
Q
Q
Q
Q
q
[1 0 0 1 959 0] cm
q
[1 0 0 1 0 612] cm
[1 0 0 1 0 0] cm
q
q
/DeviceRGB {} cs
[0 0 0] sc
24 -261 32 261 re
f
Q
Q
Q
Q
q
[1 0 0 1 1038 0] cm
q
[1 0 0 1 0 612] cm
[1 0 0 1 0 0] cm
q
q
/DeviceRGB {} cs
[0 0 0] sc
Q
Q
Q
Q
Q
Q
q
q
[1 0 0 1 268.9 540.4] cm
[0.0617 0 0 0.0617 0 0] cm
[1 0 0 1 0 -612] cm
q
[1 0 0 1 0 0] cm
q
[1 0 0 1 0 612] cm
[1 0 0 1 0 0] cm
q
q
/DeviceRGB {} cs
[0 0 0] sc
27 0 m
27 -27 l
91 -27 l
91 -217 l
35 -178 l
35 -207 l
93 -248 l
122 -248 l
122 -27 l
183 -27 l
183 0 l
27 0 l
f
Q
Q
Q
Q
Q
Q
Q
Q
Q
q
q
q
/DeviceRGB {} cs
[1 0.6 0.2] sc
360 519.2 m
360 516.5 362.2 514.2 365 514.2 c
455 514.2 l
457.8 514.2 460 516.5 460 519.2 c
460 553.8 l
460 556.5 457.8 558.8 455 558.8 c
365 558.8 l
362.2 558.8 360 556.5 360 553.8 c
360 519.2 l
h
f
Q
q
q
q
2 w
/DeviceRGB {} CS
[0 0 0] SC
360 519.2 m
360 516.5 362.2 514.2 365 514.2 c
455 514.2 l
457.8 514.2 460 516.5 460 519.2 c
460 553.8 l
460 556.5 457.8 558.8 455 558.8 c
365 558.8 l
362.2 558.8 360 556.5 360 553.8 c
360 519.2 l
h
S
Q
Q
Q
q
q
q
[1 0 0 1 368.7 540.4] cm
[0.0617 0 0 0.0617 0 0] cm
[1 0 0 1 0 -612] cm
q
[1 0 0 1 0 0] cm
q
[1 0 0 1 0 612] cm
[1 0 0 1 0 0] cm
q
q
/DeviceRGB {} cs
[0 0 0] sc
194 0 m
95 -120 l
63 -95 l
63 0 l
30 0 l
30 -248 l
63 -248 l
63 -124 l
182 -248 l
222 -248 l
117 -140 l
236 0 l
194 0 l
f
Q
Q
Q
Q
q
[1 0 0 1 240 0] cm
q
[1 0 0 1 0 612] cm
[1 0 0 1 0 0] cm
q
q
/DeviceRGB {} cs
[0 0 0] sc
100 -194 m
163 -194 186 -152 184 -88 c
49 -88 l
49 -48 63 -21 102 -20 c
128 -19 145 -32 151 -49 c
179 -41 l
168 -13 142 4 102 4 c
44 4 14 -33 15 -96 c
16 -157 41 -194 100 -194 c
h
152 -113 m
158 -173 76 -190 55 -141 c
52 -134 49 -124 49 -113 c
152 -113 l
f
Q
Q
Q
Q
q
[1 0 0 1 440 0] cm
q
[1 0 0 1 0 612] cm
[1 0 0 1 0 0] cm
q
q
/DeviceRGB {} cs
[0 0 0] sc
114 -163 m
36 -179 61 -72 57 0 c
25 0 l
24 -190 l
54 -190 l
55 -178 53 -161 56 -151 c
62 -178 79 -200 114 -192 c
114 -163 l
f
Q
Q
Q
Q
q
[1 0 0 1 559 0] cm
q
[1 0 0 1 0 612] cm
[1 0 0 1 0 0] cm
q
q
/DeviceRGB {} cs
[0 0 0] sc
117 -194 m
206 -198 170 -78 177 0 c
145 0 l
145 -121 l
145 -152 137 -170 106 -169 c
34 -167 62 -67 57 0 c
25 0 l
24 -190 l
54 -190 l
55 -180 53 -166 56 -158 c
67 -180 85 -193 117 -194 c
f
Q
Q
Q
Q
q
[1 0 0 1 759 0] cm
q
[1 0 0 1 0 612] cm
[1 0 0 1 0 0] cm
q
q
/DeviceRGB {} cs
[0 0 0] sc
100 -194 m
163 -194 186 -152 184 -88 c
49 -88 l
49 -48 63 -21 102 -20 c
128 -19 145 -32 151 -49 c
179 -41 l
168 -13 142 4 102 4 c
44 4 14 -33 15 -96 c
16 -157 41 -194 100 -194 c
h
152 -113 m
158 -173 76 -190 55 -141 c
52 -134 49 -124 49 -113 c
152 -113 l
f
Q
Q
Q
Q
q
[1 0 0 1 959 0] cm
q
[1 0 0 1 0 612] cm
[1 0 0 1 0 0] cm
q
q
/DeviceRGB {} cs
[0 0 0] sc
24 -261 32 261 re
f
Q
Q
Q
Q
q
[1 0 0 1 1038 0] cm
q
[1 0 0 1 0 612] cm
[1 0 0 1 0 0] cm
q
q
/DeviceRGB {} cs
[0 0 0] sc
Q
Q
Q
Q
Q
Q
q
q
[1 0 0 1 438.9 540.4] cm
[0.0617 0 0 0.0617 0 0] cm
[1 0 0 1 0 -612] cm
q
[1 0 0 1 0 0] cm
q
[1 0 0 1 0 612] cm
[1 0 0 1 0 0] cm
q
q
/DeviceRGB {} cs
[0 0 0] sc
101 -251 m
183 -258 194 -164 144 -119 c
82 -64 l
71 -53 59 -42 53 -27 c
182 -27 l
182 0 l
18 0 l
20 -99 146 -94 146 -182 c
146 -210 130 -225 101 -225 c
72 -225 55 -210 52 -184 c
20 -187 l
26 -228 54 -247 101 -251 c
f
Q
Q
Q
Q
Q
Q
Q
Q
Q
q
q
q
/DeviceRGB {} cs
[1 0.6 0.2] sc
480 519.2 m
480 516.5 482.2 514.2 485 514.2 c
675 514.2 l
677.8 514.2 680 516.5 680 519.2 c
680 553.8 l
680 556.5 677.8 558.8 675 558.8 c
485 558.8 l
482.2 558.8 480 556.5 480 553.8 c
480 519.2 l
h
f
Q
q
q
q
2 w
/DeviceRGB {} CS
[0 0 0] SC
480 519.2 m
480 516.5 482.2 514.2 485 514.2 c
675 514.2 l
677.8 514.2 680 516.5 680 519.2 c
680 553.8 l
680 556.5 677.8 558.8 675 558.8 c
485 558.8 l
482.2 558.8 480 556.5 480 553.8 c
480 519.2 l
h
S
Q
Q
Q
q
q
q
[1 0 0 1 538.7 540.4] cm
[0.0617 0 0 0.0617 0 0] cm
[1 0 0 1 0 -612] cm
q
[1 0 0 1 0 0] cm
q
[1 0 0 1 0 612] cm
[1 0 0 1 0 0] cm
q
q
/DeviceRGB {} cs
[0 0 0] sc
194 0 m
95 -120 l
63 -95 l
63 0 l
30 0 l
30 -248 l
63 -248 l
63 -124 l
182 -248 l
222 -248 l
117 -140 l
236 0 l
194 0 l
f
Q
Q
Q
Q
q
[1 0 0 1 240 0] cm
q
[1 0 0 1 0 612] cm
[1 0 0 1 0 0] cm
q
q
/DeviceRGB {} cs
[0 0 0] sc
100 -194 m
163 -194 186 -152 184 -88 c
49 -88 l
49 -48 63 -21 102 -20 c
128 -19 145 -32 151 -49 c
179 -41 l
168 -13 142 4 102 4 c
44 4 14 -33 15 -96 c
16 -157 41 -194 100 -194 c
h
152 -113 m
158 -173 76 -190 55 -141 c
52 -134 49 -124 49 -113 c
152 -113 l
f
Q
Q
Q
Q
q
[1 0 0 1 440 0] cm
q
[1 0 0 1 0 612] cm
[1 0 0 1 0 0] cm
q
q
/DeviceRGB {} cs
[0 0 0] sc
114 -163 m
36 -179 61 -72 57 0 c
25 0 l
24 -190 l
54 -190 l
55 -178 53 -161 56 -151 c
62 -178 79 -200 114 -192 c
114 -163 l
f
Q
Q
Q
Q
q
[1 0 0 1 559 0] cm
q
[1 0 0 1 0 612] cm
[1 0 0 1 0 0] cm
q
q
/DeviceRGB {} cs
[0 0 0] sc
117 -194 m
206 -198 170 -78 177 0 c
145 0 l
145 -121 l
145 -152 137 -170 106 -169 c
34 -167 62 -67 57 0 c
25 0 l
24 -190 l
54 -190 l
55 -180 53 -166 56 -158 c
67 -180 85 -193 117 -194 c
f
Q
Q
Q
Q
q
[1 0 0 1 759 0] cm
q
[1 0 0 1 0 612] cm
[1 0 0 1 0 0] cm
q
q
/DeviceRGB {} cs
[0 0 0] sc
100 -194 m
163 -194 186 -152 184 -88 c
49 -88 l
49 -48 63 -21 102 -20 c
128 -19 145 -32 151 -49 c
179 -41 l
168 -13 142 4 102 4 c
44 4 14 -33 15 -96 c
16 -157 41 -194 100 -194 c
h
152 -113 m
158 -173 76 -190 55 -141 c
52 -134 49 -124 49 -113 c
152 -113 l
f
Q
Q
Q
Q
q
[1 0 0 1 959 0] cm
q
[1 0 0 1 0 612] cm
[1 0 0 1 0 0] cm
q
q
/DeviceRGB {} cs
[0 0 0] sc
24 -261 32 261 re
f
Q
Q
Q
Q
q
[1 0 0 1 1038 0] cm
q
[1 0 0 1 0 612] cm
[1 0 0 1 0 0] cm
q
q
/DeviceRGB {} cs
[0 0 0] sc
Q
Q
Q
Q
Q
Q
q
q
[1 0 0 1 608.9 540.4] cm
[0.0617 0 0 0.0617 0 0] cm
[1 0 0 1 0 -612] cm
q
[1 0 0 1 0 0] cm
q
[1 0 0 1 0 612] cm
[1 0 0 1 0 0] cm
q
q
/DeviceRGB {} cs
[0 0 0] sc
126 -127 m
159 -121 184 -107 184 -68 c
184 20 45 24 20 -39 c
17 -47 15 -55 14 -64 c
46 -67 l
52 -40 67 -23 100 -23 c
132 -23 152 -38 152 -69 c
152 -107 116 -115 73 -112 c
73 -140 l
112 -139 145 -144 145 -182 c
145 -209 128 -225 99 -225 c
71 -225 52 -210 50 -184 c
18 -187 l
24 -229 53 -250 99 -251 c
147 -252 178 -230 178 -186 c
178 -150 157 -134 126 -127 c
f
Q
Q
Q
Q
Q
Q
Q
Q
Q
q
q
q
q
q
[1 0 0 1 542.4 262.5] cm
[0.0617 0 0 0.0617 0 0] cm
[1 0 0 1 0 -612] cm
q
[1 0 0 1 0 0] cm
q
[1 0 0 1 0 612] cm
[1 0 0 1 0 0] cm
q
q
/DeviceRGB {} cs
[0 0 0] sc
205 0 m
177 -72 l
64 -72 l
36 0 l
1 0 l
102 -248 l
140 -248 l
239 0 l
205 0 l
h
167 -99 m
120 -222 l
108 -177 89 -140 74 -99 c
167 -99 l
f
Q
Q
Q
Q
q
[1 0 0 1 240 0] cm
q
[1 0 0 1 0 612] cm
[1 0 0 1 0 0] cm
q
q
/DeviceRGB {} cs
[0 0 0] sc
33 -261 m
71 -220 98 -169 98 -93 c
98 -17 71 34 33 75 c
2 75 l
39 34 66 -17 66 -93 c
66 -169 39 -220 2 -261 c
33 -261 l
f
Q
Q
Q
Q
q
[1 0 0 1 359 0] cm
q
[1 0 0 1 0 612] cm
[1 0 0 1 0 0] cm
q
q
/DeviceRGB {} cs
[0 0 0] sc
Q
Q
Q
Q
Q
Q
q
q
[1 0 0 1 570.7 262.5] cm
[0.0617 0 0 0.0617 0 0] cm
[1 0 0 1 0 -612] cm
q
[1 0 0 1 0 0] cm
q
[1 0 0 1 0 612] cm
[1 0 0 1 0 0] cm
q
q
/DeviceRGB {} cs
[0 0 0] sc
266 0 m
226 0 l
170 -210 l
115 0 l
75 0 l
2 -248 l
37 -248 l
96 -30 l
111 -94 l
154 -248 l
186 -248 l
245 -30 l
304 -248 l
339 -248 l
f
Q
Q
Q
Q
q
[1 0 0 1 339 0] cm
q
[1 0 0 1 0 612] cm
[1 0 0 1 0 0] cm
q
q
/DeviceRGB {} cs
[0 0 0] sc
24 -231 m
24 -261 l
56 -261 l
56 -231 l
24 -231 l
h
24 0 m
24 -190 l
56 -190 l
56 0 l
24 0 l
f
Q
Q
Q
Q
q
[1 0 0 1 418 0] cm
q
[1 0 0 1 0 612] cm
[1 0 0 1 0 0] cm
q
q
/DeviceRGB {} cs
[0 0 0] sc
59 -47 m
57 -23 77 -18 97 -25 c
97 -1 l
64 9 27 4 27 -40 c
27 -167 l
5 -167 l
5 -190 l
29 -190 l
38 -233 l
59 -233 l
59 -190 l
94 -190 l
94 -167 l
59 -167 l
59 -47 l
f
Q
Q
Q
Q
q
[1 0 0 1 518 0] cm
q
[1 0 0 1 0 612] cm
[1 0 0 1 0 0] cm
q
q
/DeviceRGB {} cs
[0 0 0] sc
106 -169 m
34 -169 62 -67 57 0 c
25 0 l
25 -261 l
57 -261 l
56 -158 l
68 -179 84 -194 117 -194 c
206 -194 170 -78 177 0 c
145 0 l
145 -121 l
147 -153 137 -170 106 -169 c
f
Q
Q
Q
Q
q
[1 0 0 1 718 0] cm
q
[1 0 0 1 0 612] cm
[1 0 0 1 0 0] cm
q
q
/DeviceRGB {} cs
[0 0 0] sc
Q
Q
Q
Q
Q
Q
q
q
[1 0 0 1 621.2 262.5] cm
[0.0617 0 0 0.0617 0 0] cm
[1 0 0 1 0 -612] cm
q
[1 0 0 1 0 0] cm
q
[1 0 0 1 0 612] cm
[1 0 0 1 0 0] cm
q
q
/DeviceRGB {} cs
[0 0 0] sc
85 -194 m
116 -194 133 -181 145 -161 c
144 -261 l
176 -261 l
177 0 l
147 0 l
145 -10 147 -23 144 -31 c
134 -8 116 4 85 4 c
32 4 16 -35 15 -94 c
15 -160 38 -194 85 -194 c
h
94 -170 m
54 -170 48 -136 48 -95 c
48 -55 54 -21 93 -21 c
135 -21 144 -53 144 -97 c
144 -139 135 -171 94 -170 c
f
Q
Q
Q
Q
q
[1 0 0 1 200 0] cm
q
[1 0 0 1 0 612] cm
[1 0 0 1 0 0] cm
q
q
/DeviceRGB {} cs
[0 0 0] sc
141 -36 m
126 -15 110 5 73 4 c
37 3 15 -17 15 -53 c
14 -117 78 -116 140 -116 c
143 -151 131 -170 99 -170 c
75 -169 58 -163 57 -139 c
24 -142 l
29 -179 57 -194 100 -194 c
145 -194 172 -174 172 -130 c
172 -48 l
171 -28 179 -16 200 -21 c
200 -1 l
169 8 139 -3 141 -36 c
h
48 -53 m
48 -33 60 -20 80 -20 c
121 -23 143 -49 140 -94 c
97 -92 48 -99 48 -53 c
f
Q
Q
Q
Q
q
[1 0 0 1 400 0] cm
q
[1 0 0 1 0 612] cm
[1 0 0 1 0 0] cm
q
q
/DeviceRGB {} cs
[0 0 0] sc
59 -47 m
57 -23 77 -18 97 -25 c
97 -1 l
64 9 27 4 27 -40 c
27 -167 l
5 -167 l
5 -190 l
29 -190 l
38 -233 l
59 -233 l
59 -190 l
94 -190 l
94 -167 l
59 -167 l
59 -47 l
f
Q
Q
Q
Q
q
[1 0 0 1 500 0] cm
q
[1 0 0 1 0 612] cm
[1 0 0 1 0 0] cm
q
q
/DeviceRGB {} cs
[0 0 0] sc
141 -36 m
126 -15 110 5 73 4 c
37 3 15 -17 15 -53 c
14 -117 78 -116 140 -116 c
143 -151 131 -170 99 -170 c
75 -169 58 -163 57 -139 c
24 -142 l
29 -179 57 -194 100 -194 c
145 -194 172 -174 172 -130 c
172 -48 l
171 -28 179 -16 200 -21 c
200 -1 l
169 8 139 -3 141 -36 c
h
48 -53 m
48 -33 60 -20 80 -20 c
121 -23 143 -49 140 -94 c
97 -92 48 -99 48 -53 c
f
Q
Q
Q
Q
q
[1 0 0 1 700 0] cm
q
[1 0 0 1 0 612] cm
[1 0 0 1 0 0] cm
q
q
/DeviceRGB {} cs
[0 0 0] sc
Q
Q
Q
Q
Q
Q
q
q
[1 0 0 1 670.6 262.5] cm
[0.0617 0 0 0.0617 0 0] cm
[1 0 0 1 0 -612] cm
q
[1 0 0 1 0 0] cm
q
[1 0 0 1 0 612] cm
[1 0 0 1 0 0] cm
q
q
/DeviceRGB {} cs
[0 0 0] sc
96 -169 m
56 -169 48 -136 48 -96 c
48 -56 57 -21 96 -21 c
120 -21 137 -35 139 -59 c
171 -57 l
165 -20 140 4 97 4 c
38 4 21 -37 15 -95 c
5 -188 116 -226 162 -159 c
166 -152 167 -145 169 -137 c
137 -134 l
133 -155 121 -169 96 -169 c
f
Q
Q
Q
Q
q
[1 0 0 1 180 0] cm
q
[1 0 0 1 0 612] cm
[1 0 0 1 0 0] cm
q
q
/DeviceRGB {} cs
[0 0 0] sc
100 -194 m
162 -195 185 -157 185 -95 c
186 -32 158 4 99 4 c
40 4 16 -35 15 -95 c
15 -161 43 -194 100 -194 c
h
99 -20 m
143 -19 152 -51 152 -95 c
152 -138 144 -170 101 -170 c
58 -170 48 -138 48 -95 c
48 -52 58 -21 99 -20 c
f
Q
Q
Q
Q
q
[1 0 0 1 380 0] cm
q
[1 0 0 1 0 612] cm
[1 0 0 1 0 0] cm
q
q
/DeviceRGB {} cs
[0 0 0] sc
115 -194 m
170 -193 185 -153 185 -96 c
185 -39 169 2 115 4 c
84 4 66 -9 55 -30 c
56 75 l
24 75 l
23 -190 l
54 -190 l
56 -160 l
66 -181 84 -194 115 -194 c
h
107 -20 m
147 -20 152 -54 152 -95 c
152 -136 146 -168 107 -169 c
65 -169 56 -137 56 -93 c
56 -50 66 -20 107 -20 c
f
Q
Q
Q
Q
q
[1 0 0 1 580 0] cm
q
[1 0 0 1 0 612] cm
[1 0 0 1 0 0] cm
q
q
/DeviceRGB {} cs
[0 0 0] sc
179 -190 m
93 31 l
79 59 56 82 12 73 c
12 49 l
51 55 65 29 76 -1 c
1 -190 l
35 -190 l
92 -34 l
146 -190 l
179 -190 l
f
Q
Q
Q
Q
Q
Q
Q
Q
Q
q
q
q
q
q
[1 0 0 1 527 373.9] cm
[0.0617 0 0 0.0617 0 0] cm
[1 0 0 1 0 -612] cm
q
[1 0 0 1 0 0] cm
q
[1 0 0 1 0 612] cm
[1 0 0 1 0 0] cm
q
q
/DeviceRGB {} cs
[0 0 0] sc
160 -131 m
195 -126 221 -108 221 -70 c
221 17 115 -2 30 0 c
30 -248 l
106 -245 207 -265 207 -188 c
207 -155 188 -138 160 -131 c
h
63 -142 m
113 -143 173 -133 173 -184 c
173 -231 110 -220 63 -221 c
63 -142 l
h
63 -27 m
118 -29 187 -13 187 -72 c
187 -128 117 -114 63 -116 c
63 -27 l
f
Q
Q
Q
Q
q
[1 0 0 1 240 0] cm
q
[1 0 0 1 0 612] cm
[1 0 0 1 0 0] cm
q
q
/DeviceRGB {} cs
[0 0 0] sc
33 -261 m
71 -220 98 -169 98 -93 c
98 -17 71 34 33 75 c
2 75 l
39 34 66 -17 66 -93 c
66 -169 39 -220 2 -261 c
33 -261 l
f
Q
Q
Q
Q
q
[1 0 0 1 359 0] cm
q
[1 0 0 1 0 612] cm
[1 0 0 1 0 0] cm
q
q
/DeviceRGB {} cs
[0 0 0] sc
Q
Q
Q
Q
Q
Q
q
q
[1 0 0 1 555.3 373.9] cm
[0.0617 0 0 0.0617 0 0] cm
[1 0 0 1 0 -612] cm
q
[1 0 0 1 0 0] cm
q
[1 0 0 1 0 612] cm
[1 0 0 1 0 0] cm
q
q
/DeviceRGB {} cs
[0 0 0] sc
266 0 m
226 0 l
170 -210 l
115 0 l
75 0 l
2 -248 l
37 -248 l
96 -30 l
111 -94 l
154 -248 l
186 -248 l
245 -30 l
304 -248 l
339 -248 l
f
Q
Q
Q
Q
q
[1 0 0 1 339 0] cm
q
[1 0 0 1 0 612] cm
[1 0 0 1 0 0] cm
q
q
/DeviceRGB {} cs
[0 0 0] sc
24 -231 m
24 -261 l
56 -261 l
56 -231 l
24 -231 l
h
24 0 m
24 -190 l
56 -190 l
56 0 l
24 0 l
f
Q
Q
Q
Q
q
[1 0 0 1 418 0] cm
q
[1 0 0 1 0 612] cm
[1 0 0 1 0 0] cm
q
q
/DeviceRGB {} cs
[0 0 0] sc
59 -47 m
57 -23 77 -18 97 -25 c
97 -1 l
64 9 27 4 27 -40 c
27 -167 l
5 -167 l
5 -190 l
29 -190 l
38 -233 l
59 -233 l
59 -190 l
94 -190 l
94 -167 l
59 -167 l
59 -47 l
f
Q
Q
Q
Q
q
[1 0 0 1 518 0] cm
q
[1 0 0 1 0 612] cm
[1 0 0 1 0 0] cm
q
q
/DeviceRGB {} cs
[0 0 0] sc
106 -169 m
34 -169 62 -67 57 0 c
25 0 l
25 -261 l
57 -261 l
56 -158 l
68 -179 84 -194 117 -194 c
206 -194 170 -78 177 0 c
145 0 l
145 -121 l
147 -153 137 -170 106 -169 c
f
Q
Q
Q
Q
q
[1 0 0 1 718 0] cm
q
[1 0 0 1 0 612] cm
[1 0 0 1 0 0] cm
q
q
/DeviceRGB {} cs
[0 0 0] sc
100 -194 m
162 -195 185 -157 185 -95 c
186 -32 158 4 99 4 c
40 4 16 -35 15 -95 c
15 -161 43 -194 100 -194 c
h
99 -20 m
143 -19 152 -51 152 -95 c
152 -138 144 -170 101 -170 c
58 -170 48 -138 48 -95 c
48 -52 58 -21 99 -20 c
f
Q
Q
Q
Q
q
[1 0 0 1 918 0] cm
q
[1 0 0 1 0 612] cm
[1 0 0 1 0 0] cm
q
q
/DeviceRGB {} cs
[0 0 0] sc
84 4 m
-5 8 30 -112 23 -190 c
55 -190 l
55 -70 l
55 -39 62 -20 94 -21 c
166 -23 139 -122 144 -190 c
175 -190 l
176 0 l
146 0 l
145 -10 147 -25 144 -33 c
133 -11 116 3 84 4 c
f
Q
Q
Q
Q
q
[1 0 0 1 1118 0] cm
q
[1 0 0 1 0 612] cm
[1 0 0 1 0 0] cm
q
q
/DeviceRGB {} cs
[0 0 0] sc
59 -47 m
57 -23 77 -18 97 -25 c
97 -1 l
64 9 27 4 27 -40 c
27 -167 l
5 -167 l
5 -190 l
29 -190 l
38 -233 l
59 -233 l
59 -190 l
94 -190 l
94 -167 l
59 -167 l
59 -47 l
f
Q
Q
Q
Q
q
[1 0 0 1 1218 0] cm
q
[1 0 0 1 0 612] cm
[1 0 0 1 0 0] cm
q
q
/DeviceRGB {} cs
[0 0 0] sc
Q
Q
Q
Q
Q
Q
q
q
[1 0 0 1 636.6 373.9] cm
[0.0617 0 0 0.0617 0 0] cm
[1 0 0 1 0 -612] cm
q
[1 0 0 1 0 0] cm
q
[1 0 0 1 0 612] cm
[1 0 0 1 0 0] cm
q
q
/DeviceRGB {} cs
[0 0 0] sc
85 -194 m
116 -194 133 -181 145 -161 c
144 -261 l
176 -261 l
177 0 l
147 0 l
145 -10 147 -23 144 -31 c
134 -8 116 4 85 4 c
32 4 16 -35 15 -94 c
15 -160 38 -194 85 -194 c
h
94 -170 m
54 -170 48 -136 48 -95 c
48 -55 54 -21 93 -21 c
135 -21 144 -53 144 -97 c
144 -139 135 -171 94 -170 c
f
Q
Q
Q
Q
q
[1 0 0 1 200 0] cm
q
[1 0 0 1 0 612] cm
[1 0 0 1 0 0] cm
q
q
/DeviceRGB {} cs
[0 0 0] sc
141 -36 m
126 -15 110 5 73 4 c
37 3 15 -17 15 -53 c
14 -117 78 -116 140 -116 c
143 -151 131 -170 99 -170 c
75 -169 58 -163 57 -139 c
24 -142 l
29 -179 57 -194 100 -194 c
145 -194 172 -174 172 -130 c
172 -48 l
171 -28 179 -16 200 -21 c
200 -1 l
169 8 139 -3 141 -36 c
h
48 -53 m
48 -33 60 -20 80 -20 c
121 -23 143 -49 140 -94 c
97 -92 48 -99 48 -53 c
f
Q
Q
Q
Q
q
[1 0 0 1 400 0] cm
q
[1 0 0 1 0 612] cm
[1 0 0 1 0 0] cm
q
q
/DeviceRGB {} cs
[0 0 0] sc
59 -47 m
57 -23 77 -18 97 -25 c
97 -1 l
64 9 27 4 27 -40 c
27 -167 l
5 -167 l
5 -190 l
29 -190 l
38 -233 l
59 -233 l
59 -190 l
94 -190 l
94 -167 l
59 -167 l
59 -47 l
f
Q
Q
Q
Q
q
[1 0 0 1 500 0] cm
q
[1 0 0 1 0 612] cm
[1 0 0 1 0 0] cm
q
q
/DeviceRGB {} cs
[0 0 0] sc
141 -36 m
126 -15 110 5 73 4 c
37 3 15 -17 15 -53 c
14 -117 78 -116 140 -116 c
143 -151 131 -170 99 -170 c
75 -169 58 -163 57 -139 c
24 -142 l
29 -179 57 -194 100 -194 c
145 -194 172 -174 172 -130 c
172 -48 l
171 -28 179 -16 200 -21 c
200 -1 l
169 8 139 -3 141 -36 c
h
48 -53 m
48 -33 60 -20 80 -20 c
121 -23 143 -49 140 -94 c
97 -92 48 -99 48 -53 c
f
Q
Q
Q
Q
q
[1 0 0 1 700 0] cm
q
[1 0 0 1 0 612] cm
[1 0 0 1 0 0] cm
q
q
/DeviceRGB {} cs
[0 0 0] sc
Q
Q
Q
Q
Q
Q
q
q
[1 0 0 1 686 373.9] cm
[0.0617 0 0 0.0617 0 0] cm
[1 0 0 1 0 -612] cm
q
[1 0 0 1 0 0] cm
q
[1 0 0 1 0 612] cm
[1 0 0 1 0 0] cm
q
q
/DeviceRGB {} cs
[0 0 0] sc
96 -169 m
56 -169 48 -136 48 -96 c
48 -56 57 -21 96 -21 c
120 -21 137 -35 139 -59 c
171 -57 l
165 -20 140 4 97 4 c
38 4 21 -37 15 -95 c
5 -188 116 -226 162 -159 c
166 -152 167 -145 169 -137 c
137 -134 l
133 -155 121 -169 96 -169 c
f
Q
Q
Q
Q
q
[1 0 0 1 180 0] cm
q
[1 0 0 1 0 612] cm
[1 0 0 1 0 0] cm
q
q
/DeviceRGB {} cs
[0 0 0] sc
100 -194 m
162 -195 185 -157 185 -95 c
186 -32 158 4 99 4 c
40 4 16 -35 15 -95 c
15 -161 43 -194 100 -194 c
h
99 -20 m
143 -19 152 -51 152 -95 c
152 -138 144 -170 101 -170 c
58 -170 48 -138 48 -95 c
48 -52 58 -21 99 -20 c
f
Q
Q
Q
Q
q
[1 0 0 1 380 0] cm
q
[1 0 0 1 0 612] cm
[1 0 0 1 0 0] cm
q
q
/DeviceRGB {} cs
[0 0 0] sc
115 -194 m
170 -193 185 -153 185 -96 c
185 -39 169 2 115 4 c
84 4 66 -9 55 -30 c
56 75 l
24 75 l
23 -190 l
54 -190 l
56 -160 l
66 -181 84 -194 115 -194 c
h
107 -20 m
147 -20 152 -54 152 -95 c
152 -136 146 -168 107 -169 c
65 -169 56 -137 56 -93 c
56 -50 66 -20 107 -20 c
f
Q
Q
Q
Q
q
[1 0 0 1 580 0] cm
q
[1 0 0 1 0 612] cm
[1 0 0 1 0 0] cm
q
q
/DeviceRGB {} cs
[0 0 0] sc
179 -190 m
93 31 l
79 59 56 82 12 73 c
12 49 l
51 55 65 29 76 -1 c
1 -190 l
35 -190 l
92 -34 l
146 -190 l
179 -190 l
f
Q
Q
Q
Q
Q
Q
Q
Q
Q
q
q
q
q
q
[1 0 0 1 397.7 485.3] cm
[0.0617 0 0 0.0617 0 0] cm
[1 0 0 1 0 -612] cm
q
[1 0 0 1 0 0] cm
q
[1 0 0 1 0 612] cm
[1 0 0 1 0 0] cm
q
q
/DeviceRGB {} cs
[0 0 0] sc
212 -179 m
202 -207 177 -224 139 -224 c
80 -224 52 -184 52 -125 c
52 -65 81 -24 141 -24 c
184 -24 203 -48 219 -76 c
246 -62 l
228 -24 195 4 139 4 c
59 4 22 -46 18 -125 c
12 -229 117 -278 205 -236 c
224 -227 236 -210 244 -190 c
f
Q
Q
Q
Q
q
[1 0 0 1 259 0] cm
q
[1 0 0 1 0 612] cm
[1 0 0 1 0 0] cm
q
q
/DeviceRGB {} cs
[0 0 0] sc
33 -261 m
71 -220 98 -169 98 -93 c
98 -17 71 34 33 75 c
2 75 l
39 34 66 -17 66 -93 c
66 -169 39 -220 2 -261 c
33 -261 l
f
Q
Q
Q
Q
q
[1 0 0 1 378 0] cm
q
[1 0 0 1 0 612] cm
[1 0 0 1 0 0] cm
q
q
/DeviceRGB {} cs
[0 0 0] sc
Q
Q
Q
Q
Q
Q
q
q
[1 0 0 1 427.2 485.3] cm
[0.0617 0 0 0.0617 0 0] cm
[1 0 0 1 0 -612] cm
q
[1 0 0 1 0 0] cm
q
[1 0 0 1 0 612] cm
[1 0 0 1 0 0] cm
q
q
/DeviceRGB {} cs
[0 0 0] sc
140 -251 m
221 -251 263 -205 263 -125 c
263 -46 219 4 140 4 c
59 4 17 -45 17 -125 c
17 -205 59 -251 140 -251 c
h
140 -24 m
203 -24 229 -65 229 -125 c
229 -185 200 -224 140 -224 c
79 -224 51 -185 51 -125 c
51 -65 79 -25 140 -24 c
f
Q
Q
Q
Q
q
[1 0 0 1 280 0] cm
q
[1 0 0 1 0 612] cm
[1 0 0 1 0 0] cm
q
q
/DeviceRGB {} cs
[0 0 0] sc
117 -194 m
206 -198 170 -78 177 0 c
145 0 l
145 -121 l
145 -152 137 -170 106 -169 c
34 -167 62 -67 57 0 c
25 0 l
24 -190 l
54 -190 l
55 -180 53 -166 56 -158 c
67 -180 85 -193 117 -194 c
f
Q
Q
Q
Q
q
[1 0 0 1 480 0] cm
q
[1 0 0 1 0 612] cm
[1 0 0 1 0 0] cm
q
q
/DeviceRGB {} cs
[0 0 0] sc
100 -194 m
163 -194 186 -152 184 -88 c
49 -88 l
49 -48 63 -21 102 -20 c
128 -19 145 -32 151 -49 c
179 -41 l
168 -13 142 4 102 4 c
44 4 14 -33 15 -96 c
16 -157 41 -194 100 -194 c
h
152 -113 m
158 -173 76 -190 55 -141 c
52 -134 49 -124 49 -113 c
152 -113 l
f
Q
Q
Q
Q
q
[1 0 0 1 680 0] cm
q
[1 0 0 1 0 612] cm
[1 0 0 1 0 0] cm
q
q
/DeviceRGB {} cs
[0 0 0] sc
Q
Q
Q
Q
Q
Q
q
q
[1 0 0 1 475.3 485.3] cm
[0.0617 0 0 0.0617 0 0] cm
[1 0 0 1 0 -612] cm
q
[1 0 0 1 0 0] cm
q
[1 0 0 1 0 612] cm
[1 0 0 1 0 0] cm
q
q
/DeviceRGB {} cs
[0 0 0] sc
96 -169 m
56 -169 48 -136 48 -96 c
48 -56 57 -21 96 -21 c
120 -21 137 -35 139 -59 c
171 -57 l
165 -20 140 4 97 4 c
38 4 21 -37 15 -95 c
5 -188 116 -226 162 -159 c
166 -152 167 -145 169 -137 c
137 -134 l
133 -155 121 -169 96 -169 c
f
Q
Q
Q
Q
q
[1 0 0 1 180 0] cm
q
[1 0 0 1 0 612] cm
[1 0 0 1 0 0] cm
q
q
/DeviceRGB {} cs
[0 0 0] sc
100 -194 m
162 -195 185 -157 185 -95 c
186 -32 158 4 99 4 c
40 4 16 -35 15 -95 c
15 -161 43 -194 100 -194 c
h
99 -20 m
143 -19 152 -51 152 -95 c
152 -138 144 -170 101 -170 c
58 -170 48 -138 48 -95 c
48 -52 58 -21 99 -20 c
f
Q
Q
Q
Q
q
[1 0 0 1 380 0] cm
q
[1 0 0 1 0 612] cm
[1 0 0 1 0 0] cm
q
q
/DeviceRGB {} cs
[0 0 0] sc
115 -194 m
170 -193 185 -153 185 -96 c
185 -39 169 2 115 4 c
84 4 66 -9 55 -30 c
56 75 l
24 75 l
23 -190 l
54 -190 l
56 -160 l
66 -181 84 -194 115 -194 c
h
107 -20 m
147 -20 152 -54 152 -95 c
152 -136 146 -168 107 -169 c
65 -169 56 -137 56 -93 c
56 -50 66 -20 107 -20 c
f
Q
Q
Q
Q
q
[1 0 0 1 580 0] cm
q
[1 0 0 1 0 612] cm
[1 0 0 1 0 0] cm
q
q
/DeviceRGB {} cs
[0 0 0] sc
179 -190 m
93 31 l
79 59 56 82 12 73 c
12 49 l
51 55 65 29 76 -1 c
1 -190 l
35 -190 l
92 -34 l
146 -190 l
179 -190 l
f
Q
Q
Q
Q
Q
Q
Q
Q
Q
q
q
q
q
q
[1 0 0 1 357.3 595.4] cm
[0.0617 0 0 0.0617 0 0] cm
[1 0 0 1 0 -612] cm
q
[1 0 0 1 0 0] cm
q
[1 0 0 1 0 612] cm
[1 0 0 1 0 0] cm
q
q
/DeviceRGB {} cs
[0 0 0] sc
30 -248 m
148 -255 246 -240 243 -126 c
240 -48 200 0 122 0 c
30 0 l
30 -248 l
h
63 -27 m
152 -19 209 -43 209 -126 c
209 -209 149 -227 63 -221 c
63 -27 l
f
Q
Q
Q
Q
q
[1 0 0 1 259 0] cm
q
[1 0 0 1 0 612] cm
[1 0 0 1 0 0] cm
q
q
/DeviceRGB {} cs
[0 0 0] sc
33 -261 m
71 -220 98 -169 98 -93 c
98 -17 71 34 33 75 c
2 75 l
39 34 66 -17 66 -93 c
66 -169 39 -220 2 -261 c
33 -261 l
f
Q
Q
Q
Q
q
[1 0 0 1 378 0] cm
q
[1 0 0 1 0 612] cm
[1 0 0 1 0 0] cm
q
q
/DeviceRGB {} cs
[0 0 0] sc
Q
Q
Q
Q
Q
Q
q
q
[1 0 0 1 386.8 595.4] cm
[0.0617 0 0 0.0617 0 0] cm
[1 0 0 1 0 -612] cm
q
[1 0 0 1 0 0] cm
q
[1 0 0 1 0 612] cm
[1 0 0 1 0 0] cm
q
q
/DeviceRGB {} cs
[0 0 0] sc
140 -251 m
221 -251 263 -205 263 -125 c
263 -46 219 4 140 4 c
59 4 17 -45 17 -125 c
17 -205 59 -251 140 -251 c
h
140 -24 m
203 -24 229 -65 229 -125 c
229 -185 200 -224 140 -224 c
79 -224 51 -185 51 -125 c
51 -65 79 -25 140 -24 c
f
Q
Q
Q
Q
q
[1 0 0 1 280 0] cm
q
[1 0 0 1 0 612] cm
[1 0 0 1 0 0] cm
q
q
/DeviceRGB {} cs
[0 0 0] sc
115 -194 m
170 -193 185 -153 185 -96 c
185 -39 169 2 115 4 c
84 4 66 -9 55 -30 c
56 75 l
24 75 l
23 -190 l
54 -190 l
56 -160 l
66 -181 84 -194 115 -194 c
h
107 -20 m
147 -20 152 -54 152 -95 c
152 -136 146 -168 107 -169 c
65 -169 56 -137 56 -93 c
56 -50 66 -20 107 -20 c
f
Q
Q
Q
Q
q
[1 0 0 1 480 0] cm
q
[1 0 0 1 0 612] cm
[1 0 0 1 0 0] cm
q
q
/DeviceRGB {} cs
[0 0 0] sc
59 -47 m
57 -23 77 -18 97 -25 c
97 -1 l
64 9 27 4 27 -40 c
27 -167 l
5 -167 l
5 -190 l
29 -190 l
38 -233 l
59 -233 l
59 -190 l
94 -190 l
94 -167 l
59 -167 l
59 -47 l
f
Q
Q
Q
Q
Q
Q
Q
Q
Q
Q
Q
Q
Q
showpage
%%PageTrailer
pdfEndPage
%%Trailer
end
%%DocumentSuppliedResources:
%%EOF
