%!PS-Adobe-3.0 EPSF-3.0
%Produced by poppler pdftops version: 0.24.1 (http://poppler.freedesktop.org)
%%Creator: TeX
%%LanguageLevel: 2
%%DocumentSuppliedResources: (atend)
%%BoundingBox: 0 0 205 107
%%HiResBoundingBox: 0 0 205 107
%%DocumentSuppliedResources: (atend)
%%EndComments
%%BeginProlog
%%BeginResource: procset xpdf 3.00 0
%%Copyright: Copyright 1996-2011 Glyph & Cog, LLC
/xpdf 75 dict def xpdf begin
% PDF special state
/pdfDictSize 15 def
/pdfSetup {
  /setpagedevice where {
    pop 2 dict begin
      /Policies 1 dict dup begin /PageSize 6 def end def
      { /Duplex true def } if
    currentdict end setpagedevice
  } {
    pop
  } ifelse
} def
/pdfSetupPaper {
  2 array astore
  /setpagedevice where {
    pop 2 dict begin
      /PageSize exch def
      /ImagingBBox null def
    currentdict end setpagedevice
  } {
    pop
  } ifelse
} def
/pdfStartPage {
  pdfDictSize dict begin
  /pdfFillCS [] def
  /pdfFillXform {} def
  /pdfStrokeCS [] def
  /pdfStrokeXform {} def
  /pdfFill [0] def
  /pdfStroke [0] def
  /pdfFillOP false def
  /pdfStrokeOP false def
  /pdfLastFill false def
  /pdfLastStroke false def
  /pdfTextMat [1 0 0 1 0 0] def
  /pdfFontSize 0 def
  /pdfCharSpacing 0 def
  /pdfTextRender 0 def
  /pdfPatternCS false def
  /pdfTextRise 0 def
  /pdfWordSpacing 0 def
  /pdfHorizScaling 1 def
  /pdfTextClipPath [] def
} def
/pdfEndPage { end } def
% PDF color state
/cs { /pdfFillXform exch def dup /pdfFillCS exch def
      setcolorspace } def
/CS { /pdfStrokeXform exch def dup /pdfStrokeCS exch def
      setcolorspace } def
/sc { pdfLastFill not { pdfFillCS setcolorspace } if
      dup /pdfFill exch def aload pop pdfFillXform setcolor
     /pdfLastFill true def /pdfLastStroke false def } def
/SC { pdfLastStroke not { pdfStrokeCS setcolorspace } if
      dup /pdfStroke exch def aload pop pdfStrokeXform setcolor
     /pdfLastStroke true def /pdfLastFill false def } def
/op { /pdfFillOP exch def
      pdfLastFill { pdfFillOP setoverprint } if } def
/OP { /pdfStrokeOP exch def
      pdfLastStroke { pdfStrokeOP setoverprint } if } def
/fCol {
  pdfLastFill not {
    pdfFillCS setcolorspace
    pdfFill aload pop pdfFillXform setcolor
    pdfFillOP setoverprint
    /pdfLastFill true def /pdfLastStroke false def
  } if
} def
/sCol {
  pdfLastStroke not {
    pdfStrokeCS setcolorspace
    pdfStroke aload pop pdfStrokeXform setcolor
    pdfStrokeOP setoverprint
    /pdfLastStroke true def /pdfLastFill false def
  } if
} def
% build a font
/pdfMakeFont {
  4 3 roll findfont
  4 2 roll matrix scale makefont
  dup length dict begin
    { 1 index /FID ne { def } { pop pop } ifelse } forall
    /Encoding exch def
    currentdict
  end
  definefont pop
} def
/pdfMakeFont16 {
  exch findfont
  dup length dict begin
    { 1 index /FID ne { def } { pop pop } ifelse } forall
    /WMode exch def
    currentdict
  end
  definefont pop
} def
% graphics state operators
/q { gsave pdfDictSize dict begin } def
/Q {
  end grestore
  /pdfLastFill where {
    pop
    pdfLastFill {
      pdfFillOP setoverprint
    } {
      pdfStrokeOP setoverprint
    } ifelse
  } if
} def
/cm { concat } def
/d { setdash } def
/i { setflat } def
/j { setlinejoin } def
/J { setlinecap } def
/M { setmiterlimit } def
/w { setlinewidth } def
% path segment operators
/m { moveto } def
/l { lineto } def
/c { curveto } def
/re { 4 2 roll moveto 1 index 0 rlineto 0 exch rlineto
      neg 0 rlineto closepath } def
/h { closepath } def
% path painting operators
/S { sCol stroke } def
/Sf { fCol stroke } def
/f { fCol fill } def
/f* { fCol eofill } def
% clipping operators
/W { clip newpath } def
/W* { eoclip newpath } def
/Ws { strokepath clip newpath } def
% text state operators
/Tc { /pdfCharSpacing exch def } def
/Tf { dup /pdfFontSize exch def
      dup pdfHorizScaling mul exch matrix scale
      pdfTextMat matrix concatmatrix dup 4 0 put dup 5 0 put
      exch findfont exch makefont setfont } def
/Tr { /pdfTextRender exch def } def
/Tp { /pdfPatternCS exch def } def
/Ts { /pdfTextRise exch def } def
/Tw { /pdfWordSpacing exch def } def
/Tz { /pdfHorizScaling exch def } def
% text positioning operators
/Td { pdfTextMat transform moveto } def
/Tm { /pdfTextMat exch def } def
% text string operators
/xyshow where {
  pop
  /xyshow2 {
    dup length array
    0 2 2 index length 1 sub {
      2 index 1 index 2 copy get 3 1 roll 1 add get
      pdfTextMat dtransform
      4 2 roll 2 copy 6 5 roll put 1 add 3 1 roll dup 4 2 roll put
    } for
    exch pop
    xyshow
  } def
}{
  /xyshow2 {
    currentfont /FontType get 0 eq {
      0 2 3 index length 1 sub {
        currentpoint 4 index 3 index 2 getinterval show moveto
        2 copy get 2 index 3 2 roll 1 add get
        pdfTextMat dtransform rmoveto
      } for
    } {
      0 1 3 index length 1 sub {
        currentpoint 4 index 3 index 1 getinterval show moveto
        2 copy 2 mul get 2 index 3 2 roll 2 mul 1 add get
        pdfTextMat dtransform rmoveto
      } for
    } ifelse
    pop pop
  } def
} ifelse
/cshow where {
  pop
  /xycp {
    0 3 2 roll
    {
      pop pop currentpoint 3 2 roll
      1 string dup 0 4 3 roll put false charpath moveto
      2 copy get 2 index 2 index 1 add get
      pdfTextMat dtransform rmoveto
      2 add
    } exch cshow
    pop pop
  } def
}{
  /xycp {
    currentfont /FontType get 0 eq {
      0 2 3 index length 1 sub {
        currentpoint 4 index 3 index 2 getinterval false charpath moveto
        2 copy get 2 index 3 2 roll 1 add get
        pdfTextMat dtransform rmoveto
      } for
    } {
      0 1 3 index length 1 sub {
        currentpoint 4 index 3 index 1 getinterval false charpath moveto
        2 copy 2 mul get 2 index 3 2 roll 2 mul 1 add get
        pdfTextMat dtransform rmoveto
      } for
    } ifelse
    pop pop
  } def
} ifelse
/Tj {
  fCol
  0 pdfTextRise pdfTextMat dtransform rmoveto
  currentpoint 4 2 roll
  pdfTextRender 1 and 0 eq {
    2 copy xyshow2
  } if
  pdfTextRender 3 and dup 1 eq exch 2 eq or {
    3 index 3 index moveto
    2 copy
    currentfont /FontType get 3 eq { fCol } { sCol } ifelse
    xycp currentpoint stroke moveto
  } if
  pdfTextRender 4 and 0 ne {
    4 2 roll moveto xycp
    /pdfTextClipPath [ pdfTextClipPath aload pop
      {/moveto cvx}
      {/lineto cvx}
      {/curveto cvx}
      {/closepath cvx}
    pathforall ] def
    currentpoint newpath moveto
  } {
    pop pop pop pop
  } ifelse
  0 pdfTextRise neg pdfTextMat dtransform rmoveto
} def
/TJm { 0.001 mul pdfFontSize mul pdfHorizScaling mul neg 0
       pdfTextMat dtransform rmoveto } def
/TJmV { 0.001 mul pdfFontSize mul neg 0 exch
        pdfTextMat dtransform rmoveto } def
/Tclip { pdfTextClipPath cvx exec clip newpath
         /pdfTextClipPath [] def } def
/Tclip* { pdfTextClipPath cvx exec eoclip newpath
         /pdfTextClipPath [] def } def
% Level 2/3 image operators
/pdfImBuf 100 string def
/pdfImStr {
  2 copy exch length lt {
    2 copy get exch 1 add exch
  } {
    ()
  } ifelse
} def
/skipEOD {
  { currentfile pdfImBuf readline
    not { pop exit } if
    (%-EOD-) eq { exit } if } loop
} def
/pdfIm { image skipEOD } def
/pdfImM { fCol imagemask skipEOD } def
/pr { 2 index 2 index 3 2 roll putinterval 4 add } def
/pdfImClip {
  gsave
  0 2 4 index length 1 sub {
    dup 4 index exch 2 copy
    get 5 index div put
    1 add 3 index exch 2 copy
    get 3 index div put
  } for
  pop pop rectclip
} def
/pdfImClipEnd { grestore } def
% shading operators
/colordelta {
  false 0 1 3 index length 1 sub {
    dup 4 index exch get 3 index 3 2 roll get sub abs 0.004 gt {
      pop true
    } if
  } for
  exch pop exch pop
} def
/funcCol { func n array astore } def
/funcSH {
  dup 0 eq {
    true
  } {
    dup 6 eq {
      false
    } {
      4 index 4 index funcCol dup
      6 index 4 index funcCol dup
      3 1 roll colordelta 3 1 roll
      5 index 5 index funcCol dup
      3 1 roll colordelta 3 1 roll
      6 index 8 index funcCol dup
      3 1 roll colordelta 3 1 roll
      colordelta or or or
    } ifelse
  } ifelse
  {
    1 add
    4 index 3 index add 0.5 mul exch 4 index 3 index add 0.5 mul exch
    6 index 6 index 4 index 4 index 4 index funcSH
    2 index 6 index 6 index 4 index 4 index funcSH
    6 index 2 index 4 index 6 index 4 index funcSH
    5 3 roll 3 2 roll funcSH pop pop
  } {
    pop 3 index 2 index add 0.5 mul 3 index  2 index add 0.5 mul
    funcCol sc
    dup 4 index exch mat transform m
    3 index 3 index mat transform l
    1 index 3 index mat transform l
    mat transform l pop pop h f*
  } ifelse
} def
/axialCol {
  dup 0 lt {
    pop t0
  } {
    dup 1 gt {
      pop t1
    } {
      dt mul t0 add
    } ifelse
  } ifelse
  func n array astore
} def
/axialSH {
  dup 0 eq {
    true
  } {
    dup 8 eq {
      false
    } {
      2 index axialCol 2 index axialCol colordelta
    } ifelse
  } ifelse
  {
    1 add 3 1 roll 2 copy add 0.5 mul
    dup 4 3 roll exch 4 index axialSH
    exch 3 2 roll axialSH
  } {
    pop 2 copy add 0.5 mul
    axialCol sc
    exch dup dx mul x0 add exch dy mul y0 add
    3 2 roll dup dx mul x0 add exch dy mul y0 add
    dx abs dy abs ge {
      2 copy yMin sub dy mul dx div add yMin m
      yMax sub dy mul dx div add yMax l
      2 copy yMax sub dy mul dx div add yMax l
      yMin sub dy mul dx div add yMin l
      h f*
    } {
      exch 2 copy xMin sub dx mul dy div add xMin exch m
      xMax sub dx mul dy div add xMax exch l
      exch 2 copy xMax sub dx mul dy div add xMax exch l
      xMin sub dx mul dy div add xMin exch l
      h f*
    } ifelse
  } ifelse
} def
/radialCol {
  dup t0 lt {
    pop t0
  } {
    dup t1 gt {
      pop t1
    } if
  } ifelse
  func n array astore
} def
/radialSH {
  dup 0 eq {
    true
  } {
    dup 8 eq {
      false
    } {
      2 index dt mul t0 add radialCol
      2 index dt mul t0 add radialCol colordelta
    } ifelse
  } ifelse
  {
    1 add 3 1 roll 2 copy add 0.5 mul
    dup 4 3 roll exch 4 index radialSH
    exch 3 2 roll radialSH
  } {
    pop 2 copy add 0.5 mul dt mul t0 add
    radialCol sc
    encl {
      exch dup dx mul x0 add exch dup dy mul y0 add exch dr mul r0 add
      0 360 arc h
      dup dx mul x0 add exch dup dy mul y0 add exch dr mul r0 add
      360 0 arcn h f
    } {
      2 copy
      dup dx mul x0 add exch dup dy mul y0 add exch dr mul r0 add
      a1 a2 arcn
      dup dx mul x0 add exch dup dy mul y0 add exch dr mul r0 add
      a2 a1 arcn h
      dup dx mul x0 add exch dup dy mul y0 add exch dr mul r0 add
      a1 a2 arc
      dup dx mul x0 add exch dup dy mul y0 add exch dr mul r0 add
      a2 a1 arc h f
    } ifelse
  } ifelse
} def
end
%%EndResource
%%EndProlog
%%BeginSetup
xpdf begin
%%EndSetup
pdfStartPage
[] 0 d
1 i
0 j
0 J
10 M
1 w
/DeviceGray {} cs
[0] sc
/DeviceGray {} CS
[0] SC
false op
false OP
{} settransfer
0 0 205 107 re
W
q
q
[1 0 0 1 -53 -613] cm
q
[1 0 0 1 0 0] cm
0 0 612 792 re
W
[1 0 0 -1 0 792] cm
[0.45 0 0 0.45 0 0] cm
[1 0 0 1 0 0] cm
q
/DeviceRGB {} cs
[1 1 1] sc
0 0 1360 1760 re
f
Q
q
[1 0 0 1 0 0] cm
q
q
q
q
q
[1 0 0 1 120 176] cm
[0.0555 0 0 0.0555 0 0] cm
[1 0 0 1 0 -792] cm
q
[1 0 0 1 0 0] cm
q
[1 0 0 1 0 792] cm
[1 0 0 1 0 0] cm
q
q
/DeviceRGB {} cs
[0.133 0.133 0.133] sc
-21 30 207 14 re
f
Q
Q
Q
Q
q
[1 0 0 1 200 0] cm
q
[1 0 0 1 0 792] cm
[1 0 0 1 0 0] cm
q
q
/DeviceRGB {} cs
[0.133 0.133 0.133] sc
-21 30 207 14 re
f
Q
Q
Q
Q
q
[1 0 0 1 400 0] cm
q
[1 0 0 1 0 792] cm
[1 0 0 1 0 0] cm
q
q
/DeviceRGB {} cs
[0.133 0.133 0.133] sc
128 0 m
95 -87 l
70 -74 l
55 0 l
6 0 l
57 -261 l
106 -261 l
77 -111 l
159 -190 l
215 -190 l
132 -116 l
180 0 l
128 0 l
f
Q
Q
Q
Q
q
[1 0 0 1 600 0] cm
q
[1 0 0 1 0 792] cm
[1 0 0 1 0 0] cm
q
q
/DeviceRGB {} cs
[0.133 0.133 0.133] sc
114 -194 m
177 -196 201 -146 186 -84 c
63 -84 l
60 -56 64 -29 94 -30 c
115 -31 126 -43 131 -59 c
175 -46 l
160 -14 137 4 91 4 c
41 4 11 -22 11 -73 c
11 -144 44 -192 114 -194 c
h
144 -117 m
158 -164 94 -178 77 -139 c
74 -133 71 -126 69 -117 c
144 -117 l
f
Q
Q
Q
Q
q
[1 0 0 1 800 0] cm
q
[1 0 0 1 0 792] cm
[1 0 0 1 0 0] cm
q
q
/DeviceRGB {} cs
[0.133 0.133 0.133] sc
84 -151 m
97 -176 118 -202 156 -191 c
148 -150 l
67 -170 71 -64 56 0 c
6 0 l
42 -190 l
89 -190 l
f
Q
Q
Q
Q
q
[1 0 0 1 940 0] cm
q
[1 0 0 1 0 792] cm
[1 0 0 1 0 0] cm
q
q
/DeviceRGB {} cs
[0.133 0.133 0.133] sc
151 -194 m
246 -194 185 -66 179 0 c
130 0 l
155 -134 l
155 -163 110 -159 96 -143 c
67 -111 69 -48 56 0 c
6 0 l
42 -190 l
89 -190 l
85 -158 l
100 -178 118 -194 151 -194 c
f
Q
Q
Q
Q
q
[1 0 0 1 1159 0] cm
q
[1 0 0 1 0 792] cm
[1 0 0 1 0 0] cm
q
q
/DeviceRGB {} cs
[0.133 0.133 0.133] sc
114 -194 m
177 -196 201 -146 186 -84 c
63 -84 l
60 -56 64 -29 94 -30 c
115 -31 126 -43 131 -59 c
175 -46 l
160 -14 137 4 91 4 c
41 4 11 -22 11 -73 c
11 -144 44 -192 114 -194 c
h
144 -117 m
158 -164 94 -178 77 -139 c
74 -133 71 -126 69 -117 c
144 -117 l
f
Q
Q
Q
Q
q
[1 0 0 1 1359 0] cm
q
[1 0 0 1 0 792] cm
[1 0 0 1 0 0] cm
q
q
/DeviceRGB {} cs
[0.133 0.133 0.133] sc
6 0 m
57 -261 l
106 -261 l
55 0 l
6 0 l
f
Q
Q
Q
Q
q
[1 0 0 1 1459 0] cm
q
[1 0 0 1 0 792] cm
[1 0 0 1 0 0] cm
q
q
/DeviceRGB {} cs
[0.133 0.133 0.133] sc
Q
Q
Q
Q
Q
Q
q
q
[1 0 0 1 206.6 176] cm
[0.0555 0 0 0.0555 0 0] cm
[1 0 0 1 0 -792] cm
q
[1 0 0 1 0 0] cm
q
[1 0 0 1 0 792] cm
[1 0 0 1 0 0] cm
q
q
/DeviceRGB {} cs
[0.133 0.133 0.133] sc
109 0 m
50 0 l
19 -190 l
70 -190 l
86 -37 l
163 -190 l
217 -190 l
f
Q
Q
Q
Q
q
[1 0 0 1 200 0] cm
q
[1 0 0 1 0 792] cm
[1 0 0 1 0 0] cm
q
q
/DeviceRGB {} cs
[0.133 0.133 0.133] sc
124 -194 m
175 -194 208 -172 208 -120 c
207 -44 167 4 94 4 c
43 4 11 -23 11 -74 c
11 -148 52 -194 124 -194 c
h
99 -30 m
145 -30 157 -72 157 -116 c
157 -143 146 -160 120 -160 c
76 -160 65 -120 63 -76 c
62 -49 73 -31 99 -30 c
f
Q
Q
Q
Q
q
[1 0 0 1 419 0] cm
q
[1 0 0 1 0 792] cm
[1 0 0 1 0 0] cm
q
q
/DeviceRGB {} cs
[0.133 0.133 0.133] sc
50 -224 m
57 -261 l
106 -261 l
99 -224 l
50 -224 l
h
6 0 m
43 -190 l
92 -190 l
55 0 l
6 0 l
f
Q
Q
Q
Q
q
[1 0 0 1 519 0] cm
q
[1 0 0 1 0 792] cm
[1 0 0 1 0 0] cm
q
q
/DeviceRGB {} cs
[0.133 0.133 0.133] sc
132 -28 m
118 -9 101 4 69 4 c
30 4 10 -23 10 -62 c
10 -132 34 -191 102 -194 c
133 -195 149 -180 158 -159 c
177 -261 l
226 -261 l
179 0 l
130 0 l
132 -28 l
h
62 -69 m
62 -47 69 -30 91 -30 c
136 -32 145 -75 148 -120 c
150 -147 138 -160 115 -160 c
71 -160 62 -112 62 -69 c
f
Q
Q
Q
Q
q
[1 0 0 1 738 0] cm
q
[1 0 0 1 0 792] cm
[1 0 0 1 0 0] cm
q
q
/DeviceRGB {} cs
[0.133 0.133 0.133] sc
Q
Q
Q
Q
Q
Q
q
q
[1 0 0 1 253.1 176] cm
[0.0555 0 0 0.0555 0 0] cm
[1 0 0 1 0 -792] cm
q
[1 0 0 1 0 0] cm
q
[1 0 0 1 0 792] cm
[1 0 0 1 0 0] cm
q
q
/DeviceRGB {} cs
[0.133 0.133 0.133] sc
72 -63 m
64 -40 77 -24 104 -33 c
98 -1 l
54 14 12 -6 23 -64 c
41 -157 l
15 -157 l
22 -190 l
50 -190 l
74 -235 l
105 -235 l
97 -190 l
132 -190 l
126 -157 l
90 -157 l
f
Q
Q
Q
Q
q
[1 0 0 1 119 0] cm
q
[1 0 0 1 0 792] cm
[1 0 0 1 0 0] cm
q
q
/DeviceRGB {} cs
[0.133 0.133 0.133] sc
114 -194 m
177 -196 201 -146 186 -84 c
63 -84 l
60 -56 64 -29 94 -30 c
115 -31 126 -43 131 -59 c
175 -46 l
160 -14 137 4 91 4 c
41 4 11 -22 11 -73 c
11 -144 44 -192 114 -194 c
h
144 -117 m
158 -164 94 -178 77 -139 c
74 -133 71 -126 69 -117 c
144 -117 l
f
Q
Q
Q
Q
q
[1 0 0 1 319 0] cm
q
[1 0 0 1 0 792] cm
[1 0 0 1 0 0] cm
q
q
/DeviceRGB {} cs
[0.133 0.133 0.133] sc
255 -194 m
345 -194 284 -65 279 0 c
230 0 l
255 -136 l
248 -175 202 -150 195 -127 c
183 -89 177 -42 167 0 c
118 0 l
143 -136 l
145 -165 104 -159 93 -143 c
69 -108 68 -47 56 0 c
6 0 l
42 -190 l
90 -190 l
89 -180 84 -166 86 -158 c
98 -178 113 -194 143 -194 c
173 -194 189 -179 193 -153 c
207 -174 222 -194 255 -194 c
f
Q
Q
Q
Q
q
[1 0 0 1 639 0] cm
q
[1 0 0 1 0 792] cm
[1 0 0 1 0 0] cm
q
q
/DeviceRGB {} cs
[0.133 0.133 0.133] sc
156 -122 m
158 -145 149 -159 128 -159 c
81 -159 70 -115 70 -70 c
70 -46 82 -30 106 -30 c
149 -30 153 -79 156 -122 c
h
-8 75 m
42 -190 l
90 -190 l
90 -180 87 -166 87 -160 c
109 -210 214 -205 208 -131 c
202 -58 187 4 116 4 c
87 4 70 -10 61 -31 c
41 75 l
-8 75 l
f
Q
Q
Q
Q
q
[1 0 0 1 858 0] cm
q
[1 0 0 1 0 792] cm
[1 0 0 1 0 0] cm
q
q
/DeviceRGB {} cs
[0.133 0.133 0.133] sc
6 0 m
57 -261 l
106 -261 l
55 0 l
6 0 l
f
Q
Q
Q
Q
q
[1 0 0 1 958 0] cm
q
[1 0 0 1 0 792] cm
[1 0 0 1 0 0] cm
q
q
/DeviceRGB {} cs
[0.133 0.133 0.133] sc
166 -52 m
162 -35 171 -23 190 -29 c
187 -2 l
157 9 113 -1 120 -36 c
105 -15 91 4 56 4 c
23 4 3 -15 2 -49 c
2 -113 65 -116 130 -116 c
140 -138 133 -169 101 -161 c
88 -158 79 -151 76 -137 c
30 -142 l
35 -206 186 -219 183 -142 c
182 -109 172 -82 166 -52 c
h
97 -88 m
53 -97 33 -31 78 -31 c
109 -31 120 -59 125 -88 c
97 -88 l
f
Q
Q
Q
Q
q
[1 0 0 1 1158 0] cm
q
[1 0 0 1 0 792] cm
[1 0 0 1 0 0] cm
q
q
/DeviceRGB {} cs
[0.133 0.133 0.133] sc
72 -63 m
64 -40 77 -24 104 -33 c
98 -1 l
54 14 12 -6 23 -64 c
41 -157 l
15 -157 l
22 -190 l
50 -190 l
74 -235 l
105 -235 l
97 -190 l
132 -190 l
126 -157 l
90 -157 l
f
Q
Q
Q
Q
q
[1 0 0 1 1277 0] cm
q
[1 0 0 1 0 792] cm
[1 0 0 1 0 0] cm
q
q
/DeviceRGB {} cs
[0.133 0.133 0.133] sc
114 -194 m
177 -196 201 -146 186 -84 c
63 -84 l
60 -56 64 -29 94 -30 c
115 -31 126 -43 131 -59 c
175 -46 l
160 -14 137 4 91 4 c
41 4 11 -22 11 -73 c
11 -144 44 -192 114 -194 c
h
144 -117 m
158 -164 94 -178 77 -139 c
74 -133 71 -126 69 -117 c
144 -117 l
f
Q
Q
Q
Q
q
[1 0 0 1 1477 0] cm
q
[1 0 0 1 0 792] cm
[1 0 0 1 0 0] cm
q
q
/DeviceRGB {} cs
[0.133 0.133 0.133] sc
175 0 m
112 -112 l
75 -91 l
58 0 l
6 0 l
54 -248 l
106 -248 l
83 -135 l
217 -248 l
282 -248 l
150 -139 l
232 0 l
175 0 l
f
Q
Q
Q
Q
q
[1 0 0 1 1736 0] cm
q
[1 0 0 1 0 792] cm
[1 0 0 1 0 0] cm
q
q
/DeviceRGB {} cs
[0.133 0.133 0.133] sc
114 -194 m
177 -196 201 -146 186 -84 c
63 -84 l
60 -56 64 -29 94 -30 c
115 -31 126 -43 131 -59 c
175 -46 l
160 -14 137 4 91 4 c
41 4 11 -22 11 -73 c
11 -144 44 -192 114 -194 c
h
144 -117 m
158 -164 94 -178 77 -139 c
74 -133 71 -126 69 -117 c
144 -117 l
f
Q
Q
Q
Q
q
[1 0 0 1 1936 0] cm
q
[1 0 0 1 0 792] cm
[1 0 0 1 0 0] cm
q
q
/DeviceRGB {} cs
[0.133 0.133 0.133] sc
84 -151 m
97 -176 118 -202 156 -191 c
148 -150 l
67 -170 71 -64 56 0 c
6 0 l
42 -190 l
89 -190 l
f
Q
Q
Q
Q
q
[1 0 0 1 2076 0] cm
q
[1 0 0 1 0 792] cm
[1 0 0 1 0 0] cm
q
q
/DeviceRGB {} cs
[0.133 0.133 0.133] sc
151 -194 m
246 -194 185 -66 179 0 c
130 0 l
155 -134 l
155 -163 110 -159 96 -143 c
67 -111 69 -48 56 0 c
6 0 l
42 -190 l
89 -190 l
85 -158 l
100 -178 118 -194 151 -194 c
f
Q
Q
Q
Q
q
[1 0 0 1 2295 0] cm
q
[1 0 0 1 0 792] cm
[1 0 0 1 0 0] cm
q
q
/DeviceRGB {} cs
[0.133 0.133 0.133] sc
114 -194 m
177 -196 201 -146 186 -84 c
63 -84 l
60 -56 64 -29 94 -30 c
115 -31 126 -43 131 -59 c
175 -46 l
160 -14 137 4 91 4 c
41 4 11 -22 11 -73 c
11 -144 44 -192 114 -194 c
h
144 -117 m
158 -164 94 -178 77 -139 c
74 -133 71 -126 69 -117 c
144 -117 l
f
Q
Q
Q
Q
q
[1 0 0 1 2495 0] cm
q
[1 0 0 1 0 792] cm
[1 0 0 1 0 0] cm
q
q
/DeviceRGB {} cs
[0.133 0.133 0.133] sc
6 0 m
57 -261 l
106 -261 l
55 0 l
6 0 l
f
Q
Q
Q
Q
Q
Q
q
q
[1 0 0 1 120 200] cm
[0.0555 0 0 0.0555 0 0] cm
[1 0 0 1 0 -792] cm
q
[1 0 0 1 0 0] cm
q
[1 0 0 1 0 792] cm
[1 0 0 1 0 0] cm
q
q
/DeviceRGB {} cs
[0.133 0.133 0.133] sc
Q
Q
Q
Q
q
[1 0 0 1 100 0] cm
q
[1 0 0 1 0 792] cm
[1 0 0 1 0 0] cm
q
q
/DeviceRGB {} cs
[0.133 0.133 0.133] sc
Q
Q
Q
Q
q
[1 0 0 1 200 0] cm
q
[1 0 0 1 0 792] cm
[1 0 0 1 0 0] cm
q
q
/DeviceRGB {} cs
[0.133 0.133 0.133] sc
Q
Q
Q
Q
q
[1 0 0 1 300 0] cm
q
[1 0 0 1 0 792] cm
[1 0 0 1 0 0] cm
q
q
/DeviceRGB {} cs
[0.133 0.133 0.133] sc
Q
Q
Q
Q
q
[1 0 0 1 400 0] cm
q
[1 0 0 1 0 792] cm
[1 0 0 1 0 0] cm
q
q
/DeviceRGB {} cs
[0.133 0.133 0.133] sc
Q
Q
Q
Q
q
[1 0 0 1 500 0] cm
q
[1 0 0 1 0 792] cm
[1 0 0 1 0 0] cm
q
q
/DeviceRGB {} cs
[0.133 0.133 0.133] sc
Q
Q
Q
Q
q
[1 0 0 1 600 0] cm
q
[1 0 0 1 0 792] cm
[1 0 0 1 0 0] cm
q
q
/DeviceRGB {} cs
[0.133 0.133 0.133] sc
Q
Q
Q
Q
q
[1 0 0 1 700 0] cm
q
[1 0 0 1 0 792] cm
[1 0 0 1 0 0] cm
q
q
/DeviceRGB {} cs
[0.133 0.133 0.133] sc
Q
Q
Q
Q
q
[1 0 0 1 800 0] cm
q
[1 0 0 1 0 792] cm
[1 0 0 1 0 0] cm
q
q
/DeviceRGB {} cs
[0.133 0.133 0.133] sc
Q
Q
Q
Q
q
[1 0 0 1 900 0] cm
q
[1 0 0 1 0 792] cm
[1 0 0 1 0 0] cm
q
q
/DeviceRGB {} cs
[0.133 0.133 0.133] sc
Q
Q
Q
Q
q
[1 0 0 1 1000 0] cm
q
[1 0 0 1 0 792] cm
[1 0 0 1 0 0] cm
q
q
/DeviceRGB {} cs
[0.133 0.133 0.133] sc
Q
Q
Q
Q
q
[1 0 0 1 1100 0] cm
q
[1 0 0 1 0 792] cm
[1 0 0 1 0 0] cm
q
q
/DeviceRGB {} cs
[0.133 0.133 0.133] sc
Q
Q
Q
Q
q
[1 0 0 1 1200 0] cm
q
[1 0 0 1 0 792] cm
[1 0 0 1 0 0] cm
q
q
/DeviceRGB {} cs
[0.133 0.133 0.133] sc
Q
Q
Q
Q
q
[1 0 0 1 1300 0] cm
q
[1 0 0 1 0 792] cm
[1 0 0 1 0 0] cm
q
q
/DeviceRGB {} cs
[0.133 0.133 0.133] sc
Q
Q
Q
Q
q
[1 0 0 1 1400 0] cm
q
[1 0 0 1 0 792] cm
[1 0 0 1 0 0] cm
q
q
/DeviceRGB {} cs
[0.133 0.133 0.133] sc
Q
Q
Q
Q
q
[1 0 0 1 1500 0] cm
q
[1 0 0 1 0 792] cm
[1 0 0 1 0 0] cm
q
q
/DeviceRGB {} cs
[0.133 0.133 0.133] sc
Q
Q
Q
Q
q
[1 0 0 1 1600 0] cm
q
[1 0 0 1 0 792] cm
[1 0 0 1 0 0] cm
q
q
/DeviceRGB {} cs
[0.133 0.133 0.133] sc
Q
Q
Q
Q
q
[1 0 0 1 1700 0] cm
q
[1 0 0 1 0 792] cm
[1 0 0 1 0 0] cm
q
q
/DeviceRGB {} cs
[0.133 0.133 0.133] sc
Q
Q
Q
Q
q
[1 0 0 1 1800 0] cm
q
[1 0 0 1 0 792] cm
[1 0 0 1 0 0] cm
q
q
/DeviceRGB {} cs
[0.133 0.133 0.133] sc
Q
Q
Q
Q
q
[1 0 0 1 1900 0] cm
q
[1 0 0 1 0 792] cm
[1 0 0 1 0 0] cm
q
q
/DeviceRGB {} cs
[0.133 0.133 0.133] sc
Q
Q
Q
Q
q
[1 0 0 1 2000 0] cm
q
[1 0 0 1 0 792] cm
[1 0 0 1 0 0] cm
q
q
/DeviceRGB {} cs
[0.133 0.133 0.133] sc
Q
Q
Q
Q
q
[1 0 0 1 2100 0] cm
q
[1 0 0 1 0 792] cm
[1 0 0 1 0 0] cm
q
q
/DeviceRGB {} cs
[0.133 0.133 0.133] sc
Q
Q
Q
Q
q
[1 0 0 1 2200 0] cm
q
[1 0 0 1 0 792] cm
[1 0 0 1 0 0] cm
q
q
/DeviceRGB {} cs
[0.133 0.133 0.133] sc
Q
Q
Q
Q
q
[1 0 0 1 2300 0] cm
q
[1 0 0 1 0 792] cm
[1 0 0 1 0 0] cm
q
q
/DeviceRGB {} cs
[0.133 0.133 0.133] sc
Q
Q
Q
Q
q
[1 0 0 1 2400 0] cm
q
[1 0 0 1 0 792] cm
[1 0 0 1 0 0] cm
q
q
/DeviceRGB {} cs
[0.133 0.133 0.133] sc
Q
Q
Q
Q
q
[1 0 0 1 2500 0] cm
q
[1 0 0 1 0 792] cm
[1 0 0 1 0 0] cm
q
q
/DeviceRGB {} cs
[0.133 0.133 0.133] sc
Q
Q
Q
Q
q
[1 0 0 1 2600 0] cm
q
[1 0 0 1 0 792] cm
[1 0 0 1 0 0] cm
q
q
/DeviceRGB {} cs
[0.133 0.133 0.133] sc
Q
Q
Q
Q
Q
Q
q
q
[1 0 0 1 270 200] cm
[0.0555 0 0 0.0555 0 0] cm
[1 0 0 1 0 -792] cm
q
[1 0 0 1 0 0] cm
q
[1 0 0 1 0 792] cm
[1 0 0 1 0 0] cm
q
q
/DeviceRGB {} cs
[0.133 0.133 0.133] sc
13 -52 m
13 -149 50 -215 104 -261 c
154 -261 l
101 -209 62 -146 62 -49 c
62 -1 70 41 87 75 c
39 75 l
22 40 13 -2 13 -52 c
f
Q
Q
Q
Q
q
[1 0 0 1 119 0] cm
q
[1 0 0 1 0 792] cm
[1 0 0 1 0 0] cm
q
q
/DeviceRGB {} cs
[0.133 0.133 0.133] sc
-21 30 207 14 re
f
Q
Q
Q
Q
q
[1 0 0 1 319 0] cm
q
[1 0 0 1 0 792] cm
[1 0 0 1 0 0] cm
q
q
/DeviceRGB {} cs
[0.133 0.133 0.133] sc
-21 30 207 14 re
f
Q
Q
Q
Q
q
[1 0 0 1 519 0] cm
q
[1 0 0 1 0 792] cm
[1 0 0 1 0 0] cm
q
q
/DeviceRGB {} cs
[0.133 0.133 0.133] sc
45 -171 m
74 -203 148 -200 159 -157 c
161 -168 164 -180 167 -190 c
214 -190 l
176 -2 l
173 68 84 94 21 62 c
9 56 1 42 -1 25 c
49 20 l
51 48 97 47 112 31 c
125 18 132 -14 133 -35 c
120 -15 103 0 71 1 c
-16 4 11 -133 45 -171 c
h
94 -35 m
135 -38 149 -78 149 -121 c
149 -145 137 -160 114 -160 c
71 -160 63 -112 63 -70 c
63 -48 72 -33 94 -35 c
f
Q
Q
Q
Q
q
[1 0 0 1 738 0] cm
q
[1 0 0 1 0 792] cm
[1 0 0 1 0 0] cm
q
q
/DeviceRGB {} cs
[0.133 0.133 0.133] sc
6 0 m
57 -261 l
106 -261 l
55 0 l
6 0 l
f
Q
Q
Q
Q
q
[1 0 0 1 838 0] cm
q
[1 0 0 1 0 792] cm
[1 0 0 1 0 0] cm
q
q
/DeviceRGB {} cs
[0.133 0.133 0.133] sc
124 -194 m
175 -194 208 -172 208 -120 c
207 -44 167 4 94 4 c
43 4 11 -23 11 -74 c
11 -148 52 -194 124 -194 c
h
99 -30 m
145 -30 157 -72 157 -116 c
157 -143 146 -160 120 -160 c
76 -160 65 -120 63 -76 c
62 -49 73 -31 99 -30 c
f
Q
Q
Q
Q
q
[1 0 0 1 1057 0] cm
q
[1 0 0 1 0 792] cm
[1 0 0 1 0 0] cm
q
q
/DeviceRGB {} cs
[0.133 0.133 0.133] sc
87 -160 m
102 -177 119 -194 150 -194 c
249 -193 209 -22 149 -2 c
113 10 71 -2 62 -31 c
54 0 l
6 0 l
58 -261 l
107 -261 l
87 -160 l
h
158 -122 m
158 -146 153 -159 129 -159 c
83 -159 74 -113 72 -70 c
71 -45 84 -30 107 -30 c
151 -30 158 -80 158 -122 c
f
Q
Q
Q
Q
q
[1 0 0 1 1276 0] cm
q
[1 0 0 1 0 792] cm
[1 0 0 1 0 0] cm
q
q
/DeviceRGB {} cs
[0.133 0.133 0.133] sc
166 -52 m
162 -35 171 -23 190 -29 c
187 -2 l
157 9 113 -1 120 -36 c
105 -15 91 4 56 4 c
23 4 3 -15 2 -49 c
2 -113 65 -116 130 -116 c
140 -138 133 -169 101 -161 c
88 -158 79 -151 76 -137 c
30 -142 l
35 -206 186 -219 183 -142 c
182 -109 172 -82 166 -52 c
h
97 -88 m
53 -97 33 -31 78 -31 c
109 -31 120 -59 125 -88 c
97 -88 l
f
Q
Q
Q
Q
q
[1 0 0 1 1476 0] cm
q
[1 0 0 1 0 792] cm
[1 0 0 1 0 0] cm
q
q
/DeviceRGB {} cs
[0.133 0.133 0.133] sc
6 0 m
57 -261 l
106 -261 l
55 0 l
6 0 l
f
Q
Q
Q
Q
q
[1 0 0 1 1576 0] cm
q
[1 0 0 1 0 792] cm
[1 0 0 1 0 0] cm
q
q
/DeviceRGB {} cs
[0.133 0.133 0.133] sc
Q
Q
Q
Q
q
[1 0 0 1 1676 0] cm
q
[1 0 0 1 0 792] cm
[1 0 0 1 0 0] cm
q
q
/DeviceRGB {} cs
[0.133 0.133 0.133] sc
Q
Q
Q
Q
Q
Q
q
q
[1 0 0 1 368.6 200] cm
[0.0555 0 0 0.0555 0 0] cm
[1 0 0 1 0 -792] cm
q
[1 0 0 1 0 0] cm
q
[1 0 0 1 0 792] cm
[1 0 0 1 0 0] cm
q
q
/DeviceRGB {} cs
[0.133 0.133 0.133] sc
69 3 m
-27 3 35 -123 41 -190 c
90 -190 l
65 -57 l
71 -15 127 -39 136 -63 c
150 -101 153 -149 164 -190 c
214 -190 l
178 0 l
131 0 l
131 -11 135 -26 134 -33 c
120 -13 104 4 69 3 c
f
Q
Q
Q
Q
q
[1 0 0 1 219 0] cm
q
[1 0 0 1 0 792] cm
[1 0 0 1 0 0] cm
q
q
/DeviceRGB {} cs
[0.133 0.133 0.133] sc
151 -194 m
246 -194 185 -66 179 0 c
130 0 l
155 -134 l
155 -163 110 -159 96 -143 c
67 -111 69 -48 56 0 c
6 0 l
42 -190 l
89 -190 l
85 -158 l
100 -178 118 -194 151 -194 c
f
Q
Q
Q
Q
q
[1 0 0 1 438 0] cm
q
[1 0 0 1 0 792] cm
[1 0 0 1 0 0] cm
q
q
/DeviceRGB {} cs
[0.133 0.133 0.133] sc
144 -137 m
143 -166 74 -172 73 -139 c
89 -98 176 -129 176 -59 c
176 9 79 16 32 -9 c
18 -17 9 -31 4 -48 c
48 -54 l
51 -22 128 -18 130 -53 c
115 -95 27 -64 27 -135 c
27 -212 184 -214 188 -143 c
f
Q
Q
Q
Q
q
[1 0 0 1 638 0] cm
q
[1 0 0 1 0 792] cm
[1 0 0 1 0 0] cm
q
q
/DeviceRGB {} cs
[0.133 0.133 0.133] sc
50 -224 m
57 -261 l
106 -261 l
99 -224 l
50 -224 l
h
6 0 m
43 -190 l
92 -190 l
55 0 l
6 0 l
f
Q
Q
Q
Q
q
[1 0 0 1 738 0] cm
q
[1 0 0 1 0 792] cm
[1 0 0 1 0 0] cm
q
q
/DeviceRGB {} cs
[0.133 0.133 0.133] sc
45 -171 m
74 -203 148 -200 159 -157 c
161 -168 164 -180 167 -190 c
214 -190 l
176 -2 l
173 68 84 94 21 62 c
9 56 1 42 -1 25 c
49 20 l
51 48 97 47 112 31 c
125 18 132 -14 133 -35 c
120 -15 103 0 71 1 c
-16 4 11 -133 45 -171 c
h
94 -35 m
135 -38 149 -78 149 -121 c
149 -145 137 -160 114 -160 c
71 -160 63 -112 63 -70 c
63 -48 72 -33 94 -35 c
f
Q
Q
Q
Q
q
[1 0 0 1 957 0] cm
q
[1 0 0 1 0 792] cm
[1 0 0 1 0 0] cm
q
q
/DeviceRGB {} cs
[0.133 0.133 0.133] sc
151 -194 m
246 -194 185 -66 179 0 c
130 0 l
155 -134 l
155 -163 110 -159 96 -143 c
67 -111 69 -48 56 0 c
6 0 l
42 -190 l
89 -190 l
85 -158 l
100 -178 118 -194 151 -194 c
f
Q
Q
Q
Q
q
[1 0 0 1 1176 0] cm
q
[1 0 0 1 0 792] cm
[1 0 0 1 0 0] cm
q
q
/DeviceRGB {} cs
[0.133 0.133 0.133] sc
114 -194 m
177 -196 201 -146 186 -84 c
63 -84 l
60 -56 64 -29 94 -30 c
115 -31 126 -43 131 -59 c
175 -46 l
160 -14 137 4 91 4 c
41 4 11 -22 11 -73 c
11 -144 44 -192 114 -194 c
h
144 -117 m
158 -164 94 -178 77 -139 c
74 -133 71 -126 69 -117 c
144 -117 l
f
Q
Q
Q
Q
q
[1 0 0 1 1376 0] cm
q
[1 0 0 1 0 792] cm
[1 0 0 1 0 0] cm
q
q
/DeviceRGB {} cs
[0.133 0.133 0.133] sc
132 -28 m
118 -9 101 4 69 4 c
30 4 10 -23 10 -62 c
10 -132 34 -191 102 -194 c
133 -195 149 -180 158 -159 c
177 -261 l
226 -261 l
179 0 l
130 0 l
132 -28 l
h
62 -69 m
62 -47 69 -30 91 -30 c
136 -32 145 -75 148 -120 c
150 -147 138 -160 115 -160 c
71 -160 62 -112 62 -69 c
f
Q
Q
Q
Q
q
[1 0 0 1 1595 0] cm
q
[1 0 0 1 0 792] cm
[1 0 0 1 0 0] cm
q
q
/DeviceRGB {} cs
[0.133 0.133 0.133] sc
Q
Q
Q
Q
Q
Q
q
q
[1 0 0 1 462.8 200] cm
[0.0555 0 0 0.0555 0 0] cm
[1 0 0 1 0 -792] cm
q
[1 0 0 1 0 0] cm
q
[1 0 0 1 0 792] cm
[1 0 0 1 0 0] cm
q
q
/DeviceRGB {} cs
[0.133 0.133 0.133] sc
50 -224 m
57 -261 l
106 -261 l
99 -224 l
50 -224 l
h
6 0 m
43 -190 l
92 -190 l
55 0 l
6 0 l
f
Q
Q
Q
Q
q
[1 0 0 1 100 0] cm
q
[1 0 0 1 0 792] cm
[1 0 0 1 0 0] cm
q
q
/DeviceRGB {} cs
[0.133 0.133 0.133] sc
151 -194 m
246 -194 185 -66 179 0 c
130 0 l
155 -134 l
155 -163 110 -159 96 -143 c
67 -111 69 -48 56 0 c
6 0 l
42 -190 l
89 -190 l
85 -158 l
100 -178 118 -194 151 -194 c
f
Q
Q
Q
Q
q
[1 0 0 1 319 0] cm
q
[1 0 0 1 0 792] cm
[1 0 0 1 0 0] cm
q
q
/DeviceRGB {} cs
[0.133 0.133 0.133] sc
72 -63 m
64 -40 77 -24 104 -33 c
98 -1 l
54 14 12 -6 23 -64 c
41 -157 l
15 -157 l
22 -190 l
50 -190 l
74 -235 l
105 -235 l
97 -190 l
132 -190 l
126 -157 l
90 -157 l
f
Q
Q
Q
Q
q
[1 0 0 1 438 0] cm
q
[1 0 0 1 0 792] cm
[1 0 0 1 0 0] cm
q
q
/DeviceRGB {} cs
[0.133 0.133 0.133] sc
Q
Q
Q
Q
Q
Q
q
q
[1 0 0 1 492.7 200] cm
[0.0555 0 0 0.0555 0 0] cm
[1 0 0 1 0 -792] cm
q
[1 0 0 1 0 0] cm
q
[1 0 0 1 0 792] cm
[1 0 0 1 0 0] cm
q
q
/DeviceRGB {} cs
[0.133 0.133 0.133] sc
101 -200 m
142 -218 l
154 -183 l
110 -172 l
143 -135 l
111 -114 l
85 -158 l
59 -114 l
26 -135 l
59 -172 l
15 -183 l
27 -218 l
69 -200 l
66 -248 l
104 -248 l
f
Q
Q
Q
Q
q
[1 0 0 1 140 0] cm
q
[1 0 0 1 0 792] cm
[1 0 0 1 0 0] cm
q
q
/DeviceRGB {} cs
[0.133 0.133 0.133] sc
Q
Q
Q
Q
Q
Q
q
q
[1 0 0 1 506 200] cm
[0.0555 0 0 0.0555 0 0] cm
[1 0 0 1 0 -792] cm
q
[1 0 0 1 0 0] cm
q
[1 0 0 1 0 792] cm
[1 0 0 1 0 0] cm
q
q
/DeviceRGB {} cs
[0.133 0.133 0.133] sc
124 -194 m
175 -194 208 -172 208 -120 c
207 -44 167 4 94 4 c
43 4 11 -23 11 -74 c
11 -148 52 -194 124 -194 c
h
99 -30 m
145 -30 157 -72 157 -116 c
157 -143 146 -160 120 -160 c
76 -160 65 -120 63 -76 c
62 -49 73 -31 99 -30 c
f
Q
Q
Q
Q
q
[1 0 0 1 219 0] cm
q
[1 0 0 1 0 792] cm
[1 0 0 1 0 0] cm
q
q
/DeviceRGB {} cs
[0.133 0.133 0.133] sc
69 3 m
-27 3 35 -123 41 -190 c
90 -190 l
65 -57 l
71 -15 127 -39 136 -63 c
150 -101 153 -149 164 -190 c
214 -190 l
178 0 l
131 0 l
131 -11 135 -26 134 -33 c
120 -13 104 4 69 3 c
f
Q
Q
Q
Q
q
[1 0 0 1 438 0] cm
q
[1 0 0 1 0 792] cm
[1 0 0 1 0 0] cm
q
q
/DeviceRGB {} cs
[0.133 0.133 0.133] sc
72 -63 m
64 -40 77 -24 104 -33 c
98 -1 l
54 14 12 -6 23 -64 c
41 -157 l
15 -157 l
22 -190 l
50 -190 l
74 -235 l
105 -235 l
97 -190 l
132 -190 l
126 -157 l
90 -157 l
f
Q
Q
Q
Q
q
[1 0 0 1 557 0] cm
q
[1 0 0 1 0 792] cm
[1 0 0 1 0 0] cm
q
q
/DeviceRGB {} cs
[0.133 0.133 0.133] sc
156 -122 m
158 -145 149 -159 128 -159 c
81 -159 70 -115 70 -70 c
70 -46 82 -30 106 -30 c
149 -30 153 -79 156 -122 c
h
-8 75 m
42 -190 l
90 -190 l
90 -180 87 -166 87 -160 c
109 -210 214 -205 208 -131 c
202 -58 187 4 116 4 c
87 4 70 -10 61 -31 c
41 75 l
-8 75 l
f
Q
Q
Q
Q
q
[1 0 0 1 776 0] cm
q
[1 0 0 1 0 792] cm
[1 0 0 1 0 0] cm
q
q
/DeviceRGB {} cs
[0.133 0.133 0.133] sc
69 3 m
-27 3 35 -123 41 -190 c
90 -190 l
65 -57 l
71 -15 127 -39 136 -63 c
150 -101 153 -149 164 -190 c
214 -190 l
178 0 l
131 0 l
131 -11 135 -26 134 -33 c
120 -13 104 4 69 3 c
f
Q
Q
Q
Q
q
[1 0 0 1 995 0] cm
q
[1 0 0 1 0 792] cm
[1 0 0 1 0 0] cm
q
q
/DeviceRGB {} cs
[0.133 0.133 0.133] sc
72 -63 m
64 -40 77 -24 104 -33 c
98 -1 l
54 14 12 -6 23 -64 c
41 -157 l
15 -157 l
22 -190 l
50 -190 l
74 -235 l
105 -235 l
97 -190 l
132 -190 l
126 -157 l
90 -157 l
f
Q
Q
Q
Q
q
[1 0 0 1 1114 0] cm
q
[1 0 0 1 0 792] cm
[1 0 0 1 0 0] cm
q
q
/DeviceRGB {} cs
[0.133 0.133 0.133] sc
69 -54 m
61 -12 54 32 29 56 c
-4 56 l
11 41 25 23 31 0 c
8 0 l
18 -54 l
69 -54 l
f
Q
Q
Q
Q
q
[1 0 0 1 1214 0] cm
q
[1 0 0 1 0 792] cm
[1 0 0 1 0 0] cm
q
q
/DeviceRGB {} cs
[0.133 0.133 0.133] sc
Q
Q
Q
Q
q
[1 0 0 1 1314 0] cm
q
[1 0 0 1 0 792] cm
[1 0 0 1 0 0] cm
q
q
/DeviceRGB {} cs
[0.133 0.133 0.133] sc
Q
Q
Q
Q
Q
Q
q
q
[1 0 0 1 120 224] cm
[0.0555 0 0 0.0555 0 0] cm
[1 0 0 1 0 -792] cm
q
[1 0 0 1 0 0] cm
q
[1 0 0 1 0 792] cm
[1 0 0 1 0 0] cm
q
q
/DeviceRGB {} cs
[0.133 0.133 0.133] sc
Q
Q
Q
Q
q
[1 0 0 1 100 0] cm
q
[1 0 0 1 0 792] cm
[1 0 0 1 0 0] cm
q
q
/DeviceRGB {} cs
[0.133 0.133 0.133] sc
Q
Q
Q
Q
q
[1 0 0 1 200 0] cm
q
[1 0 0 1 0 792] cm
[1 0 0 1 0 0] cm
q
q
/DeviceRGB {} cs
[0.133 0.133 0.133] sc
Q
Q
Q
Q
q
[1 0 0 1 300 0] cm
q
[1 0 0 1 0 792] cm
[1 0 0 1 0 0] cm
q
q
/DeviceRGB {} cs
[0.133 0.133 0.133] sc
Q
Q
Q
Q
q
[1 0 0 1 400 0] cm
q
[1 0 0 1 0 792] cm
[1 0 0 1 0 0] cm
q
q
/DeviceRGB {} cs
[0.133 0.133 0.133] sc
Q
Q
Q
Q
q
[1 0 0 1 500 0] cm
q
[1 0 0 1 0 792] cm
[1 0 0 1 0 0] cm
q
q
/DeviceRGB {} cs
[0.133 0.133 0.133] sc
Q
Q
Q
Q
q
[1 0 0 1 600 0] cm
q
[1 0 0 1 0 792] cm
[1 0 0 1 0 0] cm
q
q
/DeviceRGB {} cs
[0.133 0.133 0.133] sc
Q
Q
Q
Q
q
[1 0 0 1 700 0] cm
q
[1 0 0 1 0 792] cm
[1 0 0 1 0 0] cm
q
q
/DeviceRGB {} cs
[0.133 0.133 0.133] sc
Q
Q
Q
Q
q
[1 0 0 1 800 0] cm
q
[1 0 0 1 0 792] cm
[1 0 0 1 0 0] cm
q
q
/DeviceRGB {} cs
[0.133 0.133 0.133] sc
Q
Q
Q
Q
q
[1 0 0 1 900 0] cm
q
[1 0 0 1 0 792] cm
[1 0 0 1 0 0] cm
q
q
/DeviceRGB {} cs
[0.133 0.133 0.133] sc
Q
Q
Q
Q
q
[1 0 0 1 1000 0] cm
q
[1 0 0 1 0 792] cm
[1 0 0 1 0 0] cm
q
q
/DeviceRGB {} cs
[0.133 0.133 0.133] sc
Q
Q
Q
Q
q
[1 0 0 1 1100 0] cm
q
[1 0 0 1 0 792] cm
[1 0 0 1 0 0] cm
q
q
/DeviceRGB {} cs
[0.133 0.133 0.133] sc
Q
Q
Q
Q
q
[1 0 0 1 1200 0] cm
q
[1 0 0 1 0 792] cm
[1 0 0 1 0 0] cm
q
q
/DeviceRGB {} cs
[0.133 0.133 0.133] sc
Q
Q
Q
Q
q
[1 0 0 1 1300 0] cm
q
[1 0 0 1 0 792] cm
[1 0 0 1 0 0] cm
q
q
/DeviceRGB {} cs
[0.133 0.133 0.133] sc
Q
Q
Q
Q
q
[1 0 0 1 1400 0] cm
q
[1 0 0 1 0 792] cm
[1 0 0 1 0 0] cm
q
q
/DeviceRGB {} cs
[0.133 0.133 0.133] sc
Q
Q
Q
Q
q
[1 0 0 1 1500 0] cm
q
[1 0 0 1 0 792] cm
[1 0 0 1 0 0] cm
q
q
/DeviceRGB {} cs
[0.133 0.133 0.133] sc
Q
Q
Q
Q
q
[1 0 0 1 1600 0] cm
q
[1 0 0 1 0 792] cm
[1 0 0 1 0 0] cm
q
q
/DeviceRGB {} cs
[0.133 0.133 0.133] sc
Q
Q
Q
Q
q
[1 0 0 1 1700 0] cm
q
[1 0 0 1 0 792] cm
[1 0 0 1 0 0] cm
q
q
/DeviceRGB {} cs
[0.133 0.133 0.133] sc
Q
Q
Q
Q
q
[1 0 0 1 1800 0] cm
q
[1 0 0 1 0 792] cm
[1 0 0 1 0 0] cm
q
q
/DeviceRGB {} cs
[0.133 0.133 0.133] sc
Q
Q
Q
Q
q
[1 0 0 1 1900 0] cm
q
[1 0 0 1 0 792] cm
[1 0 0 1 0 0] cm
q
q
/DeviceRGB {} cs
[0.133 0.133 0.133] sc
Q
Q
Q
Q
q
[1 0 0 1 2000 0] cm
q
[1 0 0 1 0 792] cm
[1 0 0 1 0 0] cm
q
q
/DeviceRGB {} cs
[0.133 0.133 0.133] sc
Q
Q
Q
Q
q
[1 0 0 1 2100 0] cm
q
[1 0 0 1 0 792] cm
[1 0 0 1 0 0] cm
q
q
/DeviceRGB {} cs
[0.133 0.133 0.133] sc
Q
Q
Q
Q
q
[1 0 0 1 2200 0] cm
q
[1 0 0 1 0 792] cm
[1 0 0 1 0 0] cm
q
q
/DeviceRGB {} cs
[0.133 0.133 0.133] sc
Q
Q
Q
Q
q
[1 0 0 1 2300 0] cm
q
[1 0 0 1 0 792] cm
[1 0 0 1 0 0] cm
q
q
/DeviceRGB {} cs
[0.133 0.133 0.133] sc
Q
Q
Q
Q
q
[1 0 0 1 2400 0] cm
q
[1 0 0 1 0 792] cm
[1 0 0 1 0 0] cm
q
q
/DeviceRGB {} cs
[0.133 0.133 0.133] sc
Q
Q
Q
Q
q
[1 0 0 1 2500 0] cm
q
[1 0 0 1 0 792] cm
[1 0 0 1 0 0] cm
q
q
/DeviceRGB {} cs
[0.133 0.133 0.133] sc
Q
Q
Q
Q
q
[1 0 0 1 2600 0] cm
q
[1 0 0 1 0 792] cm
[1 0 0 1 0 0] cm
q
q
/DeviceRGB {} cs
[0.133 0.133 0.133] sc
Q
Q
Q
Q
Q
Q
q
q
[1 0 0 1 270 224] cm
[0.0555 0 0 0.0555 0 0] cm
[1 0 0 1 0 -792] cm
q
[1 0 0 1 0 0] cm
q
[1 0 0 1 0 792] cm
[1 0 0 1 0 0] cm
q
q
/DeviceRGB {} cs
[0.133 0.133 0.133] sc
Q
Q
Q
Q
q
[1 0 0 1 100 0] cm
q
[1 0 0 1 0 792] cm
[1 0 0 1 0 0] cm
q
q
/DeviceRGB {} cs
[0.133 0.133 0.133] sc
-21 30 207 14 re
f
Q
Q
Q
Q
q
[1 0 0 1 300 0] cm
q
[1 0 0 1 0 792] cm
[1 0 0 1 0 0] cm
q
q
/DeviceRGB {} cs
[0.133 0.133 0.133] sc
-21 30 207 14 re
f
Q
Q
Q
Q
q
[1 0 0 1 500 0] cm
q
[1 0 0 1 0 792] cm
[1 0 0 1 0 0] cm
q
q
/DeviceRGB {} cs
[0.133 0.133 0.133] sc
45 -171 m
74 -203 148 -200 159 -157 c
161 -168 164 -180 167 -190 c
214 -190 l
176 -2 l
173 68 84 94 21 62 c
9 56 1 42 -1 25 c
49 20 l
51 48 97 47 112 31 c
125 18 132 -14 133 -35 c
120 -15 103 0 71 1 c
-16 4 11 -133 45 -171 c
h
94 -35 m
135 -38 149 -78 149 -121 c
149 -145 137 -160 114 -160 c
71 -160 63 -112 63 -70 c
63 -48 72 -33 94 -35 c
f
Q
Q
Q
Q
q
[1 0 0 1 719 0] cm
q
[1 0 0 1 0 792] cm
[1 0 0 1 0 0] cm
q
q
/DeviceRGB {} cs
[0.133 0.133 0.133] sc
6 0 m
57 -261 l
106 -261 l
55 0 l
6 0 l
f
Q
Q
Q
Q
q
[1 0 0 1 819 0] cm
q
[1 0 0 1 0 792] cm
[1 0 0 1 0 0] cm
q
q
/DeviceRGB {} cs
[0.133 0.133 0.133] sc
124 -194 m
175 -194 208 -172 208 -120 c
207 -44 167 4 94 4 c
43 4 11 -23 11 -74 c
11 -148 52 -194 124 -194 c
h
99 -30 m
145 -30 157 -72 157 -116 c
157 -143 146 -160 120 -160 c
76 -160 65 -120 63 -76 c
62 -49 73 -31 99 -30 c
f
Q
Q
Q
Q
q
[1 0 0 1 1038 0] cm
q
[1 0 0 1 0 792] cm
[1 0 0 1 0 0] cm
q
q
/DeviceRGB {} cs
[0.133 0.133 0.133] sc
87 -160 m
102 -177 119 -194 150 -194 c
249 -193 209 -22 149 -2 c
113 10 71 -2 62 -31 c
54 0 l
6 0 l
58 -261 l
107 -261 l
87 -160 l
h
158 -122 m
158 -146 153 -159 129 -159 c
83 -159 74 -113 72 -70 c
71 -45 84 -30 107 -30 c
151 -30 158 -80 158 -122 c
f
Q
Q
Q
Q
q
[1 0 0 1 1257 0] cm
q
[1 0 0 1 0 792] cm
[1 0 0 1 0 0] cm
q
q
/DeviceRGB {} cs
[0.133 0.133 0.133] sc
166 -52 m
162 -35 171 -23 190 -29 c
187 -2 l
157 9 113 -1 120 -36 c
105 -15 91 4 56 4 c
23 4 3 -15 2 -49 c
2 -113 65 -116 130 -116 c
140 -138 133 -169 101 -161 c
88 -158 79 -151 76 -137 c
30 -142 l
35 -206 186 -219 183 -142 c
182 -109 172 -82 166 -52 c
h
97 -88 m
53 -97 33 -31 78 -31 c
109 -31 120 -59 125 -88 c
97 -88 l
f
Q
Q
Q
Q
q
[1 0 0 1 1457 0] cm
q
[1 0 0 1 0 792] cm
[1 0 0 1 0 0] cm
q
q
/DeviceRGB {} cs
[0.133 0.133 0.133] sc
6 0 m
57 -261 l
106 -261 l
55 0 l
6 0 l
f
Q
Q
Q
Q
q
[1 0 0 1 1557 0] cm
q
[1 0 0 1 0 792] cm
[1 0 0 1 0 0] cm
q
q
/DeviceRGB {} cs
[0.133 0.133 0.133] sc
Q
Q
Q
Q
Q
Q
q
q
[1 0 0 1 362 224] cm
[0.0555 0 0 0.0555 0 0] cm
[1 0 0 1 0 -792] cm
q
[1 0 0 1 0 0] cm
q
[1 0 0 1 0 792] cm
[1 0 0 1 0 0] cm
q
q
/DeviceRGB {} cs
[0.133 0.133 0.133] sc
Q
Q
Q
Q
q
[1 0 0 1 100 0] cm
q
[1 0 0 1 0 792] cm
[1 0 0 1 0 0] cm
q
q
/DeviceRGB {} cs
[0.133 0.133 0.133] sc
69 3 m
-27 3 35 -123 41 -190 c
90 -190 l
65 -57 l
71 -15 127 -39 136 -63 c
150 -101 153 -149 164 -190 c
214 -190 l
178 0 l
131 0 l
131 -11 135 -26 134 -33 c
120 -13 104 4 69 3 c
f
Q
Q
Q
Q
q
[1 0 0 1 319 0] cm
q
[1 0 0 1 0 792] cm
[1 0 0 1 0 0] cm
q
q
/DeviceRGB {} cs
[0.133 0.133 0.133] sc
151 -194 m
246 -194 185 -66 179 0 c
130 0 l
155 -134 l
155 -163 110 -159 96 -143 c
67 -111 69 -48 56 0 c
6 0 l
42 -190 l
89 -190 l
85 -158 l
100 -178 118 -194 151 -194 c
f
Q
Q
Q
Q
q
[1 0 0 1 538 0] cm
q
[1 0 0 1 0 792] cm
[1 0 0 1 0 0] cm
q
q
/DeviceRGB {} cs
[0.133 0.133 0.133] sc
144 -137 m
143 -166 74 -172 73 -139 c
89 -98 176 -129 176 -59 c
176 9 79 16 32 -9 c
18 -17 9 -31 4 -48 c
48 -54 l
51 -22 128 -18 130 -53 c
115 -95 27 -64 27 -135 c
27 -212 184 -214 188 -143 c
f
Q
Q
Q
Q
q
[1 0 0 1 738 0] cm
q
[1 0 0 1 0 792] cm
[1 0 0 1 0 0] cm
q
q
/DeviceRGB {} cs
[0.133 0.133 0.133] sc
50 -224 m
57 -261 l
106 -261 l
99 -224 l
50 -224 l
h
6 0 m
43 -190 l
92 -190 l
55 0 l
6 0 l
f
Q
Q
Q
Q
q
[1 0 0 1 838 0] cm
q
[1 0 0 1 0 792] cm
[1 0 0 1 0 0] cm
q
q
/DeviceRGB {} cs
[0.133 0.133 0.133] sc
45 -171 m
74 -203 148 -200 159 -157 c
161 -168 164 -180 167 -190 c
214 -190 l
176 -2 l
173 68 84 94 21 62 c
9 56 1 42 -1 25 c
49 20 l
51 48 97 47 112 31 c
125 18 132 -14 133 -35 c
120 -15 103 0 71 1 c
-16 4 11 -133 45 -171 c
h
94 -35 m
135 -38 149 -78 149 -121 c
149 -145 137 -160 114 -160 c
71 -160 63 -112 63 -70 c
63 -48 72 -33 94 -35 c
f
Q
Q
Q
Q
q
[1 0 0 1 1057 0] cm
q
[1 0 0 1 0 792] cm
[1 0 0 1 0 0] cm
q
q
/DeviceRGB {} cs
[0.133 0.133 0.133] sc
151 -194 m
246 -194 185 -66 179 0 c
130 0 l
155 -134 l
155 -163 110 -159 96 -143 c
67 -111 69 -48 56 0 c
6 0 l
42 -190 l
89 -190 l
85 -158 l
100 -178 118 -194 151 -194 c
f
Q
Q
Q
Q
q
[1 0 0 1 1276 0] cm
q
[1 0 0 1 0 792] cm
[1 0 0 1 0 0] cm
q
q
/DeviceRGB {} cs
[0.133 0.133 0.133] sc
114 -194 m
177 -196 201 -146 186 -84 c
63 -84 l
60 -56 64 -29 94 -30 c
115 -31 126 -43 131 -59 c
175 -46 l
160 -14 137 4 91 4 c
41 4 11 -22 11 -73 c
11 -144 44 -192 114 -194 c
h
144 -117 m
158 -164 94 -178 77 -139 c
74 -133 71 -126 69 -117 c
144 -117 l
f
Q
Q
Q
Q
q
[1 0 0 1 1476 0] cm
q
[1 0 0 1 0 792] cm
[1 0 0 1 0 0] cm
q
q
/DeviceRGB {} cs
[0.133 0.133 0.133] sc
132 -28 m
118 -9 101 4 69 4 c
30 4 10 -23 10 -62 c
10 -132 34 -191 102 -194 c
133 -195 149 -180 158 -159 c
177 -261 l
226 -261 l
179 0 l
130 0 l
132 -28 l
h
62 -69 m
62 -47 69 -30 91 -30 c
136 -32 145 -75 148 -120 c
150 -147 138 -160 115 -160 c
71 -160 62 -112 62 -69 c
f
Q
Q
Q
Q
q
[1 0 0 1 1695 0] cm
q
[1 0 0 1 0 792] cm
[1 0 0 1 0 0] cm
q
q
/DeviceRGB {} cs
[0.133 0.133 0.133] sc
Q
Q
Q
Q
Q
Q
q
q
[1 0 0 1 461.7 224] cm
[0.0555 0 0 0.0555 0 0] cm
[1 0 0 1 0 -792] cm
q
[1 0 0 1 0 0] cm
q
[1 0 0 1 0 792] cm
[1 0 0 1 0 0] cm
q
q
/DeviceRGB {} cs
[0.133 0.133 0.133] sc
50 -224 m
57 -261 l
106 -261 l
99 -224 l
50 -224 l
h
6 0 m
43 -190 l
92 -190 l
55 0 l
6 0 l
f
Q
Q
Q
Q
q
[1 0 0 1 100 0] cm
q
[1 0 0 1 0 792] cm
[1 0 0 1 0 0] cm
q
q
/DeviceRGB {} cs
[0.133 0.133 0.133] sc
151 -194 m
246 -194 185 -66 179 0 c
130 0 l
155 -134 l
155 -163 110 -159 96 -143 c
67 -111 69 -48 56 0 c
6 0 l
42 -190 l
89 -190 l
85 -158 l
100 -178 118 -194 151 -194 c
f
Q
Q
Q
Q
q
[1 0 0 1 319 0] cm
q
[1 0 0 1 0 792] cm
[1 0 0 1 0 0] cm
q
q
/DeviceRGB {} cs
[0.133 0.133 0.133] sc
72 -63 m
64 -40 77 -24 104 -33 c
98 -1 l
54 14 12 -6 23 -64 c
41 -157 l
15 -157 l
22 -190 l
50 -190 l
74 -235 l
105 -235 l
97 -190 l
132 -190 l
126 -157 l
90 -157 l
f
Q
Q
Q
Q
q
[1 0 0 1 438 0] cm
q
[1 0 0 1 0 792] cm
[1 0 0 1 0 0] cm
q
q
/DeviceRGB {} cs
[0.133 0.133 0.133] sc
Q
Q
Q
Q
Q
Q
q
q
[1 0 0 1 491.6 224] cm
[0.0555 0 0 0.0555 0 0] cm
[1 0 0 1 0 -792] cm
q
[1 0 0 1 0 0] cm
q
[1 0 0 1 0 792] cm
[1 0 0 1 0 0] cm
q
q
/DeviceRGB {} cs
[0.133 0.133 0.133] sc
101 -200 m
142 -218 l
154 -183 l
110 -172 l
143 -135 l
111 -114 l
85 -158 l
59 -114 l
26 -135 l
59 -172 l
15 -183 l
27 -218 l
69 -200 l
66 -248 l
104 -248 l
f
Q
Q
Q
Q
q
[1 0 0 1 140 0] cm
q
[1 0 0 1 0 792] cm
[1 0 0 1 0 0] cm
q
q
/DeviceRGB {} cs
[0.133 0.133 0.133] sc
Q
Q
Q
Q
Q
Q
q
q
[1 0 0 1 505 224] cm
[0.0555 0 0 0.0555 0 0] cm
[1 0 0 1 0 -792] cm
q
[1 0 0 1 0 0] cm
q
[1 0 0 1 0 792] cm
[1 0 0 1 0 0] cm
q
q
/DeviceRGB {} cs
[0.133 0.133 0.133] sc
50 -224 m
57 -261 l
106 -261 l
99 -224 l
50 -224 l
h
6 0 m
43 -190 l
92 -190 l
55 0 l
6 0 l
f
Q
Q
Q
Q
q
[1 0 0 1 100 0] cm
q
[1 0 0 1 0 792] cm
[1 0 0 1 0 0] cm
q
q
/DeviceRGB {} cs
[0.133 0.133 0.133] sc
151 -194 m
246 -194 185 -66 179 0 c
130 0 l
155 -134 l
155 -163 110 -159 96 -143 c
67 -111 69 -48 56 0 c
6 0 l
42 -190 l
89 -190 l
85 -158 l
100 -178 118 -194 151 -194 c
f
Q
Q
Q
Q
q
[1 0 0 1 319 0] cm
q
[1 0 0 1 0 792] cm
[1 0 0 1 0 0] cm
q
q
/DeviceRGB {} cs
[0.133 0.133 0.133] sc
156 -122 m
158 -145 149 -159 128 -159 c
81 -159 70 -115 70 -70 c
70 -46 82 -30 106 -30 c
149 -30 153 -79 156 -122 c
h
-8 75 m
42 -190 l
90 -190 l
90 -180 87 -166 87 -160 c
109 -210 214 -205 208 -131 c
202 -58 187 4 116 4 c
87 4 70 -10 61 -31 c
41 75 l
-8 75 l
f
Q
Q
Q
Q
q
[1 0 0 1 538 0] cm
q
[1 0 0 1 0 792] cm
[1 0 0 1 0 0] cm
q
q
/DeviceRGB {} cs
[0.133 0.133 0.133] sc
69 3 m
-27 3 35 -123 41 -190 c
90 -190 l
65 -57 l
71 -15 127 -39 136 -63 c
150 -101 153 -149 164 -190 c
214 -190 l
178 0 l
131 0 l
131 -11 135 -26 134 -33 c
120 -13 104 4 69 3 c
f
Q
Q
Q
Q
q
[1 0 0 1 757 0] cm
q
[1 0 0 1 0 792] cm
[1 0 0 1 0 0] cm
q
q
/DeviceRGB {} cs
[0.133 0.133 0.133] sc
72 -63 m
64 -40 77 -24 104 -33 c
98 -1 l
54 14 12 -6 23 -64 c
41 -157 l
15 -157 l
22 -190 l
50 -190 l
74 -235 l
105 -235 l
97 -190 l
132 -190 l
126 -157 l
90 -157 l
f
Q
Q
Q
Q
q
[1 0 0 1 876 0] cm
q
[1 0 0 1 0 792] cm
[1 0 0 1 0 0] cm
q
q
/DeviceRGB {} cs
[0.133 0.133 0.133] sc
69 -54 m
61 -12 54 32 29 56 c
-4 56 l
11 41 25 23 31 0 c
8 0 l
18 -54 l
69 -54 l
f
Q
Q
Q
Q
q
[1 0 0 1 976 0] cm
q
[1 0 0 1 0 792] cm
[1 0 0 1 0 0] cm
q
q
/DeviceRGB {} cs
[0.133 0.133 0.133] sc
Q
Q
Q
Q
Q
Q
q
q
[1 0 0 1 120 248] cm
[0.0555 0 0 0.0555 0 0] cm
[1 0 0 1 0 -792] cm
q
[1 0 0 1 0 0] cm
q
[1 0 0 1 0 792] cm
[1 0 0 1 0 0] cm
q
q
/DeviceRGB {} cs
[0.133 0.133 0.133] sc
Q
Q
Q
Q
q
[1 0 0 1 100 0] cm
q
[1 0 0 1 0 792] cm
[1 0 0 1 0 0] cm
q
q
/DeviceRGB {} cs
[0.133 0.133 0.133] sc
Q
Q
Q
Q
q
[1 0 0 1 200 0] cm
q
[1 0 0 1 0 792] cm
[1 0 0 1 0 0] cm
q
q
/DeviceRGB {} cs
[0.133 0.133 0.133] sc
Q
Q
Q
Q
q
[1 0 0 1 300 0] cm
q
[1 0 0 1 0 792] cm
[1 0 0 1 0 0] cm
q
q
/DeviceRGB {} cs
[0.133 0.133 0.133] sc
Q
Q
Q
Q
q
[1 0 0 1 400 0] cm
q
[1 0 0 1 0 792] cm
[1 0 0 1 0 0] cm
q
q
/DeviceRGB {} cs
[0.133 0.133 0.133] sc
Q
Q
Q
Q
q
[1 0 0 1 500 0] cm
q
[1 0 0 1 0 792] cm
[1 0 0 1 0 0] cm
q
q
/DeviceRGB {} cs
[0.133 0.133 0.133] sc
Q
Q
Q
Q
q
[1 0 0 1 600 0] cm
q
[1 0 0 1 0 792] cm
[1 0 0 1 0 0] cm
q
q
/DeviceRGB {} cs
[0.133 0.133 0.133] sc
Q
Q
Q
Q
q
[1 0 0 1 700 0] cm
q
[1 0 0 1 0 792] cm
[1 0 0 1 0 0] cm
q
q
/DeviceRGB {} cs
[0.133 0.133 0.133] sc
Q
Q
Q
Q
q
[1 0 0 1 800 0] cm
q
[1 0 0 1 0 792] cm
[1 0 0 1 0 0] cm
q
q
/DeviceRGB {} cs
[0.133 0.133 0.133] sc
Q
Q
Q
Q
q
[1 0 0 1 900 0] cm
q
[1 0 0 1 0 792] cm
[1 0 0 1 0 0] cm
q
q
/DeviceRGB {} cs
[0.133 0.133 0.133] sc
Q
Q
Q
Q
q
[1 0 0 1 1000 0] cm
q
[1 0 0 1 0 792] cm
[1 0 0 1 0 0] cm
q
q
/DeviceRGB {} cs
[0.133 0.133 0.133] sc
Q
Q
Q
Q
q
[1 0 0 1 1100 0] cm
q
[1 0 0 1 0 792] cm
[1 0 0 1 0 0] cm
q
q
/DeviceRGB {} cs
[0.133 0.133 0.133] sc
Q
Q
Q
Q
q
[1 0 0 1 1200 0] cm
q
[1 0 0 1 0 792] cm
[1 0 0 1 0 0] cm
q
q
/DeviceRGB {} cs
[0.133 0.133 0.133] sc
Q
Q
Q
Q
q
[1 0 0 1 1300 0] cm
q
[1 0 0 1 0 792] cm
[1 0 0 1 0 0] cm
q
q
/DeviceRGB {} cs
[0.133 0.133 0.133] sc
Q
Q
Q
Q
q
[1 0 0 1 1400 0] cm
q
[1 0 0 1 0 792] cm
[1 0 0 1 0 0] cm
q
q
/DeviceRGB {} cs
[0.133 0.133 0.133] sc
Q
Q
Q
Q
q
[1 0 0 1 1500 0] cm
q
[1 0 0 1 0 792] cm
[1 0 0 1 0 0] cm
q
q
/DeviceRGB {} cs
[0.133 0.133 0.133] sc
Q
Q
Q
Q
q
[1 0 0 1 1600 0] cm
q
[1 0 0 1 0 792] cm
[1 0 0 1 0 0] cm
q
q
/DeviceRGB {} cs
[0.133 0.133 0.133] sc
Q
Q
Q
Q
q
[1 0 0 1 1700 0] cm
q
[1 0 0 1 0 792] cm
[1 0 0 1 0 0] cm
q
q
/DeviceRGB {} cs
[0.133 0.133 0.133] sc
Q
Q
Q
Q
q
[1 0 0 1 1800 0] cm
q
[1 0 0 1 0 792] cm
[1 0 0 1 0 0] cm
q
q
/DeviceRGB {} cs
[0.133 0.133 0.133] sc
Q
Q
Q
Q
q
[1 0 0 1 1900 0] cm
q
[1 0 0 1 0 792] cm
[1 0 0 1 0 0] cm
q
q
/DeviceRGB {} cs
[0.133 0.133 0.133] sc
Q
Q
Q
Q
q
[1 0 0 1 2000 0] cm
q
[1 0 0 1 0 792] cm
[1 0 0 1 0 0] cm
q
q
/DeviceRGB {} cs
[0.133 0.133 0.133] sc
Q
Q
Q
Q
q
[1 0 0 1 2100 0] cm
q
[1 0 0 1 0 792] cm
[1 0 0 1 0 0] cm
q
q
/DeviceRGB {} cs
[0.133 0.133 0.133] sc
Q
Q
Q
Q
q
[1 0 0 1 2200 0] cm
q
[1 0 0 1 0 792] cm
[1 0 0 1 0 0] cm
q
q
/DeviceRGB {} cs
[0.133 0.133 0.133] sc
Q
Q
Q
Q
q
[1 0 0 1 2300 0] cm
q
[1 0 0 1 0 792] cm
[1 0 0 1 0 0] cm
q
q
/DeviceRGB {} cs
[0.133 0.133 0.133] sc
Q
Q
Q
Q
q
[1 0 0 1 2400 0] cm
q
[1 0 0 1 0 792] cm
[1 0 0 1 0 0] cm
q
q
/DeviceRGB {} cs
[0.133 0.133 0.133] sc
Q
Q
Q
Q
q
[1 0 0 1 2500 0] cm
q
[1 0 0 1 0 792] cm
[1 0 0 1 0 0] cm
q
q
/DeviceRGB {} cs
[0.133 0.133 0.133] sc
Q
Q
Q
Q
q
[1 0 0 1 2600 0] cm
q
[1 0 0 1 0 792] cm
[1 0 0 1 0 0] cm
q
q
/DeviceRGB {} cs
[0.133 0.133 0.133] sc
Q
Q
Q
Q
q
[1 0 0 1 2700 0] cm
q
[1 0 0 1 0 792] cm
[1 0 0 1 0 0] cm
q
q
/DeviceRGB {} cs
[0.133 0.133 0.133] sc
Q
Q
Q
Q
Q
Q
q
q
[1 0 0 1 275.5 248] cm
[0.0555 0 0 0.0555 0 0] cm
[1 0 0 1 0 -792] cm
q
[1 0 0 1 0 0] cm
q
[1 0 0 1 0 792] cm
[1 0 0 1 0 0] cm
q
q
/DeviceRGB {} cs
[0.133 0.133 0.133] sc
67 -101 m
59 -72 60 -28 94 -30 c
117 -32 126 -46 133 -67 c
181 -58 l
170 -19 141 4 91 4 c
36 4 7 -28 12 -86 c
18 -161 73 -210 152 -189 c
178 -182 192 -160 195 -130 c
145 -126 l
144 -146 136 -160 116 -160 c
81 -160 75 -131 67 -101 c
f
Q
Q
Q
Q
q
[1 0 0 1 200 0] cm
q
[1 0 0 1 0 792] cm
[1 0 0 1 0 0] cm
q
q
/DeviceRGB {} cs
[0.133 0.133 0.133] sc
124 -194 m
175 -194 208 -172 208 -120 c
207 -44 167 4 94 4 c
43 4 11 -23 11 -74 c
11 -148 52 -194 124 -194 c
h
99 -30 m
145 -30 157 -72 157 -116 c
157 -143 146 -160 120 -160 c
76 -160 65 -120 63 -76 c
62 -49 73 -31 99 -30 c
f
Q
Q
Q
Q
q
[1 0 0 1 419 0] cm
q
[1 0 0 1 0 792] cm
[1 0 0 1 0 0] cm
q
q
/DeviceRGB {} cs
[0.133 0.133 0.133] sc
151 -194 m
246 -194 185 -66 179 0 c
130 0 l
155 -134 l
155 -163 110 -159 96 -143 c
67 -111 69 -48 56 0 c
6 0 l
42 -190 l
89 -190 l
85 -158 l
100 -178 118 -194 151 -194 c
f
Q
Q
Q
Q
q
[1 0 0 1 638 0] cm
q
[1 0 0 1 0 792] cm
[1 0 0 1 0 0] cm
q
q
/DeviceRGB {} cs
[0.133 0.133 0.133] sc
144 -137 m
143 -166 74 -172 73 -139 c
89 -98 176 -129 176 -59 c
176 9 79 16 32 -9 c
18 -17 9 -31 4 -48 c
48 -54 l
51 -22 128 -18 130 -53 c
115 -95 27 -64 27 -135 c
27 -212 184 -214 188 -143 c
f
Q
Q
Q
Q
q
[1 0 0 1 838 0] cm
q
[1 0 0 1 0 792] cm
[1 0 0 1 0 0] cm
q
q
/DeviceRGB {} cs
[0.133 0.133 0.133] sc
72 -63 m
64 -40 77 -24 104 -33 c
98 -1 l
54 14 12 -6 23 -64 c
41 -157 l
15 -157 l
22 -190 l
50 -190 l
74 -235 l
105 -235 l
97 -190 l
132 -190 l
126 -157 l
90 -157 l
f
Q
Q
Q
Q
q
[1 0 0 1 957 0] cm
q
[1 0 0 1 0 792] cm
[1 0 0 1 0 0] cm
q
q
/DeviceRGB {} cs
[0.133 0.133 0.133] sc
Q
Q
Q
Q
Q
Q
q
q
[1 0 0 1 334.2 248] cm
[0.0555 0 0 0.0555 0 0] cm
[1 0 0 1 0 -792] cm
q
[1 0 0 1 0 0] cm
q
[1 0 0 1 0 792] cm
[1 0 0 1 0 0] cm
q
q
/DeviceRGB {} cs
[0.133 0.133 0.133] sc
Q
Q
Q
Q
q
[1 0 0 1 100 0] cm
q
[1 0 0 1 0 792] cm
[1 0 0 1 0 0] cm
q
q
/DeviceRGB {} cs
[0.133 0.133 0.133] sc
69 3 m
-27 3 35 -123 41 -190 c
90 -190 l
65 -57 l
71 -15 127 -39 136 -63 c
150 -101 153 -149 164 -190 c
214 -190 l
178 0 l
131 0 l
131 -11 135 -26 134 -33 c
120 -13 104 4 69 3 c
f
Q
Q
Q
Q
q
[1 0 0 1 319 0] cm
q
[1 0 0 1 0 792] cm
[1 0 0 1 0 0] cm
q
q
/DeviceRGB {} cs
[0.133 0.133 0.133] sc
151 -194 m
246 -194 185 -66 179 0 c
130 0 l
155 -134 l
155 -163 110 -159 96 -143 c
67 -111 69 -48 56 0 c
6 0 l
42 -190 l
89 -190 l
85 -158 l
100 -178 118 -194 151 -194 c
f
Q
Q
Q
Q
q
[1 0 0 1 538 0] cm
q
[1 0 0 1 0 792] cm
[1 0 0 1 0 0] cm
q
q
/DeviceRGB {} cs
[0.133 0.133 0.133] sc
144 -137 m
143 -166 74 -172 73 -139 c
89 -98 176 -129 176 -59 c
176 9 79 16 32 -9 c
18 -17 9 -31 4 -48 c
48 -54 l
51 -22 128 -18 130 -53 c
115 -95 27 -64 27 -135 c
27 -212 184 -214 188 -143 c
f
Q
Q
Q
Q
q
[1 0 0 1 738 0] cm
q
[1 0 0 1 0 792] cm
[1 0 0 1 0 0] cm
q
q
/DeviceRGB {} cs
[0.133 0.133 0.133] sc
50 -224 m
57 -261 l
106 -261 l
99 -224 l
50 -224 l
h
6 0 m
43 -190 l
92 -190 l
55 0 l
6 0 l
f
Q
Q
Q
Q
q
[1 0 0 1 838 0] cm
q
[1 0 0 1 0 792] cm
[1 0 0 1 0 0] cm
q
q
/DeviceRGB {} cs
[0.133 0.133 0.133] sc
45 -171 m
74 -203 148 -200 159 -157 c
161 -168 164 -180 167 -190 c
214 -190 l
176 -2 l
173 68 84 94 21 62 c
9 56 1 42 -1 25 c
49 20 l
51 48 97 47 112 31 c
125 18 132 -14 133 -35 c
120 -15 103 0 71 1 c
-16 4 11 -133 45 -171 c
h
94 -35 m
135 -38 149 -78 149 -121 c
149 -145 137 -160 114 -160 c
71 -160 63 -112 63 -70 c
63 -48 72 -33 94 -35 c
f
Q
Q
Q
Q
q
[1 0 0 1 1057 0] cm
q
[1 0 0 1 0 792] cm
[1 0 0 1 0 0] cm
q
q
/DeviceRGB {} cs
[0.133 0.133 0.133] sc
151 -194 m
246 -194 185 -66 179 0 c
130 0 l
155 -134 l
155 -163 110 -159 96 -143 c
67 -111 69 -48 56 0 c
6 0 l
42 -190 l
89 -190 l
85 -158 l
100 -178 118 -194 151 -194 c
f
Q
Q
Q
Q
q
[1 0 0 1 1276 0] cm
q
[1 0 0 1 0 792] cm
[1 0 0 1 0 0] cm
q
q
/DeviceRGB {} cs
[0.133 0.133 0.133] sc
114 -194 m
177 -196 201 -146 186 -84 c
63 -84 l
60 -56 64 -29 94 -30 c
115 -31 126 -43 131 -59 c
175 -46 l
160 -14 137 4 91 4 c
41 4 11 -22 11 -73 c
11 -144 44 -192 114 -194 c
h
144 -117 m
158 -164 94 -178 77 -139 c
74 -133 71 -126 69 -117 c
144 -117 l
f
Q
Q
Q
Q
q
[1 0 0 1 1476 0] cm
q
[1 0 0 1 0 792] cm
[1 0 0 1 0 0] cm
q
q
/DeviceRGB {} cs
[0.133 0.133 0.133] sc
132 -28 m
118 -9 101 4 69 4 c
30 4 10 -23 10 -62 c
10 -132 34 -191 102 -194 c
133 -195 149 -180 158 -159 c
177 -261 l
226 -261 l
179 0 l
130 0 l
132 -28 l
h
62 -69 m
62 -47 69 -30 91 -30 c
136 -32 145 -75 148 -120 c
150 -147 138 -160 115 -160 c
71 -160 62 -112 62 -69 c
f
Q
Q
Q
Q
q
[1 0 0 1 1695 0] cm
q
[1 0 0 1 0 792] cm
[1 0 0 1 0 0] cm
q
q
/DeviceRGB {} cs
[0.133 0.133 0.133] sc
Q
Q
Q
Q
Q
Q
q
q
[1 0 0 1 434 248] cm
[0.0555 0 0 0.0555 0 0] cm
[1 0 0 1 0 -792] cm
q
[1 0 0 1 0 0] cm
q
[1 0 0 1 0 792] cm
[1 0 0 1 0 0] cm
q
q
/DeviceRGB {} cs
[0.133 0.133 0.133] sc
50 -224 m
57 -261 l
106 -261 l
99 -224 l
50 -224 l
h
6 0 m
43 -190 l
92 -190 l
55 0 l
6 0 l
f
Q
Q
Q
Q
q
[1 0 0 1 100 0] cm
q
[1 0 0 1 0 792] cm
[1 0 0 1 0 0] cm
q
q
/DeviceRGB {} cs
[0.133 0.133 0.133] sc
151 -194 m
246 -194 185 -66 179 0 c
130 0 l
155 -134 l
155 -163 110 -159 96 -143 c
67 -111 69 -48 56 0 c
6 0 l
42 -190 l
89 -190 l
85 -158 l
100 -178 118 -194 151 -194 c
f
Q
Q
Q
Q
q
[1 0 0 1 319 0] cm
q
[1 0 0 1 0 792] cm
[1 0 0 1 0 0] cm
q
q
/DeviceRGB {} cs
[0.133 0.133 0.133] sc
72 -63 m
64 -40 77 -24 104 -33 c
98 -1 l
54 14 12 -6 23 -64 c
41 -157 l
15 -157 l
22 -190 l
50 -190 l
74 -235 l
105 -235 l
97 -190 l
132 -190 l
126 -157 l
90 -157 l
f
Q
Q
Q
Q
q
[1 0 0 1 438 0] cm
q
[1 0 0 1 0 792] cm
[1 0 0 1 0 0] cm
q
q
/DeviceRGB {} cs
[0.133 0.133 0.133] sc
Q
Q
Q
Q
Q
Q
q
q
[1 0 0 1 463.8 248] cm
[0.0555 0 0 0.0555 0 0] cm
[1 0 0 1 0 -792] cm
q
[1 0 0 1 0 0] cm
q
[1 0 0 1 0 792] cm
[1 0 0 1 0 0] cm
q
q
/DeviceRGB {} cs
[0.133 0.133 0.133] sc
255 -194 m
345 -194 284 -65 279 0 c
230 0 l
255 -136 l
248 -175 202 -150 195 -127 c
183 -89 177 -42 167 0 c
118 0 l
143 -136 l
145 -165 104 -159 93 -143 c
69 -108 68 -47 56 0 c
6 0 l
42 -190 l
90 -190 l
89 -180 84 -166 86 -158 c
98 -178 113 -194 143 -194 c
173 -194 189 -179 193 -153 c
207 -174 222 -194 255 -194 c
f
Q
Q
Q
Q
q
[1 0 0 1 320 0] cm
q
[1 0 0 1 0 792] cm
[1 0 0 1 0 0] cm
q
q
/DeviceRGB {} cs
[0.133 0.133 0.133] sc
69 3 m
-27 3 35 -123 41 -190 c
90 -190 l
65 -57 l
71 -15 127 -39 136 -63 c
150 -101 153 -149 164 -190 c
214 -190 l
178 0 l
131 0 l
131 -11 135 -26 134 -33 c
120 -13 104 4 69 3 c
f
Q
Q
Q
Q
q
[1 0 0 1 539 0] cm
q
[1 0 0 1 0 792] cm
[1 0 0 1 0 0] cm
q
q
/DeviceRGB {} cs
[0.133 0.133 0.133] sc
6 0 m
57 -261 l
106 -261 l
55 0 l
6 0 l
f
Q
Q
Q
Q
q
[1 0 0 1 639 0] cm
q
[1 0 0 1 0 792] cm
[1 0 0 1 0 0] cm
q
q
/DeviceRGB {} cs
[0.133 0.133 0.133] sc
72 -63 m
64 -40 77 -24 104 -33 c
98 -1 l
54 14 12 -6 23 -64 c
41 -157 l
15 -157 l
22 -190 l
50 -190 l
74 -235 l
105 -235 l
97 -190 l
132 -190 l
126 -157 l
90 -157 l
f
Q
Q
Q
Q
q
[1 0 0 1 758 0] cm
q
[1 0 0 1 0 792] cm
[1 0 0 1 0 0] cm
q
q
/DeviceRGB {} cs
[0.133 0.133 0.133] sc
50 -224 m
57 -261 l
106 -261 l
99 -224 l
50 -224 l
h
6 0 m
43 -190 l
92 -190 l
55 0 l
6 0 l
f
Q
Q
Q
Q
q
[1 0 0 1 858 0] cm
q
[1 0 0 1 0 792] cm
[1 0 0 1 0 0] cm
q
q
/DeviceRGB {} cs
[0.133 0.133 0.133] sc
156 -122 m
158 -145 149 -159 128 -159 c
81 -159 70 -115 70 -70 c
70 -46 82 -30 106 -30 c
149 -30 153 -79 156 -122 c
h
-8 75 m
42 -190 l
90 -190 l
90 -180 87 -166 87 -160 c
109 -210 214 -205 208 -131 c
202 -58 187 4 116 4 c
87 4 70 -10 61 -31 c
41 75 l
-8 75 l
f
Q
Q
Q
Q
q
[1 0 0 1 1077 0] cm
q
[1 0 0 1 0 792] cm
[1 0 0 1 0 0] cm
q
q
/DeviceRGB {} cs
[0.133 0.133 0.133] sc
6 0 m
57 -261 l
106 -261 l
55 0 l
6 0 l
f
Q
Q
Q
Q
q
[1 0 0 1 1177 0] cm
q
[1 0 0 1 0 792] cm
[1 0 0 1 0 0] cm
q
q
/DeviceRGB {} cs
[0.133 0.133 0.133] sc
50 -224 m
57 -261 l
106 -261 l
99 -224 l
50 -224 l
h
6 0 m
43 -190 l
92 -190 l
55 0 l
6 0 l
f
Q
Q
Q
Q
q
[1 0 0 1 1277 0] cm
q
[1 0 0 1 0 792] cm
[1 0 0 1 0 0] cm
q
q
/DeviceRGB {} cs
[0.133 0.133 0.133] sc
114 -194 m
177 -196 201 -146 186 -84 c
63 -84 l
60 -56 64 -29 94 -30 c
115 -31 126 -43 131 -59 c
175 -46 l
160 -14 137 4 91 4 c
41 4 11 -22 11 -73 c
11 -144 44 -192 114 -194 c
h
144 -117 m
158 -164 94 -178 77 -139 c
74 -133 71 -126 69 -117 c
144 -117 l
f
Q
Q
Q
Q
q
[1 0 0 1 1477 0] cm
q
[1 0 0 1 0 792] cm
[1 0 0 1 0 0] cm
q
q
/DeviceRGB {} cs
[0.133 0.133 0.133] sc
84 -151 m
97 -176 118 -202 156 -191 c
148 -150 l
67 -170 71 -64 56 0 c
6 0 l
42 -190 l
89 -190 l
f
Q
Q
Q
Q
q
[1 0 0 1 1617 0] cm
q
[1 0 0 1 0 792] cm
[1 0 0 1 0 0] cm
q
q
/DeviceRGB {} cs
[0.133 0.133 0.133] sc
109 -139 m
109 -39 71 27 18 75 c
-32 75 l
22 21 61 -44 61 -142 c
61 -188 50 -229 34 -261 c
81 -261 l
98 -230 109 -186 109 -139 c
f
Q
Q
Q
Q
Q
Q
q
q
[1 0 0 1 120 272] cm
[0.0555 0 0 0.0555 0 0] cm
[1 0 0 1 0 -792] cm
q
[1 0 0 1 0 0] cm
q
[1 0 0 1 0 792] cm
[1 0 0 1 0 0] cm
q
q
/DeviceRGB {} cs
[0.133 0.133 0.133] sc
73 9 m
67 34 79 45 107 41 c
100 75 l
52 79 14 68 25 18 c
32 -15 56 -79 3 -76 c
10 -110 l
100 -109 26 -261 131 -261 c
166 -261 l
159 -227 l
77 -236 138 -111 57 -93 c
99 -85 82 -28 73 9 c
f
Q
Q
Q
Q
q
[1 0 0 1 140 0] cm
q
[1 0 0 1 0 792] cm
[1 0 0 1 0 0] cm
q
q
/DeviceRGB {} cs
[0.133 0.133 0.133] sc
Q
Q
Q
Q
q
[1 0 0 1 240 0] cm
q
[1 0 0 1 0 792] cm
[1 0 0 1 0 0] cm
q
q
/DeviceRGB {} cs
[0.133 0.133 0.133] sc
Q
Q
Q
Q
Q
Q
q
q
[1 0 0 1 138.8 272] cm
[0.0555 0 0 0.0555 0 0] cm
[1 0 0 1 0 -792] cm
q
[1 0 0 1 0 0] cm
q
[1 0 0 1 0 792] cm
[1 0 0 1 0 0] cm
q
q
/DeviceRGB {} cs
[0.133 0.133 0.133] sc
Q
Q
Q
Q
q
[1 0 0 1 100 0] cm
q
[1 0 0 1 0 792] cm
[1 0 0 1 0 0] cm
q
q
/DeviceRGB {} cs
[0.133 0.133 0.133] sc
Q
Q
Q
Q
Q
Q
q
q
[1 0 0 1 156 296] cm
[0.0555 0 0 0.0555 0 0] cm
[1 0 0 1 0 -792] cm
q
[1 0 0 1 0 0] cm
q
[1 0 0 1 0 792] cm
[1 0 0 1 0 0] cm
q
q
/DeviceRGB {} cs
[0.133 0.133 0.133] sc
50 -224 m
57 -261 l
106 -261 l
99 -224 l
50 -224 l
h
6 0 m
43 -190 l
92 -190 l
55 0 l
6 0 l
f
Q
Q
Q
Q
q
[1 0 0 1 100 0] cm
q
[1 0 0 1 0 792] cm
[1 0 0 1 0 0] cm
q
q
/DeviceRGB {} cs
[0.133 0.133 0.133] sc
151 -194 m
246 -194 185 -66 179 0 c
130 0 l
155 -134 l
155 -163 110 -159 96 -143 c
67 -111 69 -48 56 0 c
6 0 l
42 -190 l
89 -190 l
85 -158 l
100 -178 118 -194 151 -194 c
f
Q
Q
Q
Q
q
[1 0 0 1 319 0] cm
q
[1 0 0 1 0 792] cm
[1 0 0 1 0 0] cm
q
q
/DeviceRGB {} cs
[0.133 0.133 0.133] sc
72 -63 m
64 -40 77 -24 104 -33 c
98 -1 l
54 14 12 -6 23 -64 c
41 -157 l
15 -157 l
22 -190 l
50 -190 l
74 -235 l
105 -235 l
97 -190 l
132 -190 l
126 -157 l
90 -157 l
f
Q
Q
Q
Q
q
[1 0 0 1 438 0] cm
q
[1 0 0 1 0 792] cm
[1 0 0 1 0 0] cm
q
q
/DeviceRGB {} cs
[0.133 0.133 0.133] sc
Q
Q
Q
Q
Q
Q
q
q
[1 0 0 1 185.8 296] cm
[0.0555 0 0 0.0555 0 0] cm
[1 0 0 1 0 -792] cm
q
[1 0 0 1 0 0] cm
q
[1 0 0 1 0 792] cm
[1 0 0 1 0 0] cm
q
q
/DeviceRGB {} cs
[0.133 0.133 0.133] sc
50 -224 m
57 -261 l
106 -261 l
99 -224 l
50 -224 l
h
6 0 m
43 -190 l
92 -190 l
55 0 l
6 0 l
f
Q
Q
Q
Q
q
[1 0 0 1 100 0] cm
q
[1 0 0 1 0 792] cm
[1 0 0 1 0 0] cm
q
q
/DeviceRGB {} cs
[0.133 0.133 0.133] sc
72 -63 m
64 -40 77 -24 104 -33 c
98 -1 l
54 14 12 -6 23 -64 c
41 -157 l
15 -157 l
22 -190 l
50 -190 l
74 -235 l
105 -235 l
97 -190 l
132 -190 l
126 -157 l
90 -157 l
f
Q
Q
Q
Q
q
[1 0 0 1 219 0] cm
q
[1 0 0 1 0 792] cm
[1 0 0 1 0 0] cm
q
q
/DeviceRGB {} cs
[0.133 0.133 0.133] sc
114 -194 m
177 -196 201 -146 186 -84 c
63 -84 l
60 -56 64 -29 94 -30 c
115 -31 126 -43 131 -59 c
175 -46 l
160 -14 137 4 91 4 c
41 4 11 -22 11 -73 c
11 -144 44 -192 114 -194 c
h
144 -117 m
158 -164 94 -178 77 -139 c
74 -133 71 -126 69 -117 c
144 -117 l
f
Q
Q
Q
Q
q
[1 0 0 1 419 0] cm
q
[1 0 0 1 0 792] cm
[1 0 0 1 0 0] cm
q
q
/DeviceRGB {} cs
[0.133 0.133 0.133] sc
84 -151 m
97 -176 118 -202 156 -191 c
148 -150 l
67 -170 71 -64 56 0 c
6 0 l
42 -190 l
89 -190 l
f
Q
Q
Q
Q
q
[1 0 0 1 559 0] cm
q
[1 0 0 1 0 792] cm
[1 0 0 1 0 0] cm
q
q
/DeviceRGB {} cs
[0.133 0.133 0.133] sc
166 -52 m
162 -35 171 -23 190 -29 c
187 -2 l
157 9 113 -1 120 -36 c
105 -15 91 4 56 4 c
23 4 3 -15 2 -49 c
2 -113 65 -116 130 -116 c
140 -138 133 -169 101 -161 c
88 -158 79 -151 76 -137 c
30 -142 l
35 -206 186 -219 183 -142 c
182 -109 172 -82 166 -52 c
h
97 -88 m
53 -97 33 -31 78 -31 c
109 -31 120 -59 125 -88 c
97 -88 l
f
Q
Q
Q
Q
q
[1 0 0 1 759 0] cm
q
[1 0 0 1 0 792] cm
[1 0 0 1 0 0] cm
q
q
/DeviceRGB {} cs
[0.133 0.133 0.133] sc
72 -63 m
64 -40 77 -24 104 -33 c
98 -1 l
54 14 12 -6 23 -64 c
41 -157 l
15 -157 l
22 -190 l
50 -190 l
74 -235 l
105 -235 l
97 -190 l
132 -190 l
126 -157 l
90 -157 l
f
Q
Q
Q
Q
q
[1 0 0 1 878 0] cm
q
[1 0 0 1 0 792] cm
[1 0 0 1 0 0] cm
q
q
/DeviceRGB {} cs
[0.133 0.133 0.133] sc
50 -224 m
57 -261 l
106 -261 l
99 -224 l
50 -224 l
h
6 0 m
43 -190 l
92 -190 l
55 0 l
6 0 l
f
Q
Q
Q
Q
q
[1 0 0 1 978 0] cm
q
[1 0 0 1 0 792] cm
[1 0 0 1 0 0] cm
q
q
/DeviceRGB {} cs
[0.133 0.133 0.133] sc
124 -194 m
175 -194 208 -172 208 -120 c
207 -44 167 4 94 4 c
43 4 11 -23 11 -74 c
11 -148 52 -194 124 -194 c
h
99 -30 m
145 -30 157 -72 157 -116 c
157 -143 146 -160 120 -160 c
76 -160 65 -120 63 -76 c
62 -49 73 -31 99 -30 c
f
Q
Q
Q
Q
q
[1 0 0 1 1197 0] cm
q
[1 0 0 1 0 792] cm
[1 0 0 1 0 0] cm
q
q
/DeviceRGB {} cs
[0.133 0.133 0.133] sc
151 -194 m
246 -194 185 -66 179 0 c
130 0 l
155 -134 l
155 -163 110 -159 96 -143 c
67 -111 69 -48 56 0 c
6 0 l
42 -190 l
89 -190 l
85 -158 l
100 -178 118 -194 151 -194 c
f
Q
Q
Q
Q
q
[1 0 0 1 1416 0] cm
q
[1 0 0 1 0 792] cm
[1 0 0 1 0 0] cm
q
q
/DeviceRGB {} cs
[0.133 0.133 0.133] sc
Q
Q
Q
Q
Q
Q
q
q
[1 0 0 1 270.1 296] cm
[0.0555 0 0 0.0555 0 0] cm
[1 0 0 1 0 -792] cm
q
[1 0 0 1 0 0] cm
q
[1 0 0 1 0 792] cm
[1 0 0 1 0 0] cm
q
q
/DeviceRGB {} cs
[0.133 0.133 0.133] sc
22 -148 m
22 -187 l
202 -187 l
202 -148 l
22 -148 l
h
22 -51 m
22 -90 l
202 -90 l
202 -51 l
22 -51 l
f
Q
Q
Q
Q
q
[1 0 0 1 210 0] cm
q
[1 0 0 1 0 792] cm
[1 0 0 1 0 0] cm
q
q
/DeviceRGB {} cs
[0.133 0.133 0.133] sc
Q
Q
Q
Q
Q
Q
q
q
[1 0 0 1 287.3 296] cm
[0.0555 0 0 0.0555 0 0] cm
[1 0 0 1 0 -792] cm
q
[1 0 0 1 0 0] cm
q
[1 0 0 1 0 792] cm
[1 0 0 1 0 0] cm
q
q
/DeviceRGB {} cs
[0.133 0.133 0.133] sc
6 0 m
13 -41 l
75 -41 l
106 -202 l
39 -165 l
47 -207 l
117 -248 l
165 -248 l
124 -41 l
181 -41 l
173 0 l
6 0 l
f
Q
Q
Q
Q
q
[1 0 0 1 200 0] cm
q
[1 0 0 1 0 792] cm
[1 0 0 1 0 0] cm
q
q
/DeviceRGB {} cs
[0.133 0.133 0.133] sc
189 -94 m
184 -35 153 4 94 4 c
41 4 16 -31 17 -86 c
18 -181 55 -263 155 -249 c
182 -245 199 -224 202 -194 c
155 -187 l
151 -221 110 -217 93 -192 c
84 -178 76 -158 71 -131 c
97 -176 196 -166 189 -94 c
h
108 -123 m
59 -129 47 -35 98 -35 c
144 -30 158 -123 108 -123 c
f
Q
Q
Q
Q
q
[1 0 0 1 400 0] cm
q
[1 0 0 1 0 792] cm
[1 0 0 1 0 0] cm
q
q
/DeviceRGB {} cs
[0.133 0.133 0.133] sc
15 -80 m
15 -166 39 -251 127 -251 c
177 -251 197 -220 197 -169 c
197 -84 171 4 84 4 c
34 4 15 -29 15 -80 c
h
149 -172 m
155 -214 105 -227 89 -195 c
72 -160 55 -94 68 -46 c
72 -40 77 -34 87 -35 c
143 -41 140 -117 149 -172 c
f
Q
Q
Q
Q
q
[1 0 0 1 600 0] cm
q
[1 0 0 1 0 792] cm
[1 0 0 1 0 0] cm
q
q
/DeviceRGB {} cs
[0.133 0.133 0.133] sc
41 -132 m
51 -182 l
102 -182 l
92 -132 l
41 -132 l
h
76 -49 m
67 -10 62 34 36 56 c
4 56 l
19 41 33 24 38 0 c
16 0 l
25 -49 l
76 -49 l
f
Q
Q
Q
Q
q
[1 0 0 1 719 0] cm
q
[1 0 0 1 0 792] cm
[1 0 0 1 0 0] cm
q
q
/DeviceRGB {} cs
[0.133 0.133 0.133] sc
Q
Q
Q
Q
q
[1 0 0 1 819 0] cm
q
[1 0 0 1 0 792] cm
[1 0 0 1 0 0] cm
q
q
/DeviceRGB {} cs
[0.133 0.133 0.133] sc
Q
Q
Q
Q
Q
Q
q
q
[1 0 0 1 338.3 296] cm
[0.0555 0 0 0.0555 0 0] cm
[1 0 0 1 0 -792] cm
q
[1 0 0 1 0 0] cm
q
[1 0 0 1 0 792] cm
[1 0 0 1 0 0] cm
q
q
/DeviceRGB {} cs
[0.133 0.133 0.133] sc
Q
Q
Q
Q
q
[1 0 0 1 100 0] cm
q
[1 0 0 1 0 792] cm
[1 0 0 1 0 0] cm
q
q
/DeviceRGB {} cs
[0.133 0.133 0.133] sc
Q
Q
Q
Q
Q
Q
q
q
[1 0 0 1 120 320] cm
[0.0555 0 0 0.0555 0 0] cm
[1 0 0 1 0 -792] cm
q
[1 0 0 1 0 0] cm
q
[1 0 0 1 0 792] cm
[1 0 0 1 0 0] cm
q
q
/DeviceRGB {} cs
[0.133 0.133 0.133] sc
Q
Q
Q
Q
q
[1 0 0 1 100 0] cm
q
[1 0 0 1 0 792] cm
[1 0 0 1 0 0] cm
q
q
/DeviceRGB {} cs
[0.133 0.133 0.133] sc
Q
Q
Q
Q
q
[1 0 0 1 200 0] cm
q
[1 0 0 1 0 792] cm
[1 0 0 1 0 0] cm
q
q
/DeviceRGB {} cs
[0.133 0.133 0.133] sc
Q
Q
Q
Q
q
[1 0 0 1 300 0] cm
q
[1 0 0 1 0 792] cm
[1 0 0 1 0 0] cm
q
q
/DeviceRGB {} cs
[0.133 0.133 0.133] sc
Q
Q
Q
Q
q
[1 0 0 1 400 0] cm
q
[1 0 0 1 0 792] cm
[1 0 0 1 0 0] cm
q
q
/DeviceRGB {} cs
[0.133 0.133 0.133] sc
Q
Q
Q
Q
q
[1 0 0 1 500 0] cm
q
[1 0 0 1 0 792] cm
[1 0 0 1 0 0] cm
q
q
/DeviceRGB {} cs
[0.133 0.133 0.133] sc
Q
Q
Q
Q
Q
Q
q
q
[1 0 0 1 153.3 320] cm
[0.0555 0 0 0.0555 0 0] cm
[1 0 0 1 0 -792] cm
q
[1 0 0 1 0 0] cm
q
[1 0 0 1 0 792] cm
[1 0 0 1 0 0] cm
q
q
/DeviceRGB {} cs
[0.133 0.133 0.133] sc
69 3 m
-27 3 35 -123 41 -190 c
90 -190 l
65 -57 l
71 -15 127 -39 136 -63 c
150 -101 153 -149 164 -190 c
214 -190 l
178 0 l
131 0 l
131 -11 135 -26 134 -33 c
120 -13 104 4 69 3 c
f
Q
Q
Q
Q
q
[1 0 0 1 219 0] cm
q
[1 0 0 1 0 792] cm
[1 0 0 1 0 0] cm
q
q
/DeviceRGB {} cs
[0.133 0.133 0.133] sc
50 -224 m
57 -261 l
106 -261 l
99 -224 l
50 -224 l
h
6 0 m
43 -190 l
92 -190 l
55 0 l
6 0 l
f
Q
Q
Q
Q
q
[1 0 0 1 319 0] cm
q
[1 0 0 1 0 792] cm
[1 0 0 1 0 0] cm
q
q
/DeviceRGB {} cs
[0.133 0.133 0.133] sc
151 -194 m
246 -194 185 -66 179 0 c
130 0 l
155 -134 l
155 -163 110 -159 96 -143 c
67 -111 69 -48 56 0 c
6 0 l
42 -190 l
89 -190 l
85 -158 l
100 -178 118 -194 151 -194 c
f
Q
Q
Q
Q
q
[1 0 0 1 538 0] cm
q
[1 0 0 1 0 792] cm
[1 0 0 1 0 0] cm
q
q
/DeviceRGB {} cs
[0.133 0.133 0.133] sc
72 -63 m
64 -40 77 -24 104 -33 c
98 -1 l
54 14 12 -6 23 -64 c
41 -157 l
15 -157 l
22 -190 l
50 -190 l
74 -235 l
105 -235 l
97 -190 l
132 -190 l
126 -157 l
90 -157 l
f
Q
Q
Q
Q
q
[1 0 0 1 657 0] cm
q
[1 0 0 1 0 792] cm
[1 0 0 1 0 0] cm
q
q
/DeviceRGB {} cs
[0.133 0.133 0.133] sc
Q
Q
Q
Q
Q
Q
q
q
[1 0 0 1 195.3 320] cm
[0.0555 0 0 0.0555 0 0] cm
[1 0 0 1 0 -792] cm
q
[1 0 0 1 0 0] cm
q
[1 0 0 1 0 792] cm
[1 0 0 1 0 0] cm
q
q
/DeviceRGB {} cs
[0.133 0.133 0.133] sc
72 -63 m
64 -40 77 -24 104 -33 c
98 -1 l
54 14 12 -6 23 -64 c
41 -157 l
15 -157 l
22 -190 l
50 -190 l
74 -235 l
105 -235 l
97 -190 l
132 -190 l
126 -157 l
90 -157 l
f
Q
Q
Q
Q
q
[1 0 0 1 119 0] cm
q
[1 0 0 1 0 792] cm
[1 0 0 1 0 0] cm
q
q
/DeviceRGB {} cs
[0.133 0.133 0.133] sc
50 -224 m
57 -261 l
106 -261 l
99 -224 l
50 -224 l
h
6 0 m
43 -190 l
92 -190 l
55 0 l
6 0 l
f
Q
Q
Q
Q
q
[1 0 0 1 219 0] cm
q
[1 0 0 1 0 792] cm
[1 0 0 1 0 0] cm
q
q
/DeviceRGB {} cs
[0.133 0.133 0.133] sc
132 -28 m
118 -9 101 4 69 4 c
30 4 10 -23 10 -62 c
10 -132 34 -191 102 -194 c
133 -195 149 -180 158 -159 c
177 -261 l
226 -261 l
179 0 l
130 0 l
132 -28 l
h
62 -69 m
62 -47 69 -30 91 -30 c
136 -32 145 -75 148 -120 c
150 -147 138 -160 115 -160 c
71 -160 62 -112 62 -69 c
f
Q
Q
Q
Q
q
[1 0 0 1 438 0] cm
q
[1 0 0 1 0 792] cm
[1 0 0 1 0 0] cm
q
q
/DeviceRGB {} cs
[0.133 0.133 0.133] sc
Q
Q
Q
Q
Q
Q
q
q
[1 0 0 1 225.2 320] cm
[0.0555 0 0 0.0555 0 0] cm
[1 0 0 1 0 -792] cm
q
[1 0 0 1 0 0] cm
q
[1 0 0 1 0 792] cm
[1 0 0 1 0 0] cm
q
q
/DeviceRGB {} cs
[0.133 0.133 0.133] sc
22 -148 m
22 -187 l
202 -187 l
202 -148 l
22 -148 l
h
22 -51 m
22 -90 l
202 -90 l
202 -51 l
22 -51 l
f
Q
Q
Q
Q
q
[1 0 0 1 210 0] cm
q
[1 0 0 1 0 792] cm
[1 0 0 1 0 0] cm
q
q
/DeviceRGB {} cs
[0.133 0.133 0.133] sc
Q
Q
Q
Q
Q
Q
q
q
[1 0 0 1 242.5 320] cm
[0.0555 0 0 0.0555 0 0] cm
[1 0 0 1 0 -792] cm
q
[1 0 0 1 0 0] cm
q
[1 0 0 1 0 792] cm
[1 0 0 1 0 0] cm
q
q
/DeviceRGB {} cs
[0.133 0.133 0.133] sc
45 -171 m
74 -203 148 -200 159 -157 c
161 -168 164 -180 167 -190 c
214 -190 l
176 -2 l
173 68 84 94 21 62 c
9 56 1 42 -1 25 c
49 20 l
51 48 97 47 112 31 c
125 18 132 -14 133 -35 c
120 -15 103 0 71 1 c
-16 4 11 -133 45 -171 c
h
94 -35 m
135 -38 149 -78 149 -121 c
149 -145 137 -160 114 -160 c
71 -160 63 -112 63 -70 c
63 -48 72 -33 94 -35 c
f
Q
Q
Q
Q
q
[1 0 0 1 219 0] cm
q
[1 0 0 1 0 792] cm
[1 0 0 1 0 0] cm
q
q
/DeviceRGB {} cs
[0.133 0.133 0.133] sc
114 -194 m
177 -196 201 -146 186 -84 c
63 -84 l
60 -56 64 -29 94 -30 c
115 -31 126 -43 131 -59 c
175 -46 l
160 -14 137 4 91 4 c
41 4 11 -22 11 -73 c
11 -144 44 -192 114 -194 c
h
144 -117 m
158 -164 94 -178 77 -139 c
74 -133 71 -126 69 -117 c
144 -117 l
f
Q
Q
Q
Q
q
[1 0 0 1 419 0] cm
q
[1 0 0 1 0 792] cm
[1 0 0 1 0 0] cm
q
q
/DeviceRGB {} cs
[0.133 0.133 0.133] sc
72 -63 m
64 -40 77 -24 104 -33 c
98 -1 l
54 14 12 -6 23 -64 c
41 -157 l
15 -157 l
22 -190 l
50 -190 l
74 -235 l
105 -235 l
97 -190 l
132 -190 l
126 -157 l
90 -157 l
f
Q
Q
Q
Q
q
[1 0 0 1 538 0] cm
q
[1 0 0 1 0 792] cm
[1 0 0 1 0 0] cm
q
q
/DeviceRGB {} cs
[0.133 0.133 0.133] sc
-21 30 207 14 re
f
Q
Q
Q
Q
q
[1 0 0 1 738 0] cm
q
[1 0 0 1 0 792] cm
[1 0 0 1 0 0] cm
q
q
/DeviceRGB {} cs
[0.133 0.133 0.133] sc
45 -171 m
74 -203 148 -200 159 -157 c
161 -168 164 -180 167 -190 c
214 -190 l
176 -2 l
173 68 84 94 21 62 c
9 56 1 42 -1 25 c
49 20 l
51 48 97 47 112 31 c
125 18 132 -14 133 -35 c
120 -15 103 0 71 1 c
-16 4 11 -133 45 -171 c
h
94 -35 m
135 -38 149 -78 149 -121 c
149 -145 137 -160 114 -160 c
71 -160 63 -112 63 -70 c
63 -48 72 -33 94 -35 c
f
Q
Q
Q
Q
q
[1 0 0 1 957 0] cm
q
[1 0 0 1 0 792] cm
[1 0 0 1 0 0] cm
q
q
/DeviceRGB {} cs
[0.133 0.133 0.133] sc
6 0 m
57 -261 l
106 -261 l
55 0 l
6 0 l
f
Q
Q
Q
Q
q
[1 0 0 1 1057 0] cm
q
[1 0 0 1 0 792] cm
[1 0 0 1 0 0] cm
q
q
/DeviceRGB {} cs
[0.133 0.133 0.133] sc
124 -194 m
175 -194 208 -172 208 -120 c
207 -44 167 4 94 4 c
43 4 11 -23 11 -74 c
11 -148 52 -194 124 -194 c
h
99 -30 m
145 -30 157 -72 157 -116 c
157 -143 146 -160 120 -160 c
76 -160 65 -120 63 -76 c
62 -49 73 -31 99 -30 c
f
Q
Q
Q
Q
q
[1 0 0 1 1276 0] cm
q
[1 0 0 1 0 792] cm
[1 0 0 1 0 0] cm
q
q
/DeviceRGB {} cs
[0.133 0.133 0.133] sc
87 -160 m
102 -177 119 -194 150 -194 c
249 -193 209 -22 149 -2 c
113 10 71 -2 62 -31 c
54 0 l
6 0 l
58 -261 l
107 -261 l
87 -160 l
h
158 -122 m
158 -146 153 -159 129 -159 c
83 -159 74 -113 72 -70 c
71 -45 84 -30 107 -30 c
151 -30 158 -80 158 -122 c
f
Q
Q
Q
Q
q
[1 0 0 1 1495 0] cm
q
[1 0 0 1 0 792] cm
[1 0 0 1 0 0] cm
q
q
/DeviceRGB {} cs
[0.133 0.133 0.133] sc
166 -52 m
162 -35 171 -23 190 -29 c
187 -2 l
157 9 113 -1 120 -36 c
105 -15 91 4 56 4 c
23 4 3 -15 2 -49 c
2 -113 65 -116 130 -116 c
140 -138 133 -169 101 -161 c
88 -158 79 -151 76 -137 c
30 -142 l
35 -206 186 -219 183 -142 c
182 -109 172 -82 166 -52 c
h
97 -88 m
53 -97 33 -31 78 -31 c
109 -31 120 -59 125 -88 c
97 -88 l
f
Q
Q
Q
Q
q
[1 0 0 1 1695 0] cm
q
[1 0 0 1 0 792] cm
[1 0 0 1 0 0] cm
q
q
/DeviceRGB {} cs
[0.133 0.133 0.133] sc
6 0 m
57 -261 l
106 -261 l
55 0 l
6 0 l
f
Q
Q
Q
Q
q
[1 0 0 1 1795 0] cm
q
[1 0 0 1 0 792] cm
[1 0 0 1 0 0] cm
q
q
/DeviceRGB {} cs
[0.133 0.133 0.133] sc
-21 30 207 14 re
f
Q
Q
Q
Q
q
[1 0 0 1 1995 0] cm
q
[1 0 0 1 0 792] cm
[1 0 0 1 0 0] cm
q
q
/DeviceRGB {} cs
[0.133 0.133 0.133] sc
50 -224 m
57 -261 l
106 -261 l
99 -224 l
50 -224 l
h
6 0 m
43 -190 l
92 -190 l
55 0 l
6 0 l
f
Q
Q
Q
Q
q
[1 0 0 1 2095 0] cm
q
[1 0 0 1 0 792] cm
[1 0 0 1 0 0] cm
q
q
/DeviceRGB {} cs
[0.133 0.133 0.133] sc
132 -28 m
118 -9 101 4 69 4 c
30 4 10 -23 10 -62 c
10 -132 34 -191 102 -194 c
133 -195 149 -180 158 -159 c
177 -261 l
226 -261 l
179 0 l
130 0 l
132 -28 l
h
62 -69 m
62 -47 69 -30 91 -30 c
136 -32 145 -75 148 -120 c
150 -147 138 -160 115 -160 c
71 -160 62 -112 62 -69 c
f
Q
Q
Q
Q
q
[1 0 0 1 2314 0] cm
q
[1 0 0 1 0 792] cm
[1 0 0 1 0 0] cm
q
q
/DeviceRGB {} cs
[0.133 0.133 0.133] sc
13 -52 m
13 -149 50 -215 104 -261 c
154 -261 l
101 -209 62 -146 62 -49 c
62 -1 70 41 87 75 c
39 75 l
22 40 13 -2 13 -52 c
f
Q
Q
Q
Q
q
[1 0 0 1 2433 0] cm
q
[1 0 0 1 0 792] cm
[1 0 0 1 0 0] cm
q
q
/DeviceRGB {} cs
[0.133 0.133 0.133] sc
15 -80 m
15 -166 39 -251 127 -251 c
177 -251 197 -220 197 -169 c
197 -84 171 4 84 4 c
34 4 15 -29 15 -80 c
h
149 -172 m
155 -214 105 -227 89 -195 c
72 -160 55 -94 68 -46 c
72 -40 77 -34 87 -35 c
143 -41 140 -117 149 -172 c
f
Q
Q
Q
Q
q
[1 0 0 1 2633 0] cm
q
[1 0 0 1 0 792] cm
[1 0 0 1 0 0] cm
q
q
/DeviceRGB {} cs
[0.133 0.133 0.133] sc
109 -139 m
109 -39 71 27 18 75 c
-32 75 l
22 21 61 -44 61 -142 c
61 -188 50 -229 34 -261 c
81 -261 l
98 -230 109 -186 109 -139 c
f
Q
Q
Q
Q
q
[1 0 0 1 2752 0] cm
q
[1 0 0 1 0 792] cm
[1 0 0 1 0 0] cm
q
q
/DeviceRGB {} cs
[0.133 0.133 0.133] sc
41 -132 m
51 -182 l
102 -182 l
92 -132 l
41 -132 l
h
76 -49 m
67 -10 62 34 36 56 c
4 56 l
19 41 33 24 38 0 c
16 0 l
25 -49 l
76 -49 l
f
Q
Q
Q
Q
q
[1 0 0 1 2871 0] cm
q
[1 0 0 1 0 792] cm
[1 0 0 1 0 0] cm
q
q
/DeviceRGB {} cs
[0.133 0.133 0.133] sc
Q
Q
Q
Q
q
[1 0 0 1 2971 0] cm
q
[1 0 0 1 0 792] cm
[1 0 0 1 0 0] cm
q
q
/DeviceRGB {} cs
[0.133 0.133 0.133] sc
Q
Q
Q
Q
Q
Q
q
q
[1 0 0 1 413.1 320] cm
[0.0555 0 0 0.0555 0 0] cm
[1 0 0 1 0 -792] cm
q
[1 0 0 1 0 0] cm
q
[1 0 0 1 0 792] cm
[1 0 0 1 0 0] cm
q
q
/DeviceRGB {} cs
[0.133 0.133 0.133] sc
Q
Q
Q
Q
q
[1 0 0 1 100 0] cm
q
[1 0 0 1 0 792] cm
[1 0 0 1 0 0] cm
q
q
/DeviceRGB {} cs
[0.133 0.133 0.133] sc
Q
Q
Q
Q
Q
Q
q
q
[1 0 0 1 120 344] cm
[0.0555 0 0 0.0555 0 0] cm
[1 0 0 1 0 -792] cm
q
[1 0 0 1 0 0] cm
q
[1 0 0 1 0 792] cm
[1 0 0 1 0 0] cm
q
q
/DeviceRGB {} cs
[0.133 0.133 0.133] sc
Q
Q
Q
Q
q
[1 0 0 1 100 0] cm
q
[1 0 0 1 0 792] cm
[1 0 0 1 0 0] cm
q
q
/DeviceRGB {} cs
[0.133 0.133 0.133] sc
Q
Q
Q
Q
q
[1 0 0 1 200 0] cm
q
[1 0 0 1 0 792] cm
[1 0 0 1 0 0] cm
q
q
/DeviceRGB {} cs
[0.133 0.133 0.133] sc
Q
Q
Q
Q
q
[1 0 0 1 300 0] cm
q
[1 0 0 1 0 792] cm
[1 0 0 1 0 0] cm
q
q
/DeviceRGB {} cs
[0.133 0.133 0.133] sc
Q
Q
Q
Q
q
[1 0 0 1 400 0] cm
q
[1 0 0 1 0 792] cm
[1 0 0 1 0 0] cm
q
q
/DeviceRGB {} cs
[0.133 0.133 0.133] sc
Q
Q
Q
Q
q
[1 0 0 1 500 0] cm
q
[1 0 0 1 0 792] cm
[1 0 0 1 0 0] cm
q
q
/DeviceRGB {} cs
[0.133 0.133 0.133] sc
Q
Q
Q
Q
Q
Q
q
q
[1 0 0 1 153.3 344] cm
[0.0555 0 0 0.0555 0 0] cm
[1 0 0 1 0 -792] cm
q
[1 0 0 1 0 0] cm
q
[1 0 0 1 0 792] cm
[1 0 0 1 0 0] cm
q
q
/DeviceRGB {} cs
[0.133 0.133 0.133] sc
93 -157 m
62 0 l
13 0 l
44 -157 l
16 -157 l
22 -190 l
50 -190 l
52 -244 90 -271 150 -258 c
144 -226 l
115 -234 100 -217 99 -190 c
137 -190 l
130 -157 l
93 -157 l
f
Q
Q
Q
Q
q
[1 0 0 1 119 0] cm
q
[1 0 0 1 0 792] cm
[1 0 0 1 0 0] cm
q
q
/DeviceRGB {} cs
[0.133 0.133 0.133] sc
124 -194 m
175 -194 208 -172 208 -120 c
207 -44 167 4 94 4 c
43 4 11 -23 11 -74 c
11 -148 52 -194 124 -194 c
h
99 -30 m
145 -30 157 -72 157 -116 c
157 -143 146 -160 120 -160 c
76 -160 65 -120 63 -76 c
62 -49 73 -31 99 -30 c
f
Q
Q
Q
Q
q
[1 0 0 1 338 0] cm
q
[1 0 0 1 0 792] cm
[1 0 0 1 0 0] cm
q
q
/DeviceRGB {} cs
[0.133 0.133 0.133] sc
84 -151 m
97 -176 118 -202 156 -191 c
148 -150 l
67 -170 71 -64 56 0 c
6 0 l
42 -190 l
89 -190 l
f
Q
Q
Q
Q
q
[1 0 0 1 478 0] cm
q
[1 0 0 1 0 792] cm
[1 0 0 1 0 0] cm
q
q
/DeviceRGB {} cs
[0.133 0.133 0.133] sc
13 -52 m
13 -149 50 -215 104 -261 c
154 -261 l
101 -209 62 -146 62 -49 c
62 -1 70 41 87 75 c
39 75 l
22 40 13 -2 13 -52 c
f
Q
Q
Q
Q
q
[1 0 0 1 597 0] cm
q
[1 0 0 1 0 792] cm
[1 0 0 1 0 0] cm
q
q
/DeviceRGB {} cs
[0.133 0.133 0.133] sc
50 -224 m
57 -261 l
106 -261 l
99 -224 l
50 -224 l
h
6 0 m
43 -190 l
92 -190 l
55 0 l
6 0 l
f
Q
Q
Q
Q
q
[1 0 0 1 697 0] cm
q
[1 0 0 1 0 792] cm
[1 0 0 1 0 0] cm
q
q
/DeviceRGB {} cs
[0.133 0.133 0.133] sc
151 -194 m
246 -194 185 -66 179 0 c
130 0 l
155 -134 l
155 -163 110 -159 96 -143 c
67 -111 69 -48 56 0 c
6 0 l
42 -190 l
89 -190 l
85 -158 l
100 -178 118 -194 151 -194 c
f
Q
Q
Q
Q
q
[1 0 0 1 916 0] cm
q
[1 0 0 1 0 792] cm
[1 0 0 1 0 0] cm
q
q
/DeviceRGB {} cs
[0.133 0.133 0.133] sc
72 -63 m
64 -40 77 -24 104 -33 c
98 -1 l
54 14 12 -6 23 -64 c
41 -157 l
15 -157 l
22 -190 l
50 -190 l
74 -235 l
105 -235 l
97 -190 l
132 -190 l
126 -157 l
90 -157 l
f
Q
Q
Q
Q
q
[1 0 0 1 1035 0] cm
q
[1 0 0 1 0 792] cm
[1 0 0 1 0 0] cm
q
q
/DeviceRGB {} cs
[0.133 0.133 0.133] sc
Q
Q
Q
Q
Q
Q
q
q
[1 0 0 1 216.3 344] cm
[0.0555 0 0 0.0555 0 0] cm
[1 0 0 1 0 -792] cm
q
[1 0 0 1 0 0] cm
q
[1 0 0 1 0 792] cm
[1 0 0 1 0 0] cm
q
q
/DeviceRGB {} cs
[0.133 0.133 0.133] sc
50 -224 m
57 -261 l
106 -261 l
99 -224 l
50 -224 l
h
6 0 m
43 -190 l
92 -190 l
55 0 l
6 0 l
f
Q
Q
Q
Q
q
[1 0 0 1 100 0] cm
q
[1 0 0 1 0 792] cm
[1 0 0 1 0 0] cm
q
q
/DeviceRGB {} cs
[0.133 0.133 0.133] sc
22 -148 m
22 -187 l
202 -187 l
202 -148 l
22 -148 l
h
22 -51 m
22 -90 l
202 -90 l
202 -51 l
22 -51 l
f
Q
Q
Q
Q
q
[1 0 0 1 310 0] cm
q
[1 0 0 1 0 792] cm
[1 0 0 1 0 0] cm
q
q
/DeviceRGB {} cs
[0.133 0.133 0.133] sc
15 -80 m
15 -166 39 -251 127 -251 c
177 -251 197 -220 197 -169 c
197 -84 171 4 84 4 c
34 4 15 -29 15 -80 c
h
149 -172 m
155 -214 105 -227 89 -195 c
72 -160 55 -94 68 -46 c
72 -40 77 -34 87 -35 c
143 -41 140 -117 149 -172 c
f
Q
Q
Q
Q
q
[1 0 0 1 510 0] cm
q
[1 0 0 1 0 792] cm
[1 0 0 1 0 0] cm
q
q
/DeviceRGB {} cs
[0.133 0.133 0.133] sc
41 -132 m
51 -182 l
102 -182 l
92 -132 l
41 -132 l
h
76 -49 m
67 -10 62 34 36 56 c
4 56 l
19 41 33 24 38 0 c
16 0 l
25 -49 l
76 -49 l
f
Q
Q
Q
Q
q
[1 0 0 1 629 0] cm
q
[1 0 0 1 0 792] cm
[1 0 0 1 0 0] cm
q
q
/DeviceRGB {} cs
[0.133 0.133 0.133] sc
Q
Q
Q
Q
Q
Q
q
q
[1 0 0 1 256.8 344] cm
[0.0555 0 0 0.0555 0 0] cm
[1 0 0 1 0 -792] cm
q
[1 0 0 1 0 0] cm
q
[1 0 0 1 0 792] cm
[1 0 0 1 0 0] cm
q
q
/DeviceRGB {} cs
[0.133 0.133 0.133] sc
50 -224 m
57 -261 l
106 -261 l
99 -224 l
50 -224 l
h
6 0 m
43 -190 l
92 -190 l
55 0 l
6 0 l
f
Q
Q
Q
Q
q
[1 0 0 1 100 0] cm
q
[1 0 0 1 0 792] cm
[1 0 0 1 0 0] cm
q
q
/DeviceRGB {} cs
[0.133 0.133 0.133] sc
22 -91 m
22 -147 l
202 -216 l
202 -176 l
56 -119 l
202 -62 l
202 -22 l
f
Q
Q
Q
Q
q
[1 0 0 1 310 0] cm
q
[1 0 0 1 0 792] cm
[1 0 0 1 0 0] cm
q
q
/DeviceRGB {} cs
[0.133 0.133 0.133] sc
50 -224 m
57 -261 l
106 -261 l
99 -224 l
50 -224 l
h
6 0 m
43 -190 l
92 -190 l
55 0 l
6 0 l
f
Q
Q
Q
Q
q
[1 0 0 1 410 0] cm
q
[1 0 0 1 0 792] cm
[1 0 0 1 0 0] cm
q
q
/DeviceRGB {} cs
[0.133 0.133 0.133] sc
72 -63 m
64 -40 77 -24 104 -33 c
98 -1 l
54 14 12 -6 23 -64 c
41 -157 l
15 -157 l
22 -190 l
50 -190 l
74 -235 l
105 -235 l
97 -190 l
132 -190 l
126 -157 l
90 -157 l
f
Q
Q
Q
Q
q
[1 0 0 1 529 0] cm
q
[1 0 0 1 0 792] cm
[1 0 0 1 0 0] cm
q
q
/DeviceRGB {} cs
[0.133 0.133 0.133] sc
114 -194 m
177 -196 201 -146 186 -84 c
63 -84 l
60 -56 64 -29 94 -30 c
115 -31 126 -43 131 -59 c
175 -46 l
160 -14 137 4 91 4 c
41 4 11 -22 11 -73 c
11 -144 44 -192 114 -194 c
h
144 -117 m
158 -164 94 -178 77 -139 c
74 -133 71 -126 69 -117 c
144 -117 l
f
Q
Q
Q
Q
q
[1 0 0 1 729 0] cm
q
[1 0 0 1 0 792] cm
[1 0 0 1 0 0] cm
q
q
/DeviceRGB {} cs
[0.133 0.133 0.133] sc
84 -151 m
97 -176 118 -202 156 -191 c
148 -150 l
67 -170 71 -64 56 0 c
6 0 l
42 -190 l
89 -190 l
f
Q
Q
Q
Q
q
[1 0 0 1 869 0] cm
q
[1 0 0 1 0 792] cm
[1 0 0 1 0 0] cm
q
q
/DeviceRGB {} cs
[0.133 0.133 0.133] sc
166 -52 m
162 -35 171 -23 190 -29 c
187 -2 l
157 9 113 -1 120 -36 c
105 -15 91 4 56 4 c
23 4 3 -15 2 -49 c
2 -113 65 -116 130 -116 c
140 -138 133 -169 101 -161 c
88 -158 79 -151 76 -137 c
30 -142 l
35 -206 186 -219 183 -142 c
182 -109 172 -82 166 -52 c
h
97 -88 m
53 -97 33 -31 78 -31 c
109 -31 120 -59 125 -88 c
97 -88 l
f
Q
Q
Q
Q
q
[1 0 0 1 1069 0] cm
q
[1 0 0 1 0 792] cm
[1 0 0 1 0 0] cm
q
q
/DeviceRGB {} cs
[0.133 0.133 0.133] sc
72 -63 m
64 -40 77 -24 104 -33 c
98 -1 l
54 14 12 -6 23 -64 c
41 -157 l
15 -157 l
22 -190 l
50 -190 l
74 -235 l
105 -235 l
97 -190 l
132 -190 l
126 -157 l
90 -157 l
f
Q
Q
Q
Q
q
[1 0 0 1 1188 0] cm
q
[1 0 0 1 0 792] cm
[1 0 0 1 0 0] cm
q
q
/DeviceRGB {} cs
[0.133 0.133 0.133] sc
50 -224 m
57 -261 l
106 -261 l
99 -224 l
50 -224 l
h
6 0 m
43 -190 l
92 -190 l
55 0 l
6 0 l
f
Q
Q
Q
Q
q
[1 0 0 1 1288 0] cm
q
[1 0 0 1 0 792] cm
[1 0 0 1 0 0] cm
q
q
/DeviceRGB {} cs
[0.133 0.133 0.133] sc
124 -194 m
175 -194 208 -172 208 -120 c
207 -44 167 4 94 4 c
43 4 11 -23 11 -74 c
11 -148 52 -194 124 -194 c
h
99 -30 m
145 -30 157 -72 157 -116 c
157 -143 146 -160 120 -160 c
76 -160 65 -120 63 -76 c
62 -49 73 -31 99 -30 c
f
Q
Q
Q
Q
q
[1 0 0 1 1507 0] cm
q
[1 0 0 1 0 792] cm
[1 0 0 1 0 0] cm
q
q
/DeviceRGB {} cs
[0.133 0.133 0.133] sc
151 -194 m
246 -194 185 -66 179 0 c
130 0 l
155 -134 l
155 -163 110 -159 96 -143 c
67 -111 69 -48 56 0 c
6 0 l
42 -190 l
89 -190 l
85 -158 l
100 -178 118 -194 151 -194 c
f
Q
Q
Q
Q
q
[1 0 0 1 1726 0] cm
q
[1 0 0 1 0 792] cm
[1 0 0 1 0 0] cm
q
q
/DeviceRGB {} cs
[0.133 0.133 0.133] sc
41 -132 m
51 -182 l
102 -182 l
92 -132 l
41 -132 l
h
76 -49 m
67 -10 62 34 36 56 c
4 56 l
19 41 33 24 38 0 c
16 0 l
25 -49 l
76 -49 l
f
Q
Q
Q
Q
q
[1 0 0 1 1845 0] cm
q
[1 0 0 1 0 792] cm
[1 0 0 1 0 0] cm
q
q
/DeviceRGB {} cs
[0.133 0.133 0.133] sc
Q
Q
Q
Q
Q
Q
q
q
[1 0 0 1 364.9 344] cm
[0.0555 0 0 0.0555 0 0] cm
[1 0 0 1 0 -792] cm
q
[1 0 0 1 0 0] cm
q
[1 0 0 1 0 792] cm
[1 0 0 1 0 0] cm
q
q
/DeviceRGB {} cs
[0.133 0.133 0.133] sc
50 -224 m
57 -261 l
106 -261 l
99 -224 l
50 -224 l
h
6 0 m
43 -190 l
92 -190 l
55 0 l
6 0 l
f
Q
Q
Q
Q
q
[1 0 0 1 100 0] cm
q
[1 0 0 1 0 792] cm
[1 0 0 1 0 0] cm
q
q
/DeviceRGB {} cs
[0.133 0.133 0.133] sc
132 -100 m
132 -28 l
92 -28 l
92 -100 l
22 -100 l
22 -139 l
92 -139 l
92 -211 l
132 -211 l
132 -139 l
202 -139 l
202 -100 l
132 -100 l
f
Q
Q
Q
Q
q
[1 0 0 1 310 0] cm
q
[1 0 0 1 0 792] cm
[1 0 0 1 0 0] cm
q
q
/DeviceRGB {} cs
[0.133 0.133 0.133] sc
132 -100 m
132 -28 l
92 -28 l
92 -100 l
22 -100 l
22 -139 l
92 -139 l
92 -211 l
132 -211 l
132 -139 l
202 -139 l
202 -100 l
132 -100 l
f
Q
Q
Q
Q
q
[1 0 0 1 520 0] cm
q
[1 0 0 1 0 792] cm
[1 0 0 1 0 0] cm
q
q
/DeviceRGB {} cs
[0.133 0.133 0.133] sc
109 -139 m
109 -39 71 27 18 75 c
-32 75 l
22 21 61 -44 61 -142 c
61 -188 50 -229 34 -261 c
81 -261 l
98 -230 109 -186 109 -139 c
f
Q
Q
Q
Q
q
[1 0 0 1 639 0] cm
q
[1 0 0 1 0 792] cm
[1 0 0 1 0 0] cm
q
q
/DeviceRGB {} cs
[0.133 0.133 0.133] sc
Q
Q
Q
Q
Q
Q
q
q
[1 0 0 1 406 344] cm
[0.0555 0 0 0.0555 0 0] cm
[1 0 0 1 0 -792] cm
q
[1 0 0 1 0 0] cm
q
[1 0 0 1 0 792] cm
[1 0 0 1 0 0] cm
q
q
/DeviceRGB {} cs
[0.133 0.133 0.133] sc
Q
Q
Q
Q
q
[1 0 0 1 100 0] cm
q
[1 0 0 1 0 792] cm
[1 0 0 1 0 0] cm
q
q
/DeviceRGB {} cs
[0.133 0.133 0.133] sc
Q
Q
Q
Q
q
[1 0 0 1 200 0] cm
q
[1 0 0 1 0 792] cm
[1 0 0 1 0 0] cm
q
q
/DeviceRGB {} cs
[0.133 0.133 0.133] sc
Q
Q
Q
Q
q
[1 0 0 1 300 0] cm
q
[1 0 0 1 0 792] cm
[1 0 0 1 0 0] cm
q
q
/DeviceRGB {} cs
[0.133 0.133 0.133] sc
Q
Q
Q
Q
Q
Q
q
q
[1 0 0 1 428.2 344] cm
[0.0555 0 0 0.0555 0 0] cm
[1 0 0 1 0 -792] cm
q
[1 0 0 1 0 0] cm
q
[1 0 0 1 0 792] cm
[1 0 0 1 0 0] cm
q
q
/DeviceRGB {} cs
[0.133 0.133 0.133] sc
Q
Q
Q
Q
q
[1 0 0 1 100 0] cm
q
[1 0 0 1 0 792] cm
[1 0 0 1 0 0] cm
q
q
/DeviceRGB {} cs
[0.133 0.133 0.133] sc
Q
Q
Q
Q
q
[1 0 0 1 200 0] cm
q
[1 0 0 1 0 792] cm
[1 0 0 1 0 0] cm
q
q
/DeviceRGB {} cs
[0.133 0.133 0.133] sc
Q
Q
Q
Q
q
[1 0 0 1 300 0] cm
q
[1 0 0 1 0 792] cm
[1 0 0 1 0 0] cm
q
q
/DeviceRGB {} cs
[0.133 0.133 0.133] sc
Q
Q
Q
Q
q
[1 0 0 1 400 0] cm
q
[1 0 0 1 0 792] cm
[1 0 0 1 0 0] cm
q
q
/DeviceRGB {} cs
[0.133 0.133 0.133] sc
Q
Q
Q
Q
q
[1 0 0 1 500 0] cm
q
[1 0 0 1 0 792] cm
[1 0 0 1 0 0] cm
q
q
/DeviceRGB {} cs
[0.133 0.133 0.133] sc
Q
Q
Q
Q
q
[1 0 0 1 600 0] cm
q
[1 0 0 1 0 792] cm
[1 0 0 1 0 0] cm
q
q
/DeviceRGB {} cs
[0.133 0.133 0.133] sc
Q
Q
Q
Q
Q
Q
q
q
[1 0 0 1 120 368] cm
[0.0555 0 0 0.0555 0 0] cm
[1 0 0 1 0 -792] cm
q
[1 0 0 1 0 0] cm
q
[1 0 0 1 0 792] cm
[1 0 0 1 0 0] cm
q
q
/DeviceRGB {} cs
[0.133 0.133 0.133] sc
Q
Q
Q
Q
q
[1 0 0 1 100 0] cm
q
[1 0 0 1 0 792] cm
[1 0 0 1 0 0] cm
q
q
/DeviceRGB {} cs
[0.133 0.133 0.133] sc
Q
Q
Q
Q
q
[1 0 0 1 200 0] cm
q
[1 0 0 1 0 792] cm
[1 0 0 1 0 0] cm
q
q
/DeviceRGB {} cs
[0.133 0.133 0.133] sc
Q
Q
Q
Q
q
[1 0 0 1 300 0] cm
q
[1 0 0 1 0 792] cm
[1 0 0 1 0 0] cm
q
q
/DeviceRGB {} cs
[0.133 0.133 0.133] sc
Q
Q
Q
Q
q
[1 0 0 1 400 0] cm
q
[1 0 0 1 0 792] cm
[1 0 0 1 0 0] cm
q
q
/DeviceRGB {} cs
[0.133 0.133 0.133] sc
Q
Q
Q
Q
q
[1 0 0 1 500 0] cm
q
[1 0 0 1 0 792] cm
[1 0 0 1 0 0] cm
q
q
/DeviceRGB {} cs
[0.133 0.133 0.133] sc
Q
Q
Q
Q
q
[1 0 0 1 600 0] cm
q
[1 0 0 1 0 792] cm
[1 0 0 1 0 0] cm
q
q
/DeviceRGB {} cs
[0.133 0.133 0.133] sc
Q
Q
Q
Q
q
[1 0 0 1 700 0] cm
q
[1 0 0 1 0 792] cm
[1 0 0 1 0 0] cm
q
q
/DeviceRGB {} cs
[0.133 0.133 0.133] sc
Q
Q
Q
Q
q
[1 0 0 1 800 0] cm
q
[1 0 0 1 0 792] cm
[1 0 0 1 0 0] cm
q
q
/DeviceRGB {} cs
[0.133 0.133 0.133] sc
Q
Q
Q
Q
q
[1 0 0 1 900 0] cm
q
[1 0 0 1 0 792] cm
[1 0 0 1 0 0] cm
q
q
/DeviceRGB {} cs
[0.133 0.133 0.133] sc
Q
Q
Q
Q
q
[1 0 0 1 1000 0] cm
q
[1 0 0 1 0 792] cm
[1 0 0 1 0 0] cm
q
q
/DeviceRGB {} cs
[0.133 0.133 0.133] sc
Q
Q
Q
Q
q
[1 0 0 1 1100 0] cm
q
[1 0 0 1 0 792] cm
[1 0 0 1 0 0] cm
q
q
/DeviceRGB {} cs
[0.133 0.133 0.133] sc
Q
Q
Q
Q
q
[1 0 0 1 1200 0] cm
q
[1 0 0 1 0 792] cm
[1 0 0 1 0 0] cm
q
q
/DeviceRGB {} cs
[0.133 0.133 0.133] sc
Q
Q
Q
Q
Q
Q
q
q
[1 0 0 1 192.2 368] cm
[0.0555 0 0 0.0555 0 0] cm
[1 0 0 1 0 -792] cm
q
[1 0 0 1 0 0] cm
q
[1 0 0 1 0 792] cm
[1 0 0 1 0 0] cm
q
q
/DeviceRGB {} cs
[0.133 0.133 0.133] sc
124 -194 m
175 -194 208 -172 208 -120 c
207 -44 167 4 94 4 c
43 4 11 -23 11 -74 c
11 -148 52 -194 124 -194 c
h
99 -30 m
145 -30 157 -72 157 -116 c
157 -143 146 -160 120 -160 c
76 -160 65 -120 63 -76 c
62 -49 73 -31 99 -30 c
f
Q
Q
Q
Q
q
[1 0 0 1 219 0] cm
q
[1 0 0 1 0 792] cm
[1 0 0 1 0 0] cm
q
q
/DeviceRGB {} cs
[0.133 0.133 0.133] sc
69 3 m
-27 3 35 -123 41 -190 c
90 -190 l
65 -57 l
71 -15 127 -39 136 -63 c
150 -101 153 -149 164 -190 c
214 -190 l
178 0 l
131 0 l
131 -11 135 -26 134 -33 c
120 -13 104 4 69 3 c
f
Q
Q
Q
Q
q
[1 0 0 1 438 0] cm
q
[1 0 0 1 0 792] cm
[1 0 0 1 0 0] cm
q
q
/DeviceRGB {} cs
[0.133 0.133 0.133] sc
72 -63 m
64 -40 77 -24 104 -33 c
98 -1 l
54 14 12 -6 23 -64 c
41 -157 l
15 -157 l
22 -190 l
50 -190 l
74 -235 l
105 -235 l
97 -190 l
132 -190 l
126 -157 l
90 -157 l
f
Q
Q
Q
Q
q
[1 0 0 1 557 0] cm
q
[1 0 0 1 0 792] cm
[1 0 0 1 0 0] cm
q
q
/DeviceRGB {} cs
[0.133 0.133 0.133] sc
156 -122 m
158 -145 149 -159 128 -159 c
81 -159 70 -115 70 -70 c
70 -46 82 -30 106 -30 c
149 -30 153 -79 156 -122 c
h
-8 75 m
42 -190 l
90 -190 l
90 -180 87 -166 87 -160 c
109 -210 214 -205 208 -131 c
202 -58 187 4 116 4 c
87 4 70 -10 61 -31 c
41 75 l
-8 75 l
f
Q
Q
Q
Q
q
[1 0 0 1 776 0] cm
q
[1 0 0 1 0 792] cm
[1 0 0 1 0 0] cm
q
q
/DeviceRGB {} cs
[0.133 0.133 0.133] sc
69 3 m
-27 3 35 -123 41 -190 c
90 -190 l
65 -57 l
71 -15 127 -39 136 -63 c
150 -101 153 -149 164 -190 c
214 -190 l
178 0 l
131 0 l
131 -11 135 -26 134 -33 c
120 -13 104 4 69 3 c
f
Q
Q
Q
Q
q
[1 0 0 1 995 0] cm
q
[1 0 0 1 0 792] cm
[1 0 0 1 0 0] cm
q
q
/DeviceRGB {} cs
[0.133 0.133 0.133] sc
72 -63 m
64 -40 77 -24 104 -33 c
98 -1 l
54 14 12 -6 23 -64 c
41 -157 l
15 -157 l
22 -190 l
50 -190 l
74 -235 l
105 -235 l
97 -190 l
132 -190 l
126 -157 l
90 -157 l
f
Q
Q
Q
Q
q
[1 0 0 1 1114 0] cm
q
[1 0 0 1 0 792] cm
[1 0 0 1 0 0] cm
q
q
/DeviceRGB {} cs
[0.133 0.133 0.133] sc
-9 75 m
56 -261 l
151 -261 l
144 -227 l
96 -227 l
44 41 l
92 41 l
86 75 l
-9 75 l
f
Q
Q
Q
Q
q
[1 0 0 1 1233 0] cm
q
[1 0 0 1 0 792] cm
[1 0 0 1 0 0] cm
q
q
/DeviceRGB {} cs
[0.133 0.133 0.133] sc
72 -63 m
64 -40 77 -24 104 -33 c
98 -1 l
54 14 12 -6 23 -64 c
41 -157 l
15 -157 l
22 -190 l
50 -190 l
74 -235 l
105 -235 l
97 -190 l
132 -190 l
126 -157 l
90 -157 l
f
Q
Q
Q
Q
q
[1 0 0 1 1352 0] cm
q
[1 0 0 1 0 792] cm
[1 0 0 1 0 0] cm
q
q
/DeviceRGB {} cs
[0.133 0.133 0.133] sc
50 -224 m
57 -261 l
106 -261 l
99 -224 l
50 -224 l
h
6 0 m
43 -190 l
92 -190 l
55 0 l
6 0 l
f
Q
Q
Q
Q
q
[1 0 0 1 1452 0] cm
q
[1 0 0 1 0 792] cm
[1 0 0 1 0 0] cm
q
q
/DeviceRGB {} cs
[0.133 0.133 0.133] sc
132 -28 m
118 -9 101 4 69 4 c
30 4 10 -23 10 -62 c
10 -132 34 -191 102 -194 c
133 -195 149 -180 158 -159 c
177 -261 l
226 -261 l
179 0 l
130 0 l
132 -28 l
h
62 -69 m
62 -47 69 -30 91 -30 c
136 -32 145 -75 148 -120 c
150 -147 138 -160 115 -160 c
71 -160 62 -112 62 -69 c
f
Q
Q
Q
Q
q
[1 0 0 1 1671 0] cm
q
[1 0 0 1 0 792] cm
[1 0 0 1 0 0] cm
q
q
/DeviceRGB {} cs
[0.133 0.133 0.133] sc
-31 75 m
-24 41 l
25 41 l
77 -227 l
28 -227 l
34 -261 l
130 -261 l
65 75 l
-31 75 l
f
Q
Q
Q
Q
q
[1 0 0 1 1790 0] cm
q
[1 0 0 1 0 792] cm
[1 0 0 1 0 0] cm
q
q
/DeviceRGB {} cs
[0.133 0.133 0.133] sc
Q
Q
Q
Q
Q
Q
q
q
[1 0 0 1 297.2 368] cm
[0.0555 0 0 0.0555 0 0] cm
[1 0 0 1 0 -792] cm
q
[1 0 0 1 0 0] cm
q
[1 0 0 1 0 792] cm
[1 0 0 1 0 0] cm
q
q
/DeviceRGB {} cs
[0.133 0.133 0.133] sc
22 -148 m
22 -187 l
202 -187 l
202 -148 l
22 -148 l
h
22 -51 m
22 -90 l
202 -90 l
202 -51 l
22 -51 l
f
Q
Q
Q
Q
q
[1 0 0 1 210 0] cm
q
[1 0 0 1 0 792] cm
[1 0 0 1 0 0] cm
q
q
/DeviceRGB {} cs
[0.133 0.133 0.133] sc
Q
Q
Q
Q
Q
Q
q
q
[1 0 0 1 314.4 368] cm
[0.0555 0 0 0.0555 0 0] cm
[1 0 0 1 0 -792] cm
q
[1 0 0 1 0 0] cm
q
[1 0 0 1 0 792] cm
[1 0 0 1 0 0] cm
q
q
/DeviceRGB {} cs
[0.133 0.133 0.133] sc
50 -224 m
57 -261 l
106 -261 l
99 -224 l
50 -224 l
h
6 0 m
43 -190 l
92 -190 l
55 0 l
6 0 l
f
Q
Q
Q
Q
q
[1 0 0 1 100 0] cm
q
[1 0 0 1 0 792] cm
[1 0 0 1 0 0] cm
q
q
/DeviceRGB {} cs
[0.133 0.133 0.133] sc
151 -194 m
246 -194 185 -66 179 0 c
130 0 l
155 -134 l
155 -163 110 -159 96 -143 c
67 -111 69 -48 56 0 c
6 0 l
42 -190 l
89 -190 l
85 -158 l
100 -178 118 -194 151 -194 c
f
Q
Q
Q
Q
q
[1 0 0 1 319 0] cm
q
[1 0 0 1 0 792] cm
[1 0 0 1 0 0] cm
q
q
/DeviceRGB {} cs
[0.133 0.133 0.133] sc
156 -122 m
158 -145 149 -159 128 -159 c
81 -159 70 -115 70 -70 c
70 -46 82 -30 106 -30 c
149 -30 153 -79 156 -122 c
h
-8 75 m
42 -190 l
90 -190 l
90 -180 87 -166 87 -160 c
109 -210 214 -205 208 -131 c
202 -58 187 4 116 4 c
87 4 70 -10 61 -31 c
41 75 l
-8 75 l
f
Q
Q
Q
Q
q
[1 0 0 1 538 0] cm
q
[1 0 0 1 0 792] cm
[1 0 0 1 0 0] cm
q
q
/DeviceRGB {} cs
[0.133 0.133 0.133] sc
69 3 m
-27 3 35 -123 41 -190 c
90 -190 l
65 -57 l
71 -15 127 -39 136 -63 c
150 -101 153 -149 164 -190 c
214 -190 l
178 0 l
131 0 l
131 -11 135 -26 134 -33 c
120 -13 104 4 69 3 c
f
Q
Q
Q
Q
q
[1 0 0 1 757 0] cm
q
[1 0 0 1 0 792] cm
[1 0 0 1 0 0] cm
q
q
/DeviceRGB {} cs
[0.133 0.133 0.133] sc
72 -63 m
64 -40 77 -24 104 -33 c
98 -1 l
54 14 12 -6 23 -64 c
41 -157 l
15 -157 l
22 -190 l
50 -190 l
74 -235 l
105 -235 l
97 -190 l
132 -190 l
126 -157 l
90 -157 l
f
Q
Q
Q
Q
q
[1 0 0 1 876 0] cm
q
[1 0 0 1 0 792] cm
[1 0 0 1 0 0] cm
q
q
/DeviceRGB {} cs
[0.133 0.133 0.133] sc
-9 75 m
56 -261 l
151 -261 l
144 -227 l
96 -227 l
44 41 l
92 41 l
86 75 l
-9 75 l
f
Q
Q
Q
Q
q
[1 0 0 1 995 0] cm
q
[1 0 0 1 0 792] cm
[1 0 0 1 0 0] cm
q
q
/DeviceRGB {} cs
[0.133 0.133 0.133] sc
72 -63 m
64 -40 77 -24 104 -33 c
98 -1 l
54 14 12 -6 23 -64 c
41 -157 l
15 -157 l
22 -190 l
50 -190 l
74 -235 l
105 -235 l
97 -190 l
132 -190 l
126 -157 l
90 -157 l
f
Q
Q
Q
Q
q
[1 0 0 1 1114 0] cm
q
[1 0 0 1 0 792] cm
[1 0 0 1 0 0] cm
q
q
/DeviceRGB {} cs
[0.133 0.133 0.133] sc
50 -224 m
57 -261 l
106 -261 l
99 -224 l
50 -224 l
h
6 0 m
43 -190 l
92 -190 l
55 0 l
6 0 l
f
Q
Q
Q
Q
q
[1 0 0 1 1214 0] cm
q
[1 0 0 1 0 792] cm
[1 0 0 1 0 0] cm
q
q
/DeviceRGB {} cs
[0.133 0.133 0.133] sc
132 -28 m
118 -9 101 4 69 4 c
30 4 10 -23 10 -62 c
10 -132 34 -191 102 -194 c
133 -195 149 -180 158 -159 c
177 -261 l
226 -261 l
179 0 l
130 0 l
132 -28 l
h
62 -69 m
62 -47 69 -30 91 -30 c
136 -32 145 -75 148 -120 c
150 -147 138 -160 115 -160 c
71 -160 62 -112 62 -69 c
f
Q
Q
Q
Q
q
[1 0 0 1 1433 0] cm
q
[1 0 0 1 0 792] cm
[1 0 0 1 0 0] cm
q
q
/DeviceRGB {} cs
[0.133 0.133 0.133] sc
-31 75 m
-24 41 l
25 41 l
77 -227 l
28 -227 l
34 -261 l
130 -261 l
65 75 l
-31 75 l
f
Q
Q
Q
Q
q
[1 0 0 1 1552 0] cm
q
[1 0 0 1 0 792] cm
[1 0 0 1 0 0] cm
q
q
/DeviceRGB {} cs
[0.133 0.133 0.133] sc
Q
Q
Q
Q
Q
Q
q
q
[1 0 0 1 406.2 368] cm
[0.0555 0 0 0.0555 0 0] cm
[1 0 0 1 0 -792] cm
q
[1 0 0 1 0 0] cm
q
[1 0 0 1 0 792] cm
[1 0 0 1 0 0] cm
q
q
/DeviceRGB {} cs
[0.133 0.133 0.133] sc
101 -200 m
142 -218 l
154 -183 l
110 -172 l
143 -135 l
111 -114 l
85 -158 l
59 -114 l
26 -135 l
59 -172 l
15 -183 l
27 -218 l
69 -200 l
66 -248 l
104 -248 l
f
Q
Q
Q
Q
q
[1 0 0 1 140 0] cm
q
[1 0 0 1 0 792] cm
[1 0 0 1 0 0] cm
q
q
/DeviceRGB {} cs
[0.133 0.133 0.133] sc
Q
Q
Q
Q
Q
Q
q
q
[1 0 0 1 419.5 368] cm
[0.0555 0 0 0.0555 0 0] cm
[1 0 0 1 0 -792] cm
q
[1 0 0 1 0 0] cm
q
[1 0 0 1 0 792] cm
[1 0 0 1 0 0] cm
q
q
/DeviceRGB {} cs
[0.133 0.133 0.133] sc
255 -194 m
345 -194 284 -65 279 0 c
230 0 l
255 -136 l
248 -175 202 -150 195 -127 c
183 -89 177 -42 167 0 c
118 0 l
143 -136 l
145 -165 104 -159 93 -143 c
69 -108 68 -47 56 0 c
6 0 l
42 -190 l
90 -190 l
89 -180 84 -166 86 -158 c
98 -178 113 -194 143 -194 c
173 -194 189 -179 193 -153 c
207 -174 222 -194 255 -194 c
f
Q
Q
Q
Q
q
[1 0 0 1 320 0] cm
q
[1 0 0 1 0 792] cm
[1 0 0 1 0 0] cm
q
q
/DeviceRGB {} cs
[0.133 0.133 0.133] sc
69 3 m
-27 3 35 -123 41 -190 c
90 -190 l
65 -57 l
71 -15 127 -39 136 -63 c
150 -101 153 -149 164 -190 c
214 -190 l
178 0 l
131 0 l
131 -11 135 -26 134 -33 c
120 -13 104 4 69 3 c
f
Q
Q
Q
Q
q
[1 0 0 1 539 0] cm
q
[1 0 0 1 0 792] cm
[1 0 0 1 0 0] cm
q
q
/DeviceRGB {} cs
[0.133 0.133 0.133] sc
6 0 m
57 -261 l
106 -261 l
55 0 l
6 0 l
f
Q
Q
Q
Q
q
[1 0 0 1 639 0] cm
q
[1 0 0 1 0 792] cm
[1 0 0 1 0 0] cm
q
q
/DeviceRGB {} cs
[0.133 0.133 0.133] sc
72 -63 m
64 -40 77 -24 104 -33 c
98 -1 l
54 14 12 -6 23 -64 c
41 -157 l
15 -157 l
22 -190 l
50 -190 l
74 -235 l
105 -235 l
97 -190 l
132 -190 l
126 -157 l
90 -157 l
f
Q
Q
Q
Q
q
[1 0 0 1 758 0] cm
q
[1 0 0 1 0 792] cm
[1 0 0 1 0 0] cm
q
q
/DeviceRGB {} cs
[0.133 0.133 0.133] sc
50 -224 m
57 -261 l
106 -261 l
99 -224 l
50 -224 l
h
6 0 m
43 -190 l
92 -190 l
55 0 l
6 0 l
f
Q
Q
Q
Q
q
[1 0 0 1 858 0] cm
q
[1 0 0 1 0 792] cm
[1 0 0 1 0 0] cm
q
q
/DeviceRGB {} cs
[0.133 0.133 0.133] sc
156 -122 m
158 -145 149 -159 128 -159 c
81 -159 70 -115 70 -70 c
70 -46 82 -30 106 -30 c
149 -30 153 -79 156 -122 c
h
-8 75 m
42 -190 l
90 -190 l
90 -180 87 -166 87 -160 c
109 -210 214 -205 208 -131 c
202 -58 187 4 116 4 c
87 4 70 -10 61 -31 c
41 75 l
-8 75 l
f
Q
Q
Q
Q
q
[1 0 0 1 1077 0] cm
q
[1 0 0 1 0 792] cm
[1 0 0 1 0 0] cm
q
q
/DeviceRGB {} cs
[0.133 0.133 0.133] sc
6 0 m
57 -261 l
106 -261 l
55 0 l
6 0 l
f
Q
Q
Q
Q
q
[1 0 0 1 1177 0] cm
q
[1 0 0 1 0 792] cm
[1 0 0 1 0 0] cm
q
q
/DeviceRGB {} cs
[0.133 0.133 0.133] sc
50 -224 m
57 -261 l
106 -261 l
99 -224 l
50 -224 l
h
6 0 m
43 -190 l
92 -190 l
55 0 l
6 0 l
f
Q
Q
Q
Q
q
[1 0 0 1 1277 0] cm
q
[1 0 0 1 0 792] cm
[1 0 0 1 0 0] cm
q
q
/DeviceRGB {} cs
[0.133 0.133 0.133] sc
114 -194 m
177 -196 201 -146 186 -84 c
63 -84 l
60 -56 64 -29 94 -30 c
115 -31 126 -43 131 -59 c
175 -46 l
160 -14 137 4 91 4 c
41 4 11 -22 11 -73 c
11 -144 44 -192 114 -194 c
h
144 -117 m
158 -164 94 -178 77 -139 c
74 -133 71 -126 69 -117 c
144 -117 l
f
Q
Q
Q
Q
q
[1 0 0 1 1477 0] cm
q
[1 0 0 1 0 792] cm
[1 0 0 1 0 0] cm
q
q
/DeviceRGB {} cs
[0.133 0.133 0.133] sc
84 -151 m
97 -176 118 -202 156 -191 c
148 -150 l
67 -170 71 -64 56 0 c
6 0 l
42 -190 l
89 -190 l
f
Q
Q
Q
Q
q
[1 0 0 1 1617 0] cm
q
[1 0 0 1 0 792] cm
[1 0 0 1 0 0] cm
q
q
/DeviceRGB {} cs
[0.133 0.133 0.133] sc
41 -132 m
51 -182 l
102 -182 l
92 -132 l
41 -132 l
h
76 -49 m
67 -10 62 34 36 56 c
4 56 l
19 41 33 24 38 0 c
16 0 l
25 -49 l
76 -49 l
f
Q
Q
Q
Q
Q
Q
q
q
[1 0 0 1 120 392] cm
[0.0555 0 0 0.0555 0 0] cm
[1 0 0 1 0 -792] cm
q
[1 0 0 1 0 0] cm
q
[1 0 0 1 0 792] cm
[1 0 0 1 0 0] cm
q
q
/DeviceRGB {} cs
[0.133 0.133 0.133] sc
65 -195 m
71 -219 59 -231 31 -227 c
38 -261 l
85 -266 123 -254 113 -204 c
106 -170 82 -109 135 -110 c
128 -76 l
31 -75 126 98 -27 75 c
-21 41 l
62 51 -1 -77 82 -93 c
39 -100 56 -158 65 -195 c
f
Q
Q
Q
Q
Q
Q
Q
Q
Q
Q
Q
Q
Q
showpage
%%PageTrailer
pdfEndPage
%%Trailer
end
%%DocumentSuppliedResources:
%%EOF
