\relax 
\providecommand\hyper@newdestlabel[2]{}
\providecommand\HyperFirstAtBeginDocument{\AtBeginDocument}
\HyperFirstAtBeginDocument{\ifx\hyper@anchor\@undefined
\global\let\oldcontentsline\contentsline
\gdef\contentsline#1#2#3#4{\oldcontentsline{#1}{#2}{#3}}
\global\let\oldnewlabel\newlabel
\gdef\newlabel#1#2{\newlabelxx{#1}#2}
\gdef\newlabelxx#1#2#3#4#5#6{\oldnewlabel{#1}{{#2}{#3}}}
\AtEndDocument{\ifx\hyper@anchor\@undefined
\let\contentsline\oldcontentsline
\let\newlabel\oldnewlabel
\fi}
\fi}
\global\let\hyper@last\relax 
\gdef\HyperFirstAtBeginDocument#1{#1}
\providecommand\HyField@AuxAddToFields[1]{}
\providecommand\HyField@AuxAddToCoFields[2]{}
\@writefile{toc}{\contentsline {section}{\numberline {1}Introduction}{1}{section.1}}
\@writefile{lof}{\contentsline {figure}{\numberline {1}{\ignorespaces Pseudo code of a Breath-First Search (BFS) program.\relax }}{1}{figure.caption.2}}
\providecommand*\caption@xref[2]{\@setref\relax\@undefined{#1}}
\newlabel{fig:loop}{{1}{1}{Pseudo code of a Breath-First Search (BFS) program.\relax }{figure.caption.2}{}}
\citation{Zhu+:HotOS15}
\citation{OpenCL}
\citation{CUDA}
\@writefile{toc}{\contentsline {paragraph}{Contributions}{2}{section*.3}}
\@writefile{toc}{\contentsline {section}{\numberline {2}GPU Control Dilemma}{2}{section.2}}
\newlabel{sec:back}{{2}{2}{GPU Control Dilemma}{section.2}{}}
\@writefile{toc}{\contentsline {subsection}{\numberline {2.1}GPU and Host Control Program}{2}{subsection.2.1}}
\newlabel{sec:back1}{{2.1}{2}{GPU and Host Control Program}{subsection.2.1}{}}
\@writefile{toc}{\contentsline {subsection}{\numberline {2.2}Tensions Among Responsiveness, Energy Efficiency, and Interference}{3}{subsection.2.2}}
\newlabel{sec:tensions}{{2.2}{3}{Tensions Among Responsiveness, Energy Efficiency, and Interference}{subsection.2.2}{}}
\@writefile{lot}{\contentsline {table}{\numberline {1}{\ignorespaces Tensions about GPU control responsiveness.  ($\delimiter "3223379 $: decrease; $\delimiter "3222378 $: increase)\relax }}{3}{table.caption.4}}
\newlabel{tbl:tensions}{{1}{3}{Tensions about GPU control responsiveness.\\ ($\downarrow $: decrease; $\uparrow $: increase)\relax }{table.caption.4}{}}
\@writefile{lof}{\contentsline {figure}{\numberline {2}{\ignorespaces Using polling to replace interrupt in Linux brings large speedups to GPU programs but seriously deteriorates energy efficiency. Platform: AMD Richland / Linux (3.13). \relax }}{3}{figure.caption.5}}
\newlabel{fig:polling}{{2}{3}{Using polling to replace interrupt in Linux brings large speedups to GPU programs but seriously deteriorates energy efficiency. Platform: AMD Richland / Linux (3.13). \relax }{figure.caption.5}{}}
\@writefile{toc}{\contentsline {section}{\numberline {3}Enabling Timely GPU Control}{3}{section.3}}
\newlabel{sec:aw}{{3}{3}{Enabling Timely GPU Control}{section.3}{}}
\@writefile{lof}{\contentsline {figure}{\numberline {3}{\ignorespaces Repeated invocations of a GPU kernel in benchmark BlackScholes show significant variations in running time even on the same input data.\relax }}{4}{figure.caption.6}}
\newlabel{fig:fluctuation1}{{3}{4}{Repeated invocations of a GPU kernel in benchmark BlackScholes show significant variations in running time even on the same input data.\relax }{figure.caption.6}{}}
\@writefile{lof}{\contentsline {figure}{\numberline {4}{\ignorespaces Multiple invocations of the CFD kernel are needed to process one graph. The kernel shows large differences in running times as the graph changes its state across the invocations.\relax }}{4}{figure.caption.7}}
\newlabel{fig:fluctuation2}{{4}{4}{Multiple invocations of the CFD kernel are needed to process one graph. The kernel shows large differences in running times as the graph changes its state across the invocations.\relax }{figure.caption.7}{}}
\@writefile{toc}{\contentsline {subsection}{\numberline {3.1}Basic Anticipatory Wakeup (BAW)}{4}{subsection.3.1}}
\@writefile{toc}{\contentsline {subsection}{\numberline {3.2}Three-stage Anticipatory Wakeup (TAW)}{4}{subsection.3.2}}
\@writefile{lof}{\contentsline {figure}{\numberline {5}{\ignorespaces Basic Design of TAW and SAW: (a) pseudo code of a GPU program; (b) after TAW transformation; (c) after SAW transformation.\relax }}{4}{figure.caption.8}}
\newlabel{fig:basic}{{5}{4}{Basic Design of TAW and SAW: (a) pseudo code of a GPU program; (b) after TAW transformation; (c) after SAW transformation.\relax }{figure.caption.8}{}}
\@writefile{toc}{\contentsline {subsubsection}{\numberline {3.2.1}Model-Based Auto-Configuration}{4}{subsubsection.3.2.1}}
\@writefile{toc}{\contentsline {paragraph}{Impact of Kernel Length Prediction Errors}{4}{section*.9}}
\@writefile{toc}{\contentsline {paragraph}{Auto-Configuration of TAW}{5}{section*.10}}
\@writefile{toc}{\contentsline {subsubsection}{\numberline {3.2.2}Self Correction to Reduce Error Impact}{5}{subsubsection.3.2.2}}
\newlabel{sec:self}{{3.2.2}{5}{Self Correction to Reduce Error Impact}{subsubsection.3.2.2}{}}
\citation{Gupta+:InPar12}
\@writefile{lof}{\contentsline {figure}{\numberline {6}{\ignorespaces The {\em  level set} of kernel length gets enlarged as more kernel lengths are observed in a run; meanwhile, the virtual levels get raised up accordingly such that the lowest virtual level is always $d$ microseconds above the highest {\em  added level}.\relax }}{6}{figure.caption.11}}
\newlabel{fig:levels}{{6}{6}{The {\em level set} of kernel length gets enlarged as more kernel lengths are observed in a run; meanwhile, the virtual levels get raised up accordingly such that the lowest virtual level is always $d$ microseconds above the highest {\em added level}.\relax }{figure.caption.11}{}}
\@writefile{toc}{\contentsline {subsection}{\numberline {3.3}Splitting-based Anticipatory Wakeup (SAW)}{6}{subsection.3.3}}
\citation{Lee+:LCPC03}
\citation{amdappsdk}
\citation{rodinia}
\@writefile{toc}{\contentsline {section}{\numberline {4}Implementation through Source-to-Source Compiler}{7}{section.4}}
\newlabel{sec:impl}{{4}{7}{Implementation through Source-to-Source Compiler}{section.4}{}}
\@writefile{toc}{\contentsline {section}{\numberline {5}Evaluation}{7}{section.5}}
\newlabel{sec:eval}{{5}{7}{Evaluation}{section.5}{}}
\@writefile{toc}{\contentsline {subsection}{\numberline {5.1}Experiment Setup}{7}{subsection.5.1}}
\@writefile{toc}{\contentsline {subsubsection}{\numberline {5.1.1}Hardware and Software Platforms}{7}{subsubsection.5.1.1}}
\@writefile{toc}{\contentsline {paragraph}{Hardware Platform}{7}{section*.12}}
\@writefile{toc}{\contentsline {paragraph}{OS, Driver and Benchmark}{7}{section*.13}}
\@writefile{toc}{\contentsline {subsubsection}{\numberline {5.1.2}Metrics and Measurement Methods}{7}{subsubsection.5.1.2}}
\@writefile{toc}{\contentsline {paragraph}{Responsiveness}{7}{section*.14}}
\citation{wattsup}
\citation{gonzalez1996energy}
\@writefile{toc}{\contentsline {paragraph}{Power}{8}{section*.15}}
\@writefile{toc}{\contentsline {paragraph}{Predicting accuracy}{8}{section*.16}}
\@writefile{toc}{\contentsline {paragraph}{EDP}{8}{section*.17}}
\@writefile{toc}{\contentsline {paragraph}{Baseline Schemes}{8}{section*.18}}
\@writefile{toc}{\contentsline {subsection}{\numberline {5.2}BAW and TAW}{8}{subsection.5.2}}
\@writefile{toc}{\contentsline {subsubsection}{\numberline {5.2.1}Performance Benefits}{8}{subsubsection.5.2.1}}
\@writefile{lof}{\contentsline {figure}{\numberline {7}{\ignorespaces The speedup over Interrupt.\relax }}{8}{figure.caption.19}}
\newlabel{fig:speedup_BAW}{{7}{8}{The speedup over Interrupt.\relax }{figure.caption.19}{}}
\@writefile{lof}{\contentsline {figure}{\numberline {8}{\ignorespaces Example of runtime fluctuation of repeated kernel execution.\relax }}{8}{figure.caption.20}}
\newlabel{fig:fluctuation}{{8}{8}{Example of runtime fluctuation of repeated kernel execution.\relax }{figure.caption.20}{}}
\@writefile{toc}{\contentsline {subsubsection}{\numberline {5.2.2}Power Benefits}{8}{subsubsection.5.2.2}}
\@writefile{lof}{\contentsline {figure}{\numberline {9}{\ignorespaces Example of predicting accuracy of TAW variants.\relax }}{9}{figure.caption.21}}
\newlabel{fig:hit_rate_BAW}{{9}{9}{Example of predicting accuracy of TAW variants.\relax }{figure.caption.21}{}}
\@writefile{lof}{\contentsline {figure}{\numberline {10}{\ignorespaces The power increase over Interrupt.\relax }}{9}{figure.caption.22}}
\newlabel{fig:power_BAW}{{10}{9}{The power increase over Interrupt.\relax }{figure.caption.22}{}}
\@writefile{toc}{\contentsline {subsubsection}{\numberline {5.2.3}Putting Together: Benefits of EDP}{9}{subsubsection.5.2.3}}
\@writefile{lof}{\contentsline {figure}{\numberline {11}{\ignorespaces The normalized EDP of Busy-polling and TAW variants.\relax }}{9}{figure.caption.23}}
\newlabel{fig:EDP_BAW}{{11}{9}{The normalized EDP of Busy-polling and TAW variants.\relax }{figure.caption.23}{}}
\@writefile{toc}{\contentsline {subsection}{\numberline {5.3}SAW and Auto-selection}{9}{subsection.5.3}}
\@writefile{toc}{\contentsline {paragraph}{Performance issue of SAW}{9}{section*.24}}
\@writefile{toc}{\contentsline {paragraph}{Power gain of SAW}{9}{section*.26}}
\citation{Mekkat+:PACT13}
\citation{Zhu+:LCPC14}
\@writefile{lof}{\contentsline {figure}{\numberline {12}{\ignorespaces The performance improvement over Interrupt of Busy-polling, TAW\_level and SAW\_level.\relax }}{10}{figure.caption.25}}
\newlabel{fig:speedup_BAW_SAW}{{12}{10}{The performance improvement over Interrupt of Busy-polling, TAW\_level and SAW\_level.\relax }{figure.caption.25}{}}
\@writefile{lof}{\contentsline {figure}{\numberline {13}{\ignorespaces The power increment over Interrupt of Busy-polling, BAW\_level and SAW\_level.\relax }}{10}{figure.caption.27}}
\newlabel{fig:power_BAW_SAW}{{13}{10}{The power increment over Interrupt of Busy-polling, BAW\_level and SAW\_level.\relax }{figure.caption.27}{}}
\@writefile{toc}{\contentsline {paragraph}{Normalized EDP of SAW}{10}{section*.28}}
\@writefile{toc}{\contentsline {paragraph}{Automatic selection of the best design}{10}{section*.30}}
\@writefile{lof}{\contentsline {figure}{\numberline {14}{\ignorespaces The normalized EDP of Busy-polling, TAW\_level and SAW\_level.\relax }}{10}{figure.caption.29}}
\newlabel{fig:EDP_BAW_SAW}{{14}{10}{The normalized EDP of Busy-polling, TAW\_level and SAW\_level.\relax }{figure.caption.29}{}}
\@writefile{lof}{\contentsline {figure}{\numberline {15}{\ignorespaces The normalized EDP of Busy-polling and best variant on power efficiency.\relax }}{10}{figure.caption.31}}
\newlabel{fig:EDP_best}{{15}{10}{The normalized EDP of Busy-polling and best variant on power efficiency.\relax }{figure.caption.31}{}}
\@writefile{toc}{\contentsline {subsection}{\numberline {5.4}Influence to co-run programs}{10}{subsection.5.4}}
\@writefile{toc}{\contentsline {section}{\numberline {6}Related Work}{10}{section.6}}
\newlabel{sec:rel}{{6}{10}{Related Work}{section.6}{}}
\citation{MarkatosL:TPDS94}
\citation{Squillante+:TPDS93}
\citation{Gelado+:ASPLOS10}
\citation{Jiang+:PACT08}
\citation{Tian+:CF09}
\citation{Fedorova+:PACT07}
\citation{El-Moursy+:IPDPS06}
\citation{ChangS:ICS07}
\citation{Rafique+:PACT06}
\citation{Suh+:HPCA02}
\citation{QureshiP:MICRO06}
\citation{Zhang+:PPOPP10}
\citation{Jiang+:PACT08}
\citation{Tian+:CF09}
\citation{Fedorova+:PACT07}
\citation{El-Moursy+:IPDPS06}
\citation{Mars+:ISCA13}
\citation{ZahediL:ASPLOS14}
\citation{Menychtas+:ASPLOS14}
\citation{Kato+:USENIX11}
\citation{Menychtas+:ASPLOS14}
\bibstyle{abbrv}
\bibdata{paper}
\bibcite{amdappsdk}{1}
\bibcite{CUDA}{2}
\bibcite{OpenCL}{3}
\bibcite{rodinia}{4}
\bibcite{wattsup}{5}
\bibcite{ChangS:ICS07}{6}
\bibcite{El-Moursy+:IPDPS06}{7}
\bibcite{Fedorova+:PACT07}{8}
\bibcite{Gelado+:ASPLOS10}{9}
\bibcite{gonzalez1996energy}{10}
\bibcite{Gupta+:InPar12}{11}
\bibcite{Jiang+:PACT08}{12}
\bibcite{Kato+:USENIX11}{13}
\@writefile{lof}{\contentsline {figure}{\numberline {16}{\ignorespaces The co-run interference degree of Interrupt, Busy-polling and our best variant.\relax }}{11}{figure.caption.32}}
\newlabel{fig:corun_variant}{{16}{11}{The co-run interference degree of Interrupt, Busy-polling and our best variant.\relax }{figure.caption.32}{}}
\@writefile{toc}{\contentsline {section}{\numberline {7}Conclusion}{11}{section.7}}
\newlabel{sec:con}{{7}{11}{Conclusion}{section.7}{}}
\@writefile{toc}{\contentsline {section}{\numberline {8}References}{11}{section.8}}
\bibcite{Lee+:LCPC03}{14}
\bibcite{MarkatosL:TPDS94}{15}
\bibcite{Mars+:ISCA13}{16}
\bibcite{Mekkat+:PACT13}{17}
\bibcite{Menychtas+:ASPLOS14}{18}
\bibcite{QureshiP:MICRO06}{19}
\bibcite{Rafique+:PACT06}{20}
\bibcite{Squillante+:TPDS93}{21}
\bibcite{Suh+:HPCA02}{22}
\bibcite{Tian+:CF09}{23}
\bibcite{ZahediL:ASPLOS14}{24}
\bibcite{Zhang+:PPOPP10}{25}
\bibcite{Zhu+:LCPC14}{26}
\bibcite{Zhu+:HotOS15}{27}
