%!PS-Adobe-2.0 EPSF-1.2
%%Creator: MATLAB, The MathWorks, Inc. Version 8.1.0.604 (R2013a). Operating System: Linux 3.18.7-100.fc20.x86_64 #1 SMP Wed Feb 11 19:01:50 UTC 2015 x86_64.
%%Title: ./multicore_power.eps
%%CreationDate: 04/18/2015  16:41:03
%%DocumentNeededFonts: Helvetica
%%DocumentProcessColors: Cyan Magenta Yellow Black
%%Extensions: CMYK
%%Pages: 1
%%BoundingBox:    58   331   384   469
%%EndComments

%%BeginProlog
% MathWorks dictionary
/MathWorks 160 dict begin
% definition operators
/bdef {bind def} bind def
/ldef {load def} bind def
/xdef {exch def} bdef
/xstore {exch store} bdef
% operator abbreviations
/c  /clip ldef
/cc /concat ldef
/cp /closepath ldef
/gr /grestore ldef
/gs /gsave ldef
/mt /moveto ldef
/np /newpath ldef
/cm /currentmatrix ldef
/sm /setmatrix ldef
/rm /rmoveto ldef
/rl /rlineto ldef
/s {show newpath} bdef
/sc {setcmykcolor} bdef
/sr /setrgbcolor ldef
/sg /setgray ldef
/w /setlinewidth ldef
/j /setlinejoin ldef
/cap /setlinecap ldef
/rc {rectclip} bdef
/rf {rectfill} bdef
% page state control
/pgsv () def
/bpage {/pgsv save def} bdef
/epage {pgsv restore} bdef
/bplot /gsave ldef
/eplot {stroke grestore} bdef
% orientation switch
/portraitMode 0 def /landscapeMode 1 def /rotateMode 2 def
% coordinate system mappings
/dpi2point 0 def
% font control
/FontSize 0 def
/FMS {/FontSize xstore findfont [FontSize 0 0 FontSize neg 0 0]
  makefont setfont} bdef
/reencode {exch dup where {pop load} {pop StandardEncoding} ifelse
  exch dup 3 1 roll findfont dup length dict begin
  { 1 index /FID ne {def}{pop pop} ifelse } forall
  /Encoding exch def currentdict end definefont pop} bdef
/isroman {findfont /CharStrings get /Agrave known} bdef
/FMSR {3 1 roll 1 index dup isroman {reencode} {pop pop} ifelse
  exch FMS} bdef
/csm {1 dpi2point div -1 dpi2point div scale neg translate
 dup landscapeMode eq {pop -90 rotate}
  {rotateMode eq {90 rotate} if} ifelse} bdef
% line types: solid, dotted, dashed, dotdash
/SO { [] 0 setdash } bdef
/DO { [.5 dpi2point mul 4 dpi2point mul] 0 setdash } bdef
/DA { [6 dpi2point mul] 0 setdash } bdef
/DD { [.5 dpi2point mul 4 dpi2point mul 6 dpi2point mul 4
  dpi2point mul] 0 setdash } bdef
% macros for lines and objects
/L {lineto stroke} bdef
/MP {3 1 roll moveto 1 sub {rlineto} repeat} bdef
/AP {{rlineto} repeat} bdef
/PDlw -1 def
/W {/PDlw currentlinewidth def setlinewidth} def
/PP {closepath eofill} bdef
/DP {closepath stroke} bdef
/MR {4 -2 roll moveto dup  0 exch rlineto exch 0 rlineto
  neg 0 exch rlineto closepath} bdef
/FR {MR stroke} bdef
/PR {MR fill} bdef
/L1i {{currentfile picstr readhexstring pop} image} bdef
/tMatrix matrix def
/MakeOval {newpath tMatrix currentmatrix pop translate scale
0 0 1 0 360 arc tMatrix setmatrix} bdef
/FO {MakeOval stroke} bdef
/PO {MakeOval fill} bdef
/PD {currentlinewidth 2 div 0 360 arc fill
   PDlw -1 eq not {PDlw w /PDlw -1 def} if} def
/FA {newpath tMatrix currentmatrix pop translate scale
  0 0 1 5 -2 roll arc tMatrix setmatrix stroke} bdef
/PA {newpath tMatrix currentmatrix pop	translate 0 0 moveto scale
  0 0 1 5 -2 roll arc closepath tMatrix setmatrix fill} bdef
/FAn {newpath tMatrix currentmatrix pop translate scale
  0 0 1 5 -2 roll arcn tMatrix setmatrix stroke} bdef
/PAn {newpath tMatrix currentmatrix pop translate 0 0 moveto scale
  0 0 1 5 -2 roll arcn closepath tMatrix setmatrix fill} bdef
/vradius 0 def /hradius 0 def /lry 0 def
/lrx 0 def /uly 0 def /ulx 0 def /rad 0 def
/MRR {/vradius xdef /hradius xdef /lry xdef /lrx xdef /uly xdef
  /ulx xdef newpath tMatrix currentmatrix pop ulx hradius add uly
  vradius add translate hradius vradius scale 0 0 1 180 270 arc 
  tMatrix setmatrix lrx hradius sub uly vradius add translate
  hradius vradius scale 0 0 1 270 360 arc tMatrix setmatrix
  lrx hradius sub lry vradius sub translate hradius vradius scale
  0 0 1 0 90 arc tMatrix setmatrix ulx hradius add lry vradius sub
  translate hradius vradius scale 0 0 1 90 180 arc tMatrix setmatrix
  closepath} bdef
/FRR {MRR stroke } bdef
/PRR {MRR fill } bdef
/MlrRR {/lry xdef /lrx xdef /uly xdef /ulx xdef /rad lry uly sub 2 div def
  newpath tMatrix currentmatrix pop ulx rad add uly rad add translate
  rad rad scale 0 0 1 90 270 arc tMatrix setmatrix lrx rad sub lry rad
  sub translate rad rad scale 0 0 1 270 90 arc tMatrix setmatrix
  closepath} bdef
/FlrRR {MlrRR stroke } bdef
/PlrRR {MlrRR fill } bdef
/MtbRR {/lry xdef /lrx xdef /uly xdef /ulx xdef /rad lrx ulx sub 2 div def
  newpath tMatrix currentmatrix pop ulx rad add uly rad add translate
  rad rad scale 0 0 1 180 360 arc tMatrix setmatrix lrx rad sub lry rad
  sub translate rad rad scale 0 0 1 0 180 arc tMatrix setmatrix
  closepath} bdef
/FtbRR {MtbRR stroke } bdef
/PtbRR {MtbRR fill } bdef
/stri 6 array def /dtri 6 array def
/smat 6 array def /dmat 6 array def
/tmat1 6 array def /tmat2 6 array def /dif 3 array def
/asub {/ind2 exch def /ind1 exch def dup dup
  ind1 get exch ind2 get sub exch } bdef
/tri_to_matrix {
  2 0 asub 3 1 asub 4 0 asub 5 1 asub
  dup 0 get exch 1 get 7 -1 roll astore } bdef
/compute_transform {
  dmat dtri tri_to_matrix tmat1 invertmatrix 
  smat stri tri_to_matrix tmat2 concatmatrix } bdef
/ds {stri astore pop} bdef
/dt {dtri astore pop} bdef
/db {2 copy /cols xdef /rows xdef mul dup 3 mul string
  currentfile exch readhexstring pop
  dup 0 3 index getinterval /rbmap xdef
  dup 2 index dup getinterval /gbmap xdef
  1 index dup 2 mul exch getinterval /bbmap xdef pop pop}bdef
/it {gs np dtri aload pop moveto lineto lineto cp c
  cols rows 8 compute_transform 
  rbmap gbmap bbmap true 3 colorimage gr}bdef
/il {newpath moveto lineto stroke}bdef
currentdict end def
%%EndProlog

%%BeginSetup
MathWorks begin

0 cap

end
%%EndSetup

%%Page: 1 1
%%BeginPageSetup
%%PageBoundingBox:    58   331   384   469
MathWorks begin
bpage
%%EndPageSetup

%%BeginObject: obj1
bplot

/dpi2point 12 def
portraitMode 0216 7344 csm

  480  1714  3913  1650 MR c np
85 dict begin %Colortable dictionary
/c0 { 0.000000 0.000000 0.000000 sr} bdef
/c1 { 1.000000 1.000000 1.000000 sr} bdef
/c2 { 0.900000 0.000000 0.000000 sr} bdef
/c3 { 0.000000 0.820000 0.000000 sr} bdef
/c4 { 0.000000 0.000000 0.800000 sr} bdef
/c5 { 0.910000 0.820000 0.320000 sr} bdef
/c6 { 1.000000 0.260000 0.820000 sr} bdef
/c7 { 0.000000 0.820000 0.820000 sr} bdef
c0
1 j
1 sg
   0    0 6913 5186 PR
6 w
0 1075 1475 0 0 -1075 899 3047 4 MP
PP
-1475 0 0 1075 1475 0 0 -1075 899 3047 5 MP stroke
4 w
DO
SO
6 w
0 sg
 899 3047 mt 2374 3047 L
 899 3047 mt  899 1972 L
 955 3047 mt  955 3032 L
%%IncludeResource: font Helvetica
/Helvetica /ISOLatin1Encoding 108 FMSR

 925 3181 mt 
(0) s
1296 3047 mt 1296 3032 L
1266 3181 mt 
(6) s
1636 3047 mt 1636 3032 L
1576 3181 mt 
(12) s
1976 3047 mt 1976 3032 L
1916 3181 mt 
(18) s
2317 3047 mt 2317 3032 L
2257 3181 mt 
(24) s
 899 3047 mt  913 3047 L
 804 3087 mt 
(0) s
 899 2509 mt  913 2509 L
 744 2549 mt 
(50) s
 899 1972 mt  913 1972 L
 684 2012 mt 
(100) s
gs 899 1972 1476 1076 MR c np
/c8 { 1.000000 0.781200 0.497500 sr} bdef
c8
0 151 23 0 0 -151 944 3047 4 MP
PP
0 sg
-23 0 0 151 23 0 0 -151 944 3047 5 MP stroke
0 544 22 0 0 -544 1001 3047 4 MP
PP
-22 0 0 544 22 0 0 -544 1001 3047 5 MP stroke
0 631 23 0 0 -631 1057 3047 4 MP
PP
-23 0 0 631 23 0 0 -631 1057 3047 5 MP stroke
0 686 23 0 0 -686 1114 3047 4 MP
PP
-23 0 0 686 23 0 0 -686 1114 3047 5 MP stroke
0 751 23 0 0 -751 1171 3047 4 MP
PP
-23 0 0 751 23 0 0 -751 1171 3047 5 MP stroke
0 795 22 0 0 -795 1228 3047 4 MP
PP
-22 0 0 795 22 0 0 -795 1228 3047 5 MP stroke
0 824 23 0 0 -824 1284 3047 4 MP
PP
-23 0 0 824 23 0 0 -824 1284 3047 5 MP stroke
0 852 23 0 0 -852 1341 3047 4 MP
PP
-23 0 0 852 23 0 0 -852 1341 3047 5 MP stroke
0 879 22 0 0 -879 1398 3047 4 MP
PP
-22 0 0 879 22 0 0 -879 1398 3047 5 MP stroke
0 888 23 0 0 -888 1454 3047 4 MP
PP
-23 0 0 888 23 0 0 -888 1454 3047 5 MP stroke
0 913 23 0 0 -913 1511 3047 4 MP
PP
-23 0 0 913 23 0 0 -913 1511 3047 5 MP stroke
0 937 23 0 0 -937 1568 3047 4 MP
PP
-23 0 0 937 23 0 0 -937 1568 3047 5 MP stroke
0 954 22 0 0 -954 1625 3047 4 MP
PP
-22 0 0 954 22 0 0 -954 1625 3047 5 MP stroke
0 955 23 0 0 -955 1681 3047 4 MP
PP
-23 0 0 955 23 0 0 -955 1681 3047 5 MP stroke
0 956 23 0 0 -956 1738 3047 4 MP
PP
-23 0 0 956 23 0 0 -956 1738 3047 5 MP stroke
0 959 23 0 0 -959 1795 3047 4 MP
PP
-23 0 0 959 23 0 0 -959 1795 3047 5 MP stroke
0 968 22 0 0 -968 1852 3047 4 MP
PP
-22 0 0 968 22 0 0 -968 1852 3047 5 MP stroke
0 978 23 0 0 -978 1908 3047 4 MP
PP
-23 0 0 978 23 0 0 -978 1908 3047 5 MP stroke
0 976 23 0 0 -976 1965 3047 4 MP
PP
-23 0 0 976 23 0 0 -976 1965 3047 5 MP stroke
0 982 22 0 0 -982 2022 3047 4 MP
PP
-22 0 0 982 22 0 0 -982 2022 3047 5 MP stroke
0 982 22 0 0 -982 2079 3047 4 MP
PP
-22 0 0 982 22 0 0 -982 2079 3047 5 MP stroke
0 982 23 0 0 -982 2135 3047 4 MP
PP
-23 0 0 982 23 0 0 -982 2135 3047 5 MP stroke
0 985 23 0 0 -985 2192 3047 4 MP
PP
-23 0 0 985 23 0 0 -985 2192 3047 5 MP stroke
0 988 22 0 0 -988 2249 3047 4 MP
PP
-22 0 0 988 22 0 0 -988 2249 3047 5 MP stroke
0 995 23 0 0 -995 2305 3047 4 MP
PP
-23 0 0 995 23 0 0 -995 2305 3047 5 MP stroke
1475 0 899 3047 2 MP stroke
gr

1072 3315 mt 
(Number of active CPUs) s
 605 3162 mt  -90 rotate
(CPU+DRAM power \(Watts\)) s
90 rotate
1018 1887 mt 
(\(A\) Haswell-based server) s
1 sg
0 1075 1475 0 0 -1075 2839 3047 4 MP
PP
-1475 0 0 1075 1475 0 0 -1075 2839 3047 5 MP stroke
4 w
DO
SO
6 w
0 sg
2839 3047 mt 4314 3047 L
2839 3047 mt 2839 1972 L
2986 3047 mt 2986 3032 L
2956 3181 mt 
(0) s
3576 3047 mt 3576 3032 L
3546 3181 mt 
(4) s
4166 3047 mt 4166 3032 L
4136 3181 mt 
(8) s
2839 3047 mt 2853 3047 L
2744 3087 mt 
(0) s
2839 2791 mt 2853 2791 L
2744 2831 mt 
(1) s
2839 2535 mt 2853 2535 L
2744 2575 mt 
(2) s
2839 2279 mt 2853 2279 L
2744 2319 mt 
(3) s
2839 2023 mt 2853 2023 L
2744 2063 mt 
(4) s
gs 2839 1972 1476 1076 MR c np
c8
0 128 59 0 0 -128 2957 3047 4 MP
PP
0 sg
-59 0 0 128 59 0 0 -128 2957 3047 5 MP stroke
c8
0 190 59 0 0 -190 3104 3047 4 MP
PP
0 sg
-59 0 0 190 59 0 0 -190 3104 3047 5 MP stroke
c8
0 221 59 0 0 -221 3252 3047 4 MP
PP
0 sg
-59 0 0 221 59 0 0 -221 3252 3047 5 MP stroke
c8
0 259 59 0 0 -259 3399 3047 4 MP
PP
0 sg
-59 0 0 259 59 0 0 -259 3399 3047 5 MP stroke
c8
0 305 59 0 0 -305 3547 3047 4 MP
PP
0 sg
-59 0 0 305 59 0 0 -305 3547 3047 5 MP stroke
0 587 59 0 0 -587 3694 3047 4 MP
PP
-59 0 0 587 59 0 0 -587 3694 3047 5 MP stroke
0 738 59 0 0 -738 3842 3047 4 MP
PP
-59 0 0 738 59 0 0 -738 3842 3047 5 MP stroke
0 907 59 0 0 -907 3989 3047 4 MP
PP
-59 0 0 907 59 0 0 -907 3989 3047 5 MP stroke
0 1060 59 0 0 -1060 4137 3047 4 MP
PP
-59 0 0 1060 59 0 0 -1060 4137 3047 5 MP stroke
1475 0 2839 3047 2 MP stroke
gr

3012 3315 mt 
(Number of active CPUs) s
2665 3154 mt  -90 rotate
(Smartphone power \(Watts\)) s
90 rotate
2831 1887 mt 
(\(B\) Exynos-based smartphone) s

end %%Color Dict

eplot
%%EndObject

epage
end

showpage

%%Trailer
%%EOF
