%!PS-Adobe-2.0 EPSF-1.2
%%Creator: MATLAB, The MathWorks, Inc. Version 8.1.0.604 (R2013a). Operating System: Linux 3.17.4-200.fc20.x86_64 #1 SMP Fri Nov 21 23:26:41 UTC 2014 x86_64.
%%Title: ./multicore_power.eps
%%CreationDate: 01/07/2015  15:45:58
%%DocumentNeededFonts: Helvetica
%%DocumentProcessColors: Cyan Magenta Yellow Black
%%Extensions: CMYK
%%Pages: 1
%%BoundingBox:    60   461   289   588
%%EndComments

%%BeginProlog
% MathWorks dictionary
/MathWorks 160 dict begin
% definition operators
/bdef {bind def} bind def
/ldef {load def} bind def
/xdef {exch def} bdef
/xstore {exch store} bdef
% operator abbreviations
/c  /clip ldef
/cc /concat ldef
/cp /closepath ldef
/gr /grestore ldef
/gs /gsave ldef
/mt /moveto ldef
/np /newpath ldef
/cm /currentmatrix ldef
/sm /setmatrix ldef
/rm /rmoveto ldef
/rl /rlineto ldef
/s {show newpath} bdef
/sc {setcmykcolor} bdef
/sr /setrgbcolor ldef
/sg /setgray ldef
/w /setlinewidth ldef
/j /setlinejoin ldef
/cap /setlinecap ldef
/rc {rectclip} bdef
/rf {rectfill} bdef
% page state control
/pgsv () def
/bpage {/pgsv save def} bdef
/epage {pgsv restore} bdef
/bplot /gsave ldef
/eplot {stroke grestore} bdef
% orientation switch
/portraitMode 0 def /landscapeMode 1 def /rotateMode 2 def
% coordinate system mappings
/dpi2point 0 def
% font control
/FontSize 0 def
/FMS {/FontSize xstore findfont [FontSize 0 0 FontSize neg 0 0]
  makefont setfont} bdef
/reencode {exch dup where {pop load} {pop StandardEncoding} ifelse
  exch dup 3 1 roll findfont dup length dict begin
  { 1 index /FID ne {def}{pop pop} ifelse } forall
  /Encoding exch def currentdict end definefont pop} bdef
/isroman {findfont /CharStrings get /Agrave known} bdef
/FMSR {3 1 roll 1 index dup isroman {reencode} {pop pop} ifelse
  exch FMS} bdef
/csm {1 dpi2point div -1 dpi2point div scale neg translate
 dup landscapeMode eq {pop -90 rotate}
  {rotateMode eq {90 rotate} if} ifelse} bdef
% line types: solid, dotted, dashed, dotdash
/SO { [] 0 setdash } bdef
/DO { [.5 dpi2point mul 4 dpi2point mul] 0 setdash } bdef
/DA { [6 dpi2point mul] 0 setdash } bdef
/DD { [.5 dpi2point mul 4 dpi2point mul 6 dpi2point mul 4
  dpi2point mul] 0 setdash } bdef
% macros for lines and objects
/L {lineto stroke} bdef
/MP {3 1 roll moveto 1 sub {rlineto} repeat} bdef
/AP {{rlineto} repeat} bdef
/PDlw -1 def
/W {/PDlw currentlinewidth def setlinewidth} def
/PP {closepath eofill} bdef
/DP {closepath stroke} bdef
/MR {4 -2 roll moveto dup  0 exch rlineto exch 0 rlineto
  neg 0 exch rlineto closepath} bdef
/FR {MR stroke} bdef
/PR {MR fill} bdef
/L1i {{currentfile picstr readhexstring pop} image} bdef
/tMatrix matrix def
/MakeOval {newpath tMatrix currentmatrix pop translate scale
0 0 1 0 360 arc tMatrix setmatrix} bdef
/FO {MakeOval stroke} bdef
/PO {MakeOval fill} bdef
/PD {currentlinewidth 2 div 0 360 arc fill
   PDlw -1 eq not {PDlw w /PDlw -1 def} if} def
/FA {newpath tMatrix currentmatrix pop translate scale
  0 0 1 5 -2 roll arc tMatrix setmatrix stroke} bdef
/PA {newpath tMatrix currentmatrix pop	translate 0 0 moveto scale
  0 0 1 5 -2 roll arc closepath tMatrix setmatrix fill} bdef
/FAn {newpath tMatrix currentmatrix pop translate scale
  0 0 1 5 -2 roll arcn tMatrix setmatrix stroke} bdef
/PAn {newpath tMatrix currentmatrix pop translate 0 0 moveto scale
  0 0 1 5 -2 roll arcn closepath tMatrix setmatrix fill} bdef
/vradius 0 def /hradius 0 def /lry 0 def
/lrx 0 def /uly 0 def /ulx 0 def /rad 0 def
/MRR {/vradius xdef /hradius xdef /lry xdef /lrx xdef /uly xdef
  /ulx xdef newpath tMatrix currentmatrix pop ulx hradius add uly
  vradius add translate hradius vradius scale 0 0 1 180 270 arc 
  tMatrix setmatrix lrx hradius sub uly vradius add translate
  hradius vradius scale 0 0 1 270 360 arc tMatrix setmatrix
  lrx hradius sub lry vradius sub translate hradius vradius scale
  0 0 1 0 90 arc tMatrix setmatrix ulx hradius add lry vradius sub
  translate hradius vradius scale 0 0 1 90 180 arc tMatrix setmatrix
  closepath} bdef
/FRR {MRR stroke } bdef
/PRR {MRR fill } bdef
/MlrRR {/lry xdef /lrx xdef /uly xdef /ulx xdef /rad lry uly sub 2 div def
  newpath tMatrix currentmatrix pop ulx rad add uly rad add translate
  rad rad scale 0 0 1 90 270 arc tMatrix setmatrix lrx rad sub lry rad
  sub translate rad rad scale 0 0 1 270 90 arc tMatrix setmatrix
  closepath} bdef
/FlrRR {MlrRR stroke } bdef
/PlrRR {MlrRR fill } bdef
/MtbRR {/lry xdef /lrx xdef /uly xdef /ulx xdef /rad lrx ulx sub 2 div def
  newpath tMatrix currentmatrix pop ulx rad add uly rad add translate
  rad rad scale 0 0 1 180 360 arc tMatrix setmatrix lrx rad sub lry rad
  sub translate rad rad scale 0 0 1 0 180 arc tMatrix setmatrix
  closepath} bdef
/FtbRR {MtbRR stroke } bdef
/PtbRR {MtbRR fill } bdef
/stri 6 array def /dtri 6 array def
/smat 6 array def /dmat 6 array def
/tmat1 6 array def /tmat2 6 array def /dif 3 array def
/asub {/ind2 exch def /ind1 exch def dup dup
  ind1 get exch ind2 get sub exch } bdef
/tri_to_matrix {
  2 0 asub 3 1 asub 4 0 asub 5 1 asub
  dup 0 get exch 1 get 7 -1 roll astore } bdef
/compute_transform {
  dmat dtri tri_to_matrix tmat1 invertmatrix 
  smat stri tri_to_matrix tmat2 concatmatrix } bdef
/ds {stri astore pop} bdef
/dt {dtri astore pop} bdef
/db {2 copy /cols xdef /rows xdef mul dup 3 mul string
  currentfile exch readhexstring pop
  dup 0 3 index getinterval /rbmap xdef
  dup 2 index dup getinterval /gbmap xdef
  1 index dup 2 mul exch getinterval /bbmap xdef pop pop}bdef
/it {gs np dtri aload pop moveto lineto lineto cp c
  cols rows 8 compute_transform 
  rbmap gbmap bbmap true 3 colorimage gr}bdef
/il {newpath moveto lineto stroke}bdef
currentdict end def
%%EndProlog

%%BeginSetup
MathWorks begin

0 cap

end
%%EndSetup

%%Page: 1 1
%%BeginPageSetup
%%PageBoundingBox:    60   461   289   588
MathWorks begin
bpage
%%EndPageSetup

%%BeginObject: obj1
bplot

/dpi2point 12 def
portraitMode 0216 7344 csm

  514   287  2748  1514 MR c np
85 dict begin %Colortable dictionary
/c0 { 0.000000 0.000000 0.000000 sr} bdef
/c1 { 1.000000 1.000000 1.000000 sr} bdef
/c2 { 0.900000 0.000000 0.000000 sr} bdef
/c3 { 0.000000 0.820000 0.000000 sr} bdef
/c4 { 0.000000 0.000000 0.800000 sr} bdef
/c5 { 0.910000 0.820000 0.320000 sr} bdef
/c6 { 1.000000 0.260000 0.820000 sr} bdef
/c7 { 0.000000 0.820000 0.820000 sr} bdef
c0
1 j
1 sg
   0    0 6913 5186 PR
6 w
0 1118 2313 0 0 -1118 899 1507 4 MP
PP
-2313 0 0 1118 2313 0 0 -1118 899 1507 5 MP stroke
4 w
DO
SO
6 w
0 sg
 899 1507 mt 3212 1507 L
 899 1507 mt  899  389 L
 954 1507 mt  954 1483 L
%%IncludeResource: font Helvetica
/Helvetica /ISOLatin1Encoding 96 FMSR

 928 1630 mt 
(0) s
1009 1507 mt 1009 1483 L
 983 1630 mt 
(1) s
1504 1507 mt 1504 1483 L
1451 1630 mt 
(10) s
2055 1507 mt 2055 1483 L
2002 1630 mt 
(20) s
2606 1507 mt 2606 1483 L
2553 1630 mt 
(30) s
3156 1507 mt 3156 1483 L
3103 1630 mt 
(40) s
 899 1507 mt  922 1507 L
 811 1542 mt 
(0) s
 899 1283 mt  922 1283 L
 758 1318 mt 
(20) s
 899 1059 mt  922 1059 L
 758 1094 mt 
(40) s
 899  836 mt  922  836 L
 758  871 mt 
(60) s
 899  612 mt  922  612 L
 758  647 mt 
(80) s
 899  389 mt  922  389 L
 704  424 mt 
(100) s
gs 899 389 2314 1119 MR c np
/c8 { 1.000000 0.781200 0.497500 sr} bdef
c8
0 53 22 0 0 -53 943 1507 4 MP
PP
0 sg
-22 0 0 53 22 0 0 -53 943 1507 5 MP stroke
0 458 22 0 0 -458 998 1507 4 MP
PP
-22 0 0 458 22 0 0 -458 998 1507 5 MP stroke
0 511 22 0 0 -511 1053 1507 4 MP
PP
-22 0 0 511 22 0 0 -511 1053 1507 5 MP stroke
0 540 22 0 0 -540 1108 1507 4 MP
PP
-22 0 0 540 22 0 0 -540 1108 1507 5 MP stroke
0 565 22 0 0 -565 1163 1507 4 MP
PP
-22 0 0 565 22 0 0 -565 1163 1507 5 MP stroke
0 593 22 0 0 -593 1218 1507 4 MP
PP
-22 0 0 593 22 0 0 -593 1218 1507 5 MP stroke
0 619 22 0 0 -619 1273 1507 4 MP
PP
-22 0 0 619 22 0 0 -619 1273 1507 5 MP stroke
0 649 22 0 0 -649 1328 1507 4 MP
PP
-22 0 0 649 22 0 0 -649 1328 1507 5 MP stroke
0 679 22 0 0 -679 1383 1507 4 MP
PP
-22 0 0 679 22 0 0 -679 1383 1507 5 MP stroke
0 708 22 0 0 -708 1438 1507 4 MP
PP
-22 0 0 708 22 0 0 -708 1438 1507 5 MP stroke
0 735 22 0 0 -735 1493 1507 4 MP
PP
-22 0 0 735 22 0 0 -735 1493 1507 5 MP stroke
0 769 22 0 0 -769 1548 1507 4 MP
PP
-22 0 0 769 22 0 0 -769 1548 1507 5 MP stroke
0 795 22 0 0 -795 1603 1507 4 MP
PP
-22 0 0 795 22 0 0 -795 1603 1507 5 MP stroke
0 827 23 0 0 -827 1658 1507 4 MP
PP
-23 0 0 827 23 0 0 -827 1658 1507 5 MP stroke
0 856 22 0 0 -856 1714 1507 4 MP
PP
-22 0 0 856 22 0 0 -856 1714 1507 5 MP stroke
0 887 22 0 0 -887 1769 1507 4 MP
PP
-22 0 0 887 22 0 0 -887 1769 1507 5 MP stroke
0 914 22 0 0 -914 1824 1507 4 MP
PP
-22 0 0 914 22 0 0 -914 1824 1507 5 MP stroke
0 946 22 0 0 -946 1879 1507 4 MP
PP
-22 0 0 946 22 0 0 -946 1879 1507 5 MP stroke
0 977 22 0 0 -977 1934 1507 4 MP
PP
-22 0 0 977 22 0 0 -977 1934 1507 5 MP stroke
0 1008 22 0 0 -1008 1989 1507 4 MP
PP
-22 0 0 1008 22 0 0 -1008 1989 1507 5 MP stroke
0 1038 22 0 0 -1038 2044 1507 4 MP
PP
-22 0 0 1038 22 0 0 -1038 2044 1507 5 MP stroke
0 1044 22 0 0 -1044 2099 1507 4 MP
PP
-22 0 0 1044 22 0 0 -1044 2099 1507 5 MP stroke
0 1046 22 0 0 -1046 2154 1507 4 MP
PP
-22 0 0 1046 22 0 0 -1046 2154 1507 5 MP stroke
0 1047 22 0 0 -1047 2209 1507 4 MP
PP
-22 0 0 1047 22 0 0 -1047 2209 1507 5 MP stroke
0 1051 22 0 0 -1051 2264 1507 4 MP
PP
-22 0 0 1051 22 0 0 -1051 2264 1507 5 MP stroke
0 1056 22 0 0 -1056 2319 1507 4 MP
PP
-22 0 0 1056 22 0 0 -1056 2319 1507 5 MP stroke
0 1057 22 0 0 -1057 2374 1507 4 MP
PP
-22 0 0 1057 22 0 0 -1057 2374 1507 5 MP stroke
0 1060 23 0 0 -1060 2429 1507 4 MP
PP
-23 0 0 1060 23 0 0 -1060 2429 1507 5 MP stroke
0 1068 22 0 0 -1068 2485 1507 4 MP
PP
-22 0 0 1068 22 0 0 -1068 2485 1507 5 MP stroke
0 1067 22 0 0 -1067 2540 1507 4 MP
PP
-22 0 0 1067 22 0 0 -1067 2540 1507 5 MP stroke
0 1073 22 0 0 -1073 2595 1507 4 MP
PP
-22 0 0 1073 22 0 0 -1073 2595 1507 5 MP stroke
0 1074 22 0 0 -1074 2650 1507 4 MP
PP
-22 0 0 1074 22 0 0 -1074 2650 1507 5 MP stroke
0 1076 22 0 0 -1076 2705 1507 4 MP
PP
-22 0 0 1076 22 0 0 -1076 2705 1507 5 MP stroke
0 1077 22 0 0 -1077 2760 1507 4 MP
PP
-22 0 0 1077 22 0 0 -1077 2760 1507 5 MP stroke
0 1080 22 0 0 -1080 2815 1507 4 MP
PP
-22 0 0 1080 22 0 0 -1080 2815 1507 5 MP stroke
0 1084 22 0 0 -1084 2870 1507 4 MP
PP
-22 0 0 1084 22 0 0 -1084 2870 1507 5 MP stroke
0 1086 22 0 0 -1086 2925 1507 4 MP
PP
-22 0 0 1086 22 0 0 -1086 2925 1507 5 MP stroke
0 1087 22 0 0 -1087 2980 1507 4 MP
PP
-22 0 0 1087 22 0 0 -1087 2980 1507 5 MP stroke
0 1088 22 0 0 -1088 3035 1507 4 MP
PP
-22 0 0 1088 22 0 0 -1088 3035 1507 5 MP stroke
0 1094 22 0 0 -1094 3090 1507 4 MP
PP
-22 0 0 1094 22 0 0 -1094 3090 1507 5 MP stroke
0 1096 22 0 0 -1096 3145 1507 4 MP
PP
-22 0 0 1096 22 0 0 -1096 3145 1507 5 MP stroke
2313 0 899 1507 2 MP stroke
gr

1554 1755 mt 
(Number of active CPUs) s
 628 1491 mt  -90 rotate
(Package power \(in Watts\)) s
90 rotate

end %%Color Dict

eplot
%%EndObject

epage
end

showpage

%%Trailer
%%EOF
