%!PS-Adobe-3.0 EPSF-3.0
%Produced by poppler pdftops version: 0.24.1 (http://poppler.freedesktop.org)
%%Creator: TeX
%%LanguageLevel: 2
%%DocumentSuppliedResources: (atend)
%%BoundingBox: 0 0 182 132
%%HiResBoundingBox: 0 0 182 132
%%DocumentSuppliedResources: (atend)
%%EndComments
%%BeginProlog
%%BeginResource: procset xpdf 3.00 0
%%Copyright: Copyright 1996-2011 Glyph & Cog, LLC
/xpdf 75 dict def xpdf begin
% PDF special state
/pdfDictSize 15 def
/pdfSetup {
  /setpagedevice where {
    pop 2 dict begin
      /Policies 1 dict dup begin /PageSize 6 def end def
      { /Duplex true def } if
    currentdict end setpagedevice
  } {
    pop
  } ifelse
} def
/pdfSetupPaper {
  2 array astore
  /setpagedevice where {
    pop 2 dict begin
      /PageSize exch def
      /ImagingBBox null def
    currentdict end setpagedevice
  } {
    pop
  } ifelse
} def
/pdfStartPage {
  pdfDictSize dict begin
  /pdfFillCS [] def
  /pdfFillXform {} def
  /pdfStrokeCS [] def
  /pdfStrokeXform {} def
  /pdfFill [0] def
  /pdfStroke [0] def
  /pdfFillOP false def
  /pdfStrokeOP false def
  /pdfLastFill false def
  /pdfLastStroke false def
  /pdfTextMat [1 0 0 1 0 0] def
  /pdfFontSize 0 def
  /pdfCharSpacing 0 def
  /pdfTextRender 0 def
  /pdfPatternCS false def
  /pdfTextRise 0 def
  /pdfWordSpacing 0 def
  /pdfHorizScaling 1 def
  /pdfTextClipPath [] def
} def
/pdfEndPage { end } def
% PDF color state
/cs { /pdfFillXform exch def dup /pdfFillCS exch def
      setcolorspace } def
/CS { /pdfStrokeXform exch def dup /pdfStrokeCS exch def
      setcolorspace } def
/sc { pdfLastFill not { pdfFillCS setcolorspace } if
      dup /pdfFill exch def aload pop pdfFillXform setcolor
     /pdfLastFill true def /pdfLastStroke false def } def
/SC { pdfLastStroke not { pdfStrokeCS setcolorspace } if
      dup /pdfStroke exch def aload pop pdfStrokeXform setcolor
     /pdfLastStroke true def /pdfLastFill false def } def
/op { /pdfFillOP exch def
      pdfLastFill { pdfFillOP setoverprint } if } def
/OP { /pdfStrokeOP exch def
      pdfLastStroke { pdfStrokeOP setoverprint } if } def
/fCol {
  pdfLastFill not {
    pdfFillCS setcolorspace
    pdfFill aload pop pdfFillXform setcolor
    pdfFillOP setoverprint
    /pdfLastFill true def /pdfLastStroke false def
  } if
} def
/sCol {
  pdfLastStroke not {
    pdfStrokeCS setcolorspace
    pdfStroke aload pop pdfStrokeXform setcolor
    pdfStrokeOP setoverprint
    /pdfLastStroke true def /pdfLastFill false def
  } if
} def
% build a font
/pdfMakeFont {
  4 3 roll findfont
  4 2 roll matrix scale makefont
  dup length dict begin
    { 1 index /FID ne { def } { pop pop } ifelse } forall
    /Encoding exch def
    currentdict
  end
  definefont pop
} def
/pdfMakeFont16 {
  exch findfont
  dup length dict begin
    { 1 index /FID ne { def } { pop pop } ifelse } forall
    /WMode exch def
    currentdict
  end
  definefont pop
} def
% graphics state operators
/q { gsave pdfDictSize dict begin } def
/Q {
  end grestore
  /pdfLastFill where {
    pop
    pdfLastFill {
      pdfFillOP setoverprint
    } {
      pdfStrokeOP setoverprint
    } ifelse
  } if
} def
/cm { concat } def
/d { setdash } def
/i { setflat } def
/j { setlinejoin } def
/J { setlinecap } def
/M { setmiterlimit } def
/w { setlinewidth } def
% path segment operators
/m { moveto } def
/l { lineto } def
/c { curveto } def
/re { 4 2 roll moveto 1 index 0 rlineto 0 exch rlineto
      neg 0 rlineto closepath } def
/h { closepath } def
% path painting operators
/S { sCol stroke } def
/Sf { fCol stroke } def
/f { fCol fill } def
/f* { fCol eofill } def
% clipping operators
/W { clip newpath } def
/W* { eoclip newpath } def
/Ws { strokepath clip newpath } def
% text state operators
/Tc { /pdfCharSpacing exch def } def
/Tf { dup /pdfFontSize exch def
      dup pdfHorizScaling mul exch matrix scale
      pdfTextMat matrix concatmatrix dup 4 0 put dup 5 0 put
      exch findfont exch makefont setfont } def
/Tr { /pdfTextRender exch def } def
/Tp { /pdfPatternCS exch def } def
/Ts { /pdfTextRise exch def } def
/Tw { /pdfWordSpacing exch def } def
/Tz { /pdfHorizScaling exch def } def
% text positioning operators
/Td { pdfTextMat transform moveto } def
/Tm { /pdfTextMat exch def } def
% text string operators
/xyshow where {
  pop
  /xyshow2 {
    dup length array
    0 2 2 index length 1 sub {
      2 index 1 index 2 copy get 3 1 roll 1 add get
      pdfTextMat dtransform
      4 2 roll 2 copy 6 5 roll put 1 add 3 1 roll dup 4 2 roll put
    } for
    exch pop
    xyshow
  } def
}{
  /xyshow2 {
    currentfont /FontType get 0 eq {
      0 2 3 index length 1 sub {
        currentpoint 4 index 3 index 2 getinterval show moveto
        2 copy get 2 index 3 2 roll 1 add get
        pdfTextMat dtransform rmoveto
      } for
    } {
      0 1 3 index length 1 sub {
        currentpoint 4 index 3 index 1 getinterval show moveto
        2 copy 2 mul get 2 index 3 2 roll 2 mul 1 add get
        pdfTextMat dtransform rmoveto
      } for
    } ifelse
    pop pop
  } def
} ifelse
/cshow where {
  pop
  /xycp {
    0 3 2 roll
    {
      pop pop currentpoint 3 2 roll
      1 string dup 0 4 3 roll put false charpath moveto
      2 copy get 2 index 2 index 1 add get
      pdfTextMat dtransform rmoveto
      2 add
    } exch cshow
    pop pop
  } def
}{
  /xycp {
    currentfont /FontType get 0 eq {
      0 2 3 index length 1 sub {
        currentpoint 4 index 3 index 2 getinterval false charpath moveto
        2 copy get 2 index 3 2 roll 1 add get
        pdfTextMat dtransform rmoveto
      } for
    } {
      0 1 3 index length 1 sub {
        currentpoint 4 index 3 index 1 getinterval false charpath moveto
        2 copy 2 mul get 2 index 3 2 roll 2 mul 1 add get
        pdfTextMat dtransform rmoveto
      } for
    } ifelse
    pop pop
  } def
} ifelse
/Tj {
  fCol
  0 pdfTextRise pdfTextMat dtransform rmoveto
  currentpoint 4 2 roll
  pdfTextRender 1 and 0 eq {
    2 copy xyshow2
  } if
  pdfTextRender 3 and dup 1 eq exch 2 eq or {
    3 index 3 index moveto
    2 copy
    currentfont /FontType get 3 eq { fCol } { sCol } ifelse
    xycp currentpoint stroke moveto
  } if
  pdfTextRender 4 and 0 ne {
    4 2 roll moveto xycp
    /pdfTextClipPath [ pdfTextClipPath aload pop
      {/moveto cvx}
      {/lineto cvx}
      {/curveto cvx}
      {/closepath cvx}
    pathforall ] def
    currentpoint newpath moveto
  } {
    pop pop pop pop
  } ifelse
  0 pdfTextRise neg pdfTextMat dtransform rmoveto
} def
/TJm { 0.001 mul pdfFontSize mul pdfHorizScaling mul neg 0
       pdfTextMat dtransform rmoveto } def
/TJmV { 0.001 mul pdfFontSize mul neg 0 exch
        pdfTextMat dtransform rmoveto } def
/Tclip { pdfTextClipPath cvx exec clip newpath
         /pdfTextClipPath [] def } def
/Tclip* { pdfTextClipPath cvx exec eoclip newpath
         /pdfTextClipPath [] def } def
% Level 2/3 image operators
/pdfImBuf 100 string def
/pdfImStr {
  2 copy exch length lt {
    2 copy get exch 1 add exch
  } {
    ()
  } ifelse
} def
/skipEOD {
  { currentfile pdfImBuf readline
    not { pop exit } if
    (%-EOD-) eq { exit } if } loop
} def
/pdfIm { image skipEOD } def
/pdfImM { fCol imagemask skipEOD } def
/pr { 2 index 2 index 3 2 roll putinterval 4 add } def
/pdfImClip {
  gsave
  0 2 4 index length 1 sub {
    dup 4 index exch 2 copy
    get 5 index div put
    1 add 3 index exch 2 copy
    get 3 index div put
  } for
  pop pop rectclip
} def
/pdfImClipEnd { grestore } def
% shading operators
/colordelta {
  false 0 1 3 index length 1 sub {
    dup 4 index exch get 3 index 3 2 roll get sub abs 0.004 gt {
      pop true
    } if
  } for
  exch pop exch pop
} def
/funcCol { func n array astore } def
/funcSH {
  dup 0 eq {
    true
  } {
    dup 6 eq {
      false
    } {
      4 index 4 index funcCol dup
      6 index 4 index funcCol dup
      3 1 roll colordelta 3 1 roll
      5 index 5 index funcCol dup
      3 1 roll colordelta 3 1 roll
      6 index 8 index funcCol dup
      3 1 roll colordelta 3 1 roll
      colordelta or or or
    } ifelse
  } ifelse
  {
    1 add
    4 index 3 index add 0.5 mul exch 4 index 3 index add 0.5 mul exch
    6 index 6 index 4 index 4 index 4 index funcSH
    2 index 6 index 6 index 4 index 4 index funcSH
    6 index 2 index 4 index 6 index 4 index funcSH
    5 3 roll 3 2 roll funcSH pop pop
  } {
    pop 3 index 2 index add 0.5 mul 3 index  2 index add 0.5 mul
    funcCol sc
    dup 4 index exch mat transform m
    3 index 3 index mat transform l
    1 index 3 index mat transform l
    mat transform l pop pop h f*
  } ifelse
} def
/axialCol {
  dup 0 lt {
    pop t0
  } {
    dup 1 gt {
      pop t1
    } {
      dt mul t0 add
    } ifelse
  } ifelse
  func n array astore
} def
/axialSH {
  dup 0 eq {
    true
  } {
    dup 8 eq {
      false
    } {
      2 index axialCol 2 index axialCol colordelta
    } ifelse
  } ifelse
  {
    1 add 3 1 roll 2 copy add 0.5 mul
    dup 4 3 roll exch 4 index axialSH
    exch 3 2 roll axialSH
  } {
    pop 2 copy add 0.5 mul
    axialCol sc
    exch dup dx mul x0 add exch dy mul y0 add
    3 2 roll dup dx mul x0 add exch dy mul y0 add
    dx abs dy abs ge {
      2 copy yMin sub dy mul dx div add yMin m
      yMax sub dy mul dx div add yMax l
      2 copy yMax sub dy mul dx div add yMax l
      yMin sub dy mul dx div add yMin l
      h f*
    } {
      exch 2 copy xMin sub dx mul dy div add xMin exch m
      xMax sub dx mul dy div add xMax exch l
      exch 2 copy xMax sub dx mul dy div add xMax exch l
      xMin sub dx mul dy div add xMin exch l
      h f*
    } ifelse
  } ifelse
} def
/radialCol {
  dup t0 lt {
    pop t0
  } {
    dup t1 gt {
      pop t1
    } if
  } ifelse
  func n array astore
} def
/radialSH {
  dup 0 eq {
    true
  } {
    dup 8 eq {
      false
    } {
      2 index dt mul t0 add radialCol
      2 index dt mul t0 add radialCol colordelta
    } ifelse
  } ifelse
  {
    1 add 3 1 roll 2 copy add 0.5 mul
    dup 4 3 roll exch 4 index radialSH
    exch 3 2 roll radialSH
  } {
    pop 2 copy add 0.5 mul dt mul t0 add
    radialCol sc
    encl {
      exch dup dx mul x0 add exch dup dy mul y0 add exch dr mul r0 add
      0 360 arc h
      dup dx mul x0 add exch dup dy mul y0 add exch dr mul r0 add
      360 0 arcn h f
    } {
      2 copy
      dup dx mul x0 add exch dup dy mul y0 add exch dr mul r0 add
      a1 a2 arcn
      dup dx mul x0 add exch dup dy mul y0 add exch dr mul r0 add
      a2 a1 arcn h
      dup dx mul x0 add exch dup dy mul y0 add exch dr mul r0 add
      a1 a2 arc
      dup dx mul x0 add exch dup dy mul y0 add exch dr mul r0 add
      a2 a1 arc h f
    } ifelse
  } ifelse
} def
end
%%EndResource
%%EndProlog
%%BeginSetup
xpdf begin
%%EndSetup
pdfStartPage
[] 0 d
1 i
0 j
0 J
10 M
1 w
/DeviceGray {} cs
[0] sc
/DeviceGray {} CS
[0] SC
false op
false OP
{} settransfer
0 0 182 132 re
W
q
q
[1 0 0 1 -62 -526] cm
q
[1 0 0 1 0 0] cm
0 0 612 792 re
W
[1 0 0 -1 0 792] cm
[0.45 0 0 0.45 0 0] cm
[1 0 0 1 0 0] cm
q
/DeviceRGB {} cs
[1 1 1] sc
0 0 1360 1760 re
f
Q
q
[1 0 0 1 0 0] cm
q
q
q
/DeviceRGB {} cs
[1 1 1] sc
140 305 m
140 302.2 142.2 300 145 300 c
535 300 l
537.8 300 540 302.2 540 305 c
540 475 l
540 477.8 537.8 480 535 480 c
145 480 l
142.2 480 140 477.8 140 475 c
140 305 l
h
f
Q
q
q
q
2 w
/DeviceRGB {} CS
[0 0 0] SC
140 305 m
140 302.2 142.2 300 145 300 c
535 300 l
537.8 300 540 302.2 540 305 c
540 475 l
540 477.8 537.8 480 535 480 c
145 480 l
142.2 480 140 477.8 140 475 c
140 305 l
h
S
Q
Q
Q
q
q
q
[1 0 0 1 192.6 319.4] cm
[0.05 0 0 0.05 0 0] cm
[1 0 0 1 0 -792] cm
q
[1 0 0 1 0 0] cm
q
[1 0 0 1 0 792] cm
[1 0 0 1 0 0] cm
q
q
/DeviceRGB {} cs
[0 0 0] sc
33 -248 34 248 re
f
Q
Q
Q
Q
q
[1 0 0 1 100 0] cm
q
[1 0 0 1 0 792] cm
[1 0 0 1 0 0] cm
q
q
/DeviceRGB {} cs
[0 0 0] sc
117 -194 m
206 -198 170 -78 177 0 c
145 0 l
145 -121 l
145 -152 137 -170 106 -169 c
34 -167 62 -67 57 0 c
25 0 l
24 -190 l
54 -190 l
55 -180 53 -166 56 -158 c
67 -180 85 -193 117 -194 c
f
Q
Q
Q
Q
q
[1 0 0 1 300 0] cm
q
[1 0 0 1 0 792] cm
[1 0 0 1 0 0] cm
q
q
/DeviceRGB {} cs
[0 0 0] sc
59 -47 m
57 -23 77 -18 97 -25 c
97 -1 l
64 9 27 4 27 -40 c
27 -167 l
5 -167 l
5 -190 l
29 -190 l
38 -233 l
59 -233 l
59 -190 l
94 -190 l
94 -167 l
59 -167 l
59 -47 l
f
Q
Q
Q
Q
q
[1 0 0 1 400 0] cm
q
[1 0 0 1 0 792] cm
[1 0 0 1 0 0] cm
q
q
/DeviceRGB {} cs
[0 0 0] sc
100 -194 m
163 -194 186 -152 184 -88 c
49 -88 l
49 -48 63 -21 102 -20 c
128 -19 145 -32 151 -49 c
179 -41 l
168 -13 142 4 102 4 c
44 4 14 -33 15 -96 c
16 -157 41 -194 100 -194 c
h
152 -113 m
158 -173 76 -190 55 -141 c
52 -134 49 -124 49 -113 c
152 -113 l
f
Q
Q
Q
Q
q
[1 0 0 1 600 0] cm
q
[1 0 0 1 0 792] cm
[1 0 0 1 0 0] cm
q
q
/DeviceRGB {} cs
[0 0 0] sc
177 -190 m
167 -65 218 103 67 71 c
44 65 29 51 23 28 c
55 23 l
70 70 155 55 144 -5 c
144 -35 l
133 -14 115 1 83 1 c
29 1 15 -40 15 -95 c
15 -151 31 -192 86 -193 c
115 -194 134 -177 145 -158 c
146 -168 145 -181 147 -190 c
177 -190 l
h
94 -22 m
130 -22 144 -54 144 -95 c
144 -137 130 -170 94 -170 c
55 -170 48 -136 48 -95 c
48 -54 54 -22 94 -22 c
f
Q
Q
Q
Q
q
[1 0 0 1 800 0] cm
q
[1 0 0 1 0 792] cm
[1 0 0 1 0 0] cm
q
q
/DeviceRGB {} cs
[0 0 0] sc
114 -163 m
36 -179 61 -72 57 0 c
25 0 l
24 -190 l
54 -190 l
55 -178 53 -161 56 -151 c
62 -178 79 -200 114 -192 c
114 -163 l
f
Q
Q
Q
Q
q
[1 0 0 1 919 0] cm
q
[1 0 0 1 0 792] cm
[1 0 0 1 0 0] cm
q
q
/DeviceRGB {} cs
[0 0 0] sc
141 -36 m
126 -15 110 5 73 4 c
37 3 15 -17 15 -53 c
14 -117 78 -116 140 -116 c
143 -151 131 -170 99 -170 c
75 -169 58 -163 57 -139 c
24 -142 l
29 -179 57 -194 100 -194 c
145 -194 172 -174 172 -130 c
172 -48 l
171 -28 179 -16 200 -21 c
200 -1 l
169 8 139 -3 141 -36 c
h
48 -53 m
48 -33 60 -20 80 -20 c
121 -23 143 -49 140 -94 c
97 -92 48 -99 48 -53 c
f
Q
Q
Q
Q
q
[1 0 0 1 1119 0] cm
q
[1 0 0 1 0 792] cm
[1 0 0 1 0 0] cm
q
q
/DeviceRGB {} cs
[0 0 0] sc
59 -47 m
57 -23 77 -18 97 -25 c
97 -1 l
64 9 27 4 27 -40 c
27 -167 l
5 -167 l
5 -190 l
29 -190 l
38 -233 l
59 -233 l
59 -190 l
94 -190 l
94 -167 l
59 -167 l
59 -47 l
f
Q
Q
Q
Q
q
[1 0 0 1 1219 0] cm
q
[1 0 0 1 0 792] cm
[1 0 0 1 0 0] cm
q
q
/DeviceRGB {} cs
[0 0 0] sc
100 -194 m
163 -194 186 -152 184 -88 c
49 -88 l
49 -48 63 -21 102 -20 c
128 -19 145 -32 151 -49 c
179 -41 l
168 -13 142 4 102 4 c
44 4 14 -33 15 -96 c
16 -157 41 -194 100 -194 c
h
152 -113 m
158 -173 76 -190 55 -141 c
52 -134 49 -124 49 -113 c
152 -113 l
f
Q
Q
Q
Q
q
[1 0 0 1 1419 0] cm
q
[1 0 0 1 0 792] cm
[1 0 0 1 0 0] cm
q
q
/DeviceRGB {} cs
[0 0 0] sc
85 -194 m
116 -194 133 -181 145 -161 c
144 -261 l
176 -261 l
177 0 l
147 0 l
145 -10 147 -23 144 -31 c
134 -8 116 4 85 4 c
32 4 16 -35 15 -94 c
15 -160 38 -194 85 -194 c
h
94 -170 m
54 -170 48 -136 48 -95 c
48 -55 54 -21 93 -21 c
135 -21 144 -53 144 -97 c
144 -139 135 -171 94 -170 c
f
Q
Q
Q
Q
q
[1 0 0 1 1619 0] cm
q
[1 0 0 1 0 792] cm
[1 0 0 1 0 0] cm
q
q
/DeviceRGB {} cs
[0 0 0] sc
Q
Q
Q
Q
Q
Q
q
q
[1 0 0 1 278.5 319.4] cm
[0.05 0 0 0.05 0 0] cm
[1 0 0 1 0 -792] cm
q
[1 0 0 1 0 0] cm
q
[1 0 0 1 0 792] cm
[1 0 0 1 0 0] cm
q
q
/DeviceRGB {} cs
[0 0 0] sc
197 0 m
197 -115 l
63 -115 l
63 0 l
30 0 l
30 -248 l
63 -248 l
63 -143 l
197 -143 l
197 -248 l
231 -248 l
231 0 l
197 0 l
f
Q
Q
Q
Q
q
[1 0 0 1 259 0] cm
q
[1 0 0 1 0 792] cm
[1 0 0 1 0 0] cm
q
q
/DeviceRGB {} cs
[0 0 0] sc
100 -194 m
163 -194 186 -152 184 -88 c
49 -88 l
49 -48 63 -21 102 -20 c
128 -19 145 -32 151 -49 c
179 -41 l
168 -13 142 4 102 4 c
44 4 14 -33 15 -96 c
16 -157 41 -194 100 -194 c
h
152 -113 m
158 -173 76 -190 55 -141 c
52 -134 49 -124 49 -113 c
152 -113 l
f
Q
Q
Q
Q
q
[1 0 0 1 459 0] cm
q
[1 0 0 1 0 792] cm
[1 0 0 1 0 0] cm
q
q
/DeviceRGB {} cs
[0 0 0] sc
59 -47 m
57 -23 77 -18 97 -25 c
97 -1 l
64 9 27 4 27 -40 c
27 -167 l
5 -167 l
5 -190 l
29 -190 l
38 -233 l
59 -233 l
59 -190 l
94 -190 l
94 -167 l
59 -167 l
59 -47 l
f
Q
Q
Q
Q
q
[1 0 0 1 559 0] cm
q
[1 0 0 1 0 792] cm
[1 0 0 1 0 0] cm
q
q
/DeviceRGB {} cs
[0 0 0] sc
100 -194 m
163 -194 186 -152 184 -88 c
49 -88 l
49 -48 63 -21 102 -20 c
128 -19 145 -32 151 -49 c
179 -41 l
168 -13 142 4 102 4 c
44 4 14 -33 15 -96 c
16 -157 41 -194 100 -194 c
h
152 -113 m
158 -173 76 -190 55 -141 c
52 -134 49 -124 49 -113 c
152 -113 l
f
Q
Q
Q
Q
q
[1 0 0 1 759 0] cm
q
[1 0 0 1 0 792] cm
[1 0 0 1 0 0] cm
q
q
/DeviceRGB {} cs
[0 0 0] sc
114 -163 m
36 -179 61 -72 57 0 c
25 0 l
24 -190 l
54 -190 l
55 -178 53 -161 56 -151 c
62 -178 79 -200 114 -192 c
114 -163 l
f
Q
Q
Q
Q
q
[1 0 0 1 878 0] cm
q
[1 0 0 1 0 792] cm
[1 0 0 1 0 0] cm
q
q
/DeviceRGB {} cs
[0 0 0] sc
100 -194 m
162 -195 185 -157 185 -95 c
186 -32 158 4 99 4 c
40 4 16 -35 15 -95 c
15 -161 43 -194 100 -194 c
h
99 -20 m
143 -19 152 -51 152 -95 c
152 -138 144 -170 101 -170 c
58 -170 48 -138 48 -95 c
48 -52 58 -21 99 -20 c
f
Q
Q
Q
Q
q
[1 0 0 1 1078 0] cm
q
[1 0 0 1 0 792] cm
[1 0 0 1 0 0] cm
q
q
/DeviceRGB {} cs
[0 0 0] sc
177 -190 m
167 -65 218 103 67 71 c
44 65 29 51 23 28 c
55 23 l
70 70 155 55 144 -5 c
144 -35 l
133 -14 115 1 83 1 c
29 1 15 -40 15 -95 c
15 -151 31 -192 86 -193 c
115 -194 134 -177 145 -158 c
146 -168 145 -181 147 -190 c
177 -190 l
h
94 -22 m
130 -22 144 -54 144 -95 c
144 -137 130 -170 94 -170 c
55 -170 48 -136 48 -95 c
48 -54 54 -22 94 -22 c
f
Q
Q
Q
Q
q
[1 0 0 1 1278 0] cm
q
[1 0 0 1 0 792] cm
[1 0 0 1 0 0] cm
q
q
/DeviceRGB {} cs
[0 0 0] sc
100 -194 m
163 -194 186 -152 184 -88 c
49 -88 l
49 -48 63 -21 102 -20 c
128 -19 145 -32 151 -49 c
179 -41 l
168 -13 142 4 102 4 c
44 4 14 -33 15 -96 c
16 -157 41 -194 100 -194 c
h
152 -113 m
158 -173 76 -190 55 -141 c
52 -134 49 -124 49 -113 c
152 -113 l
f
Q
Q
Q
Q
q
[1 0 0 1 1478 0] cm
q
[1 0 0 1 0 792] cm
[1 0 0 1 0 0] cm
q
q
/DeviceRGB {} cs
[0 0 0] sc
117 -194 m
206 -198 170 -78 177 0 c
145 0 l
145 -121 l
145 -152 137 -170 106 -169 c
34 -167 62 -67 57 0 c
25 0 l
24 -190 l
54 -190 l
55 -180 53 -166 56 -158 c
67 -180 85 -193 117 -194 c
f
Q
Q
Q
Q
q
[1 0 0 1 1678 0] cm
q
[1 0 0 1 0 792] cm
[1 0 0 1 0 0] cm
q
q
/DeviceRGB {} cs
[0 0 0] sc
100 -194 m
163 -194 186 -152 184 -88 c
49 -88 l
49 -48 63 -21 102 -20 c
128 -19 145 -32 151 -49 c
179 -41 l
168 -13 142 4 102 4 c
44 4 14 -33 15 -96 c
16 -157 41 -194 100 -194 c
h
152 -113 m
158 -173 76 -190 55 -141 c
52 -134 49 -124 49 -113 c
152 -113 l
f
Q
Q
Q
Q
q
[1 0 0 1 1878 0] cm
q
[1 0 0 1 0 792] cm
[1 0 0 1 0 0] cm
q
q
/DeviceRGB {} cs
[0 0 0] sc
100 -194 m
162 -195 185 -157 185 -95 c
186 -32 158 4 99 4 c
40 4 16 -35 15 -95 c
15 -161 43 -194 100 -194 c
h
99 -20 m
143 -19 152 -51 152 -95 c
152 -138 144 -170 101 -170 c
58 -170 48 -138 48 -95 c
48 -52 58 -21 99 -20 c
f
Q
Q
Q
Q
q
[1 0 0 1 2078 0] cm
q
[1 0 0 1 0 792] cm
[1 0 0 1 0 0] cm
q
q
/DeviceRGB {} cs
[0 0 0] sc
84 4 m
-5 8 30 -112 23 -190 c
55 -190 l
55 -70 l
55 -39 62 -20 94 -21 c
166 -23 139 -122 144 -190 c
175 -190 l
176 0 l
146 0 l
145 -10 147 -25 144 -33 c
133 -11 116 3 84 4 c
f
Q
Q
Q
Q
q
[1 0 0 1 2278 0] cm
q
[1 0 0 1 0 792] cm
[1 0 0 1 0 0] cm
q
q
/DeviceRGB {} cs
[0 0 0] sc
135 -143 m
132 -177 49 -181 48 -143 c
63 -90 163 -131 167 -53 c
171 25 17 21 10 -45 c
38 -50 l
42 -14 135 -5 136 -50 c
126 -106 23 -65 18 -140 c
14 -197 100 -203 140 -182 c
152 -175 161 -163 164 -147 c
f
Q
Q
Q
Q
q
[1 0 0 1 2458 0] cm
q
[1 0 0 1 0 792] cm
[1 0 0 1 0 0] cm
q
q
/DeviceRGB {} cs
[0 0 0] sc
Q
Q
Q
Q
Q
Q
q
q
[1 0 0 1 406.4 319.4] cm
[0.05 0 0 0.05 0 0] cm
[1 0 0 1 0 -792] cm
q
[1 0 0 1 0 0] cm
q
[1 0 0 1 0 792] cm
[1 0 0 1 0 0] cm
q
q
/DeviceRGB {} cs
[0 0 0] sc
30 -248 m
117 -247 221 -263 221 -173 c
221 -95 144 -93 63 -97 c
63 0 l
30 0 l
30 -248 l
h
63 -123 m
120 -123 187 -112 187 -173 c
187 -232 119 -220 63 -221 c
63 -123 l
f
Q
Q
Q
Q
q
[1 0 0 1 240 0] cm
q
[1 0 0 1 0 792] cm
[1 0 0 1 0 0] cm
q
q
/DeviceRGB {} cs
[0 0 0] sc
114 -163 m
36 -179 61 -72 57 0 c
25 0 l
24 -190 l
54 -190 l
55 -178 53 -161 56 -151 c
62 -178 79 -200 114 -192 c
114 -163 l
f
Q
Q
Q
Q
q
[1 0 0 1 359 0] cm
q
[1 0 0 1 0 792] cm
[1 0 0 1 0 0] cm
q
q
/DeviceRGB {} cs
[0 0 0] sc
100 -194 m
162 -195 185 -157 185 -95 c
186 -32 158 4 99 4 c
40 4 16 -35 15 -95 c
15 -161 43 -194 100 -194 c
h
99 -20 m
143 -19 152 -51 152 -95 c
152 -138 144 -170 101 -170 c
58 -170 48 -138 48 -95 c
48 -52 58 -21 99 -20 c
f
Q
Q
Q
Q
q
[1 0 0 1 559 0] cm
q
[1 0 0 1 0 792] cm
[1 0 0 1 0 0] cm
q
q
/DeviceRGB {} cs
[0 0 0] sc
96 -169 m
56 -169 48 -136 48 -96 c
48 -56 57 -21 96 -21 c
120 -21 137 -35 139 -59 c
171 -57 l
165 -20 140 4 97 4 c
38 4 21 -37 15 -95 c
5 -188 116 -226 162 -159 c
166 -152 167 -145 169 -137 c
137 -134 l
133 -155 121 -169 96 -169 c
f
Q
Q
Q
Q
q
[1 0 0 1 739 0] cm
q
[1 0 0 1 0 792] cm
[1 0 0 1 0 0] cm
q
q
/DeviceRGB {} cs
[0 0 0] sc
100 -194 m
163 -194 186 -152 184 -88 c
49 -88 l
49 -48 63 -21 102 -20 c
128 -19 145 -32 151 -49 c
179 -41 l
168 -13 142 4 102 4 c
44 4 14 -33 15 -96 c
16 -157 41 -194 100 -194 c
h
152 -113 m
158 -173 76 -190 55 -141 c
52 -134 49 -124 49 -113 c
152 -113 l
f
Q
Q
Q
Q
q
[1 0 0 1 939 0] cm
q
[1 0 0 1 0 792] cm
[1 0 0 1 0 0] cm
q
q
/DeviceRGB {} cs
[0 0 0] sc
135 -143 m
132 -177 49 -181 48 -143 c
63 -90 163 -131 167 -53 c
171 25 17 21 10 -45 c
38 -50 l
42 -14 135 -5 136 -50 c
126 -106 23 -65 18 -140 c
14 -197 100 -203 140 -182 c
152 -175 161 -163 164 -147 c
f
Q
Q
Q
Q
q
[1 0 0 1 1119 0] cm
q
[1 0 0 1 0 792] cm
[1 0 0 1 0 0] cm
q
q
/DeviceRGB {} cs
[0 0 0] sc
135 -143 m
132 -177 49 -181 48 -143 c
63 -90 163 -131 167 -53 c
171 25 17 21 10 -45 c
38 -50 l
42 -14 135 -5 136 -50 c
126 -106 23 -65 18 -140 c
14 -197 100 -203 140 -182 c
152 -175 161 -163 164 -147 c
f
Q
Q
Q
Q
q
[1 0 0 1 1299 0] cm
q
[1 0 0 1 0 792] cm
[1 0 0 1 0 0] cm
q
q
/DeviceRGB {} cs
[0 0 0] sc
100 -194 m
162 -195 185 -157 185 -95 c
186 -32 158 4 99 4 c
40 4 16 -35 15 -95 c
15 -161 43 -194 100 -194 c
h
99 -20 m
143 -19 152 -51 152 -95 c
152 -138 144 -170 101 -170 c
58 -170 48 -138 48 -95 c
48 -52 58 -21 99 -20 c
f
Q
Q
Q
Q
q
[1 0 0 1 1499 0] cm
q
[1 0 0 1 0 792] cm
[1 0 0 1 0 0] cm
q
q
/DeviceRGB {} cs
[0 0 0] sc
114 -163 m
36 -179 61 -72 57 0 c
25 0 l
24 -190 l
54 -190 l
55 -178 53 -161 56 -151 c
62 -178 79 -200 114 -192 c
114 -163 l
f
Q
Q
Q
Q
Q
Q
Q
Q
Q
q
q
q
/DeviceRGB {} cs
[1 1 1] sc
160 345 m
160 342.2 162.2 340 165 340 c
310 340 l
312.8 340 315 342.2 315 345 c
315 455 l
315 457.8 312.8 460 310 460 c
165 460 l
162.2 460 160 457.8 160 455 c
160 345 l
h
f
Q
q
q
q
2 w
/DeviceRGB {} CS
[0 0 0] SC
160 345 m
160 342.2 162.2 340 165 340 c
310 340 l
312.8 340 315 342.2 315 345 c
315 455 l
315 457.8 312.8 460 310 460 c
165 460 l
162.2 460 160 457.8 160 455 c
160 345 l
h
S
Q
Q
Q
q
q
q
[1 0 0 1 165 403.1] cm
[0.05 0 0 0.05 0 0] cm
[1 0 0 1 0 -792] cm
q
[1 0 0 1 0 0] cm
q
[1 0 0 1 0 792] cm
[1 0 0 1 0 0] cm
q
q
/DeviceRGB {} cs
[0 0 0] sc
Q
Q
Q
Q
q
[1 0 0 1 100 0] cm
q
[1 0 0 1 0 792] cm
[1 0 0 1 0 0] cm
q
q
/DeviceRGB {} cs
[0 0 0] sc
Q
Q
Q
Q
q
[1 0 0 1 200 0] cm
q
[1 0 0 1 0 792] cm
[1 0 0 1 0 0] cm
q
q
/DeviceRGB {} cs
[0 0 0] sc
Q
Q
Q
Q
q
[1 0 0 1 300 0] cm
q
[1 0 0 1 0 792] cm
[1 0 0 1 0 0] cm
q
q
/DeviceRGB {} cs
[0 0 0] sc
Q
Q
Q
Q
Q
Q
q
q
[1 0 0 1 185 403.1] cm
[0.05 0 0 0.05 0 0] cm
[1 0 0 1 0 -792] cm
q
[1 0 0 1 0 0] cm
q
[1 0 0 1 0 792] cm
[1 0 0 1 0 0] cm
q
q
/DeviceRGB {} cs
[0 0 0] sc
212 -179 m
202 -207 177 -224 139 -224 c
80 -224 52 -184 52 -125 c
52 -65 81 -24 141 -24 c
184 -24 203 -48 219 -76 c
246 -62 l
228 -24 195 4 139 4 c
59 4 22 -46 18 -125 c
12 -229 117 -278 205 -236 c
224 -227 236 -210 244 -190 c
f
Q
Q
Q
Q
q
[1 0 0 1 259 0] cm
q
[1 0 0 1 0 792] cm
[1 0 0 1 0 0] cm
q
q
/DeviceRGB {} cs
[0 0 0] sc
30 -248 m
117 -247 221 -263 221 -173 c
221 -95 144 -93 63 -97 c
63 0 l
30 0 l
30 -248 l
h
63 -123 m
120 -123 187 -112 187 -173 c
187 -232 119 -220 63 -221 c
63 -123 l
f
Q
Q
Q
Q
q
[1 0 0 1 499 0] cm
q
[1 0 0 1 0 792] cm
[1 0 0 1 0 0] cm
q
q
/DeviceRGB {} cs
[0 0 0] sc
232 -93 m
231 -28 192 4 128 4 c
67 4 28 -28 28 -90 c
28 -248 l
61 -248 l
69 -159 28 -24 128 -24 c
230 -24 192 -157 199 -248 c
232 -248 l
232 -93 l
f
Q
Q
Q
Q
Q
Q
Q
Q
Q
q
q
q
/DeviceRGB {} cs
[1 1 1] sc
360 345 m
360 342.2 362.2 340 365 340 c
515 340 l
517.8 340 520 342.2 520 345 c
520 460 l
520 462.8 517.8 465 515 465 c
365 465 l
362.2 465 360 462.8 360 460 c
360 345 l
h
f
Q
q
q
q
2 w
/DeviceRGB {} CS
[0 0 0] SC
360 345 m
360 342.2 362.2 340 365 340 c
515 340 l
517.8 340 520 342.2 520 345 c
520 460 l
520 462.8 517.8 465 515 465 c
365 465 l
362.2 465 360 462.8 360 460 c
360 345 l
h
S
Q
Q
Q
q
q
q
[1 0 0 1 378 405.1] cm
[0.05 0 0 0.05 0 0] cm
[1 0 0 1 0 -792] cm
q
[1 0 0 1 0 0] cm
q
[1 0 0 1 0 792] cm
[1 0 0 1 0 0] cm
q
q
/DeviceRGB {} cs
[0 0 0] sc
Q
Q
Q
Q
q
[1 0 0 1 100 0] cm
q
[1 0 0 1 0 792] cm
[1 0 0 1 0 0] cm
q
q
/DeviceRGB {} cs
[0 0 0] sc
Q
Q
Q
Q
q
[1 0 0 1 200 0] cm
q
[1 0 0 1 0 792] cm
[1 0 0 1 0 0] cm
q
q
/DeviceRGB {} cs
[0 0 0] sc
Q
Q
Q
Q
q
[1 0 0 1 300 0] cm
q
[1 0 0 1 0 792] cm
[1 0 0 1 0 0] cm
q
q
/DeviceRGB {} cs
[0 0 0] sc
Q
Q
Q
Q
q
[1 0 0 1 400 0] cm
q
[1 0 0 1 0 792] cm
[1 0 0 1 0 0] cm
q
q
/DeviceRGB {} cs
[0 0 0] sc
Q
Q
Q
Q
q
[1 0 0 1 500 0] cm
q
[1 0 0 1 0 792] cm
[1 0 0 1 0 0] cm
q
q
/DeviceRGB {} cs
[0 0 0] sc
Q
Q
Q
Q
q
[1 0 0 1 600 0] cm
q
[1 0 0 1 0 792] cm
[1 0 0 1 0 0] cm
q
q
/DeviceRGB {} cs
[0 0 0] sc
Q
Q
Q
Q
q
[1 0 0 1 700 0] cm
q
[1 0 0 1 0 792] cm
[1 0 0 1 0 0] cm
q
q
/DeviceRGB {} cs
[0 0 0] sc
Q
Q
Q
Q
q
[1 0 0 1 800 0] cm
q
[1 0 0 1 0 792] cm
[1 0 0 1 0 0] cm
q
q
/DeviceRGB {} cs
[0 0 0] sc
Q
Q
Q
Q
q
[1 0 0 1 900 0] cm
q
[1 0 0 1 0 792] cm
[1 0 0 1 0 0] cm
q
q
/DeviceRGB {} cs
[0 0 0] sc
Q
Q
Q
Q
q
[1 0 0 1 1000 0] cm
q
[1 0 0 1 0 792] cm
[1 0 0 1 0 0] cm
q
q
/DeviceRGB {} cs
[0 0 0] sc
Q
Q
Q
Q
q
[1 0 0 1 1100 0] cm
q
[1 0 0 1 0 792] cm
[1 0 0 1 0 0] cm
q
q
/DeviceRGB {} cs
[0 0 0] sc
Q
Q
Q
Q
q
[1 0 0 1 1200 0] cm
q
[1 0 0 1 0 792] cm
[1 0 0 1 0 0] cm
q
q
/DeviceRGB {} cs
[0 0 0] sc
Q
Q
Q
Q
q
[1 0 0 1 1300 0] cm
q
[1 0 0 1 0 792] cm
[1 0 0 1 0 0] cm
q
q
/DeviceRGB {} cs
[0 0 0] sc
Q
Q
Q
Q
q
[1 0 0 1 1400 0] cm
q
[1 0 0 1 0 792] cm
[1 0 0 1 0 0] cm
q
q
/DeviceRGB {} cs
[0 0 0] sc
Q
Q
Q
Q
q
[1 0 0 1 1500 0] cm
q
[1 0 0 1 0 792] cm
[1 0 0 1 0 0] cm
q
q
/DeviceRGB {} cs
[0 0 0] sc
Q
Q
Q
Q
q
[1 0 0 1 1600 0] cm
q
[1 0 0 1 0 792] cm
[1 0 0 1 0 0] cm
q
q
/DeviceRGB {} cs
[0 0 0] sc
Q
Q
Q
Q
Q
Q
q
q
[1 0 0 1 463 405.1] cm
[0.05 0 0 0.05 0 0] cm
[1 0 0 1 0 -792] cm
q
[1 0 0 1 0 0] cm
q
[1 0 0 1 0 792] cm
[1 0 0 1 0 0] cm
q
q
/DeviceRGB {} cs
[0 0 0] sc
143 4 m
61 4 22 -44 18 -125 c
13 -232 118 -279 211 -236 c
228 -228 240 -211 248 -193 c
216 -184 l
203 -209 179 -224 140 -224 c
79 -224 52 -185 52 -125 c
52 -64 81 -25 143 -24 c
178 -24 205 -35 222 -51 c
222 -96 l
148 -96 l
148 -124 l
253 -124 l
253 -38 l
228 -13 192 4 143 4 c
f
Q
Q
Q
Q
q
[1 0 0 1 280 0] cm
q
[1 0 0 1 0 792] cm
[1 0 0 1 0 0] cm
q
q
/DeviceRGB {} cs
[0 0 0] sc
30 -248 m
117 -247 221 -263 221 -173 c
221 -95 144 -93 63 -97 c
63 0 l
30 0 l
30 -248 l
h
63 -123 m
120 -123 187 -112 187 -173 c
187 -232 119 -220 63 -221 c
63 -123 l
f
Q
Q
Q
Q
q
[1 0 0 1 520 0] cm
q
[1 0 0 1 0 792] cm
[1 0 0 1 0 0] cm
q
q
/DeviceRGB {} cs
[0 0 0] sc
232 -93 m
231 -28 192 4 128 4 c
67 4 28 -28 28 -90 c
28 -248 l
61 -248 l
69 -159 28 -24 128 -24 c
230 -24 192 -157 199 -248 c
232 -248 l
232 -93 l
f
Q
Q
Q
Q
Q
Q
Q
Q
Q
q
q
q
/DeviceRGB {} cs
[1 1 1] sc
140 534 m
140 531.2 142.2 529 145 529 c
535 529 l
537.8 529 540 531.2 540 534 c
540 584 l
540 586.8 537.8 589 535 589 c
145 589 l
142.2 589 140 586.8 140 584 c
140 534 l
h
f
Q
q
q
q
2 w
/DeviceRGB {} CS
[0 0 0] SC
140 534 m
140 531.2 142.2 529 145 529 c
535 529 l
537.8 529 540 531.2 540 534 c
540 584 l
540 586.8 537.8 589 535 589 c
145 589 l
142.2 589 140 586.8 140 584 c
140 534 l
h
S
Q
Q
Q
q
q
q
[1 0 0 1 254.1 562.1] cm
[0.05 0 0 0.05 0 0] cm
[1 0 0 1 0 -792] cm
q
[1 0 0 1 0 0] cm
q
[1 0 0 1 0 792] cm
[1 0 0 1 0 0] cm
q
q
/DeviceRGB {} cs
[0 0 0] sc
185 -189 m
180 -237 62 -243 61 -187 c
75 -112 219 -173 224 -68 c
227 10 103 19 49 -13 c
32 -23 21 -39 16 -59 c
49 -66 l
54 -10 190 -3 190 -67 c
190 -145 35 -81 28 -185 c
23 -267 173 -269 207 -219 c
212 -212 215 -203 218 -194 c
f
Q
Q
Q
Q
q
[1 0 0 1 240 0] cm
q
[1 0 0 1 0 792] cm
[1 0 0 1 0 0] cm
q
q
/DeviceRGB {} cs
[0 0 0] sc
106 -169 m
34 -169 62 -67 57 0 c
25 0 l
25 -261 l
57 -261 l
56 -158 l
68 -179 84 -194 117 -194 c
206 -194 170 -78 177 0 c
145 0 l
145 -121 l
147 -153 137 -170 106 -169 c
f
Q
Q
Q
Q
q
[1 0 0 1 440 0] cm
q
[1 0 0 1 0 792] cm
[1 0 0 1 0 0] cm
q
q
/DeviceRGB {} cs
[0 0 0] sc
141 -36 m
126 -15 110 5 73 4 c
37 3 15 -17 15 -53 c
14 -117 78 -116 140 -116 c
143 -151 131 -170 99 -170 c
75 -169 58 -163 57 -139 c
24 -142 l
29 -179 57 -194 100 -194 c
145 -194 172 -174 172 -130 c
172 -48 l
171 -28 179 -16 200 -21 c
200 -1 l
169 8 139 -3 141 -36 c
h
48 -53 m
48 -33 60 -20 80 -20 c
121 -23 143 -49 140 -94 c
97 -92 48 -99 48 -53 c
f
Q
Q
Q
Q
q
[1 0 0 1 640 0] cm
q
[1 0 0 1 0 792] cm
[1 0 0 1 0 0] cm
q
q
/DeviceRGB {} cs
[0 0 0] sc
114 -163 m
36 -179 61 -72 57 0 c
25 0 l
24 -190 l
54 -190 l
55 -178 53 -161 56 -151 c
62 -178 79 -200 114 -192 c
114 -163 l
f
Q
Q
Q
Q
q
[1 0 0 1 759 0] cm
q
[1 0 0 1 0 792] cm
[1 0 0 1 0 0] cm
q
q
/DeviceRGB {} cs
[0 0 0] sc
100 -194 m
163 -194 186 -152 184 -88 c
49 -88 l
49 -48 63 -21 102 -20 c
128 -19 145 -32 151 -49 c
179 -41 l
168 -13 142 4 102 4 c
44 4 14 -33 15 -96 c
16 -157 41 -194 100 -194 c
h
152 -113 m
158 -173 76 -190 55 -141 c
52 -134 49 -124 49 -113 c
152 -113 l
f
Q
Q
Q
Q
q
[1 0 0 1 959 0] cm
q
[1 0 0 1 0 792] cm
[1 0 0 1 0 0] cm
q
q
/DeviceRGB {} cs
[0 0 0] sc
85 -194 m
116 -194 133 -181 145 -161 c
144 -261 l
176 -261 l
177 0 l
147 0 l
145 -10 147 -23 144 -31 c
134 -8 116 4 85 4 c
32 4 16 -35 15 -94 c
15 -160 38 -194 85 -194 c
h
94 -170 m
54 -170 48 -136 48 -95 c
48 -55 54 -21 93 -21 c
135 -21 144 -53 144 -97 c
144 -139 135 -171 94 -170 c
f
Q
Q
Q
Q
q
[1 0 0 1 1159 0] cm
q
[1 0 0 1 0 792] cm
[1 0 0 1 0 0] cm
q
q
/DeviceRGB {} cs
[0 0 0] sc
Q
Q
Q
Q
Q
Q
q
q
[1 0 0 1 317.1 562.1] cm
[0.05 0 0 0.05 0 0] cm
[1 0 0 1 0 -792] cm
q
[1 0 0 1 0 0] cm
q
[1 0 0 1 0 792] cm
[1 0 0 1 0 0] cm
q
q
/DeviceRGB {} cs
[0 0 0] sc
240 0 m
242 -218 l
219 -142 188 -73 162 0 c
139 0 l
58 -218 l
59 0 l
30 0 l
30 -248 l
74 -248 l
151 -37 l
172 -112 202 -177 227 -248 c
270 -248 l
270 0 l
240 0 l
f
Q
Q
Q
Q
q
[1 0 0 1 299 0] cm
q
[1 0 0 1 0 792] cm
[1 0 0 1 0 0] cm
q
q
/DeviceRGB {} cs
[0 0 0] sc
141 -36 m
126 -15 110 5 73 4 c
37 3 15 -17 15 -53 c
14 -117 78 -116 140 -116 c
143 -151 131 -170 99 -170 c
75 -169 58 -163 57 -139 c
24 -142 l
29 -179 57 -194 100 -194 c
145 -194 172 -174 172 -130 c
172 -48 l
171 -28 179 -16 200 -21 c
200 -1 l
169 8 139 -3 141 -36 c
h
48 -53 m
48 -33 60 -20 80 -20 c
121 -23 143 -49 140 -94 c
97 -92 48 -99 48 -53 c
f
Q
Q
Q
Q
q
[1 0 0 1 499 0] cm
q
[1 0 0 1 0 792] cm
[1 0 0 1 0 0] cm
q
q
/DeviceRGB {} cs
[0 0 0] sc
24 -231 m
24 -261 l
56 -261 l
56 -231 l
24 -231 l
h
24 0 m
24 -190 l
56 -190 l
56 0 l
24 0 l
f
Q
Q
Q
Q
q
[1 0 0 1 578 0] cm
q
[1 0 0 1 0 792] cm
[1 0 0 1 0 0] cm
q
q
/DeviceRGB {} cs
[0 0 0] sc
117 -194 m
206 -198 170 -78 177 0 c
145 0 l
145 -121 l
145 -152 137 -170 106 -169 c
34 -167 62 -67 57 0 c
25 0 l
24 -190 l
54 -190 l
55 -180 53 -166 56 -158 c
67 -180 85 -193 117 -194 c
f
Q
Q
Q
Q
q
[1 0 0 1 778 0] cm
q
[1 0 0 1 0 792] cm
[1 0 0 1 0 0] cm
q
q
/DeviceRGB {} cs
[0 0 0] sc
Q
Q
Q
Q
Q
Q
q
q
[1 0 0 1 361 562.1] cm
[0.05 0 0 0.05 0 0] cm
[1 0 0 1 0 -792] cm
q
[1 0 0 1 0 0] cm
q
[1 0 0 1 0 792] cm
[1 0 0 1 0 0] cm
q
q
/DeviceRGB {} cs
[0 0 0] sc
240 0 m
242 -218 l
219 -142 188 -73 162 0 c
139 0 l
58 -218 l
59 0 l
30 0 l
30 -248 l
74 -248 l
151 -37 l
172 -112 202 -177 227 -248 c
270 -248 l
270 0 l
240 0 l
f
Q
Q
Q
Q
q
[1 0 0 1 299 0] cm
q
[1 0 0 1 0 792] cm
[1 0 0 1 0 0] cm
q
q
/DeviceRGB {} cs
[0 0 0] sc
100 -194 m
163 -194 186 -152 184 -88 c
49 -88 l
49 -48 63 -21 102 -20 c
128 -19 145 -32 151 -49 c
179 -41 l
168 -13 142 4 102 4 c
44 4 14 -33 15 -96 c
16 -157 41 -194 100 -194 c
h
152 -113 m
158 -173 76 -190 55 -141 c
52 -134 49 -124 49 -113 c
152 -113 l
f
Q
Q
Q
Q
q
[1 0 0 1 499 0] cm
q
[1 0 0 1 0 792] cm
[1 0 0 1 0 0] cm
q
q
/DeviceRGB {} cs
[0 0 0] sc
210 -169 m
143 -166 172 -64 166 0 c
135 0 l
135 -121 l
135 -150 130 -171 100 -169 c
34 -165 62 -65 56 0 c
25 0 l
24 -190 l
54 -190 l
55 -180 53 -166 56 -158 c
66 -202 155 -208 163 -158 c
174 -179 190 -193 221 -194 c
306 -196 268 -75 276 0 c
245 0 l
245 -121 l
245 -150 240 -170 210 -169 c
f
Q
Q
Q
Q
q
[1 0 0 1 798 0] cm
q
[1 0 0 1 0 792] cm
[1 0 0 1 0 0] cm
q
q
/DeviceRGB {} cs
[0 0 0] sc
100 -194 m
162 -195 185 -157 185 -95 c
186 -32 158 4 99 4 c
40 4 16 -35 15 -95 c
15 -161 43 -194 100 -194 c
h
99 -20 m
143 -19 152 -51 152 -95 c
152 -138 144 -170 101 -170 c
58 -170 48 -138 48 -95 c
48 -52 58 -21 99 -20 c
f
Q
Q
Q
Q
q
[1 0 0 1 998 0] cm
q
[1 0 0 1 0 792] cm
[1 0 0 1 0 0] cm
q
q
/DeviceRGB {} cs
[0 0 0] sc
114 -163 m
36 -179 61 -72 57 0 c
25 0 l
24 -190 l
54 -190 l
55 -178 53 -161 56 -151 c
62 -178 79 -200 114 -192 c
114 -163 l
f
Q
Q
Q
Q
q
[1 0 0 1 1117 0] cm
q
[1 0 0 1 0 792] cm
[1 0 0 1 0 0] cm
q
q
/DeviceRGB {} cs
[0 0 0] sc
179 -190 m
93 31 l
79 59 56 82 12 73 c
12 49 l
51 55 65 29 76 -1 c
1 -190 l
35 -190 l
92 -34 l
146 -190 l
179 -190 l
f
Q
Q
Q
Q
Q
Q
Q
Q
Q
q
[0 1 -1 0 845 165] cm
q
q
/DeviceRGB {} cs
[1 1 1] sc
317.2 509.5 m
316 507 316 503 317.2 500.5 c
332.8 469.5 l
334 467 335 467.2 335 470 c
335 480 l
335 482.8 337.2 485 340 485 c
342.5 485 l
343.9 485 345 483.9 345 482.5 c
345 470 l
345 467.2 346 467 347.2 469.5 c
362.8 500.5 l
364 503 364 507 362.8 509.5 c
347.2 540.5 l
346 543 345 542.8 345 540 c
345 530 l
345 527.2 342.8 525 340 525 c
337.5 525 l
336.1 525 335 526.1 335 527.5 c
335 540 l
335 542.8 334 543 332.8 540.5 c
317.2 509.5 l
h
f
Q
q
q
q
2 w
/DeviceRGB {} CS
[0 0 0] SC
317.2 509.5 m
316 507 316 503 317.2 500.5 c
332.8 469.5 l
334 467 335 467.2 335 470 c
335 480 l
335 482.8 337.2 485 340 485 c
342.5 485 l
343.9 485 345 483.9 345 482.5 c
345 470 l
345 467.2 346 467 347.2 469.5 c
362.8 500.5 l
364 503 364 507 362.8 509.5 c
347.2 540.5 l
346 543 345 542.8 345 540 c
345 530 l
345 527.2 342.8 525 340 525 c
337.5 525 l
336.1 525 335 526.1 335 527.5 c
335 540 l
335 542.8 334 543 332.8 540.5 c
317.2 509.5 l
h
S
Q
Q
Q
q
[0 -1 1 0 -165 845] cm
Q
Q
Q
q
q
q
/DeviceRGB {} cs
[1 1 1] sc
238.5 403.5 m
236.6 401.6 236.6 398.4 238.5 396.5 c
271.5 363.5 l
273.4 361.6 275 362.2 275 365 c
275 367.5 l
275 368.9 276.1 370 277.5 370 c
400 370 l
402.8 370 405 367.8 405 365 c
405 362.5 l
405 361.1 405.8 360.8 406.8 361.8 c
441.5 396.5 l
443.4 398.4 443.4 401.6 441.5 403.5 c
408.5 436.5 l
406.6 438.4 405 437.8 405 435 c
405 432.5 l
405 431.1 403.9 430 402.5 430 c
280 430 l
277.2 430 275 432.2 275 435 c
275 437.5 l
275 438.9 274.2 439.2 273.2 438.2 c
238.5 403.5 l
h
f
Q
q
q
q
2 w
/DeviceRGB {} CS
[0 0 0] SC
238.5 403.5 m
236.6 401.6 236.6 398.4 238.5 396.5 c
271.5 363.5 l
273.4 361.6 275 362.2 275 365 c
275 367.5 l
275 368.9 276.1 370 277.5 370 c
400 370 l
402.8 370 405 367.8 405 365 c
405 362.5 l
405 361.1 405.8 360.8 406.8 361.8 c
441.5 396.5 l
443.4 398.4 443.4 401.6 441.5 403.5 c
408.5 436.5 l
406.6 438.4 405 437.8 405 435 c
405 432.5 l
405 431.1 403.9 430 402.5 430 c
280 430 l
277.2 430 275 432.2 275 435 c
275 437.5 l
275 438.9 274.2 439.2 273.2 438.2 c
238.5 403.5 l
h
S
Q
Q
Q
q
q
q
[1 0 0 1 308.5 391.9] cm
[0.05 0 0 0.05 0 0] cm
[1 0 0 1 0 -792] cm
q
[1 0 0 1 0 0] cm
q
[1 0 0 1 0 792] cm
[1 0 0 1 0 0] cm
q
q
/DeviceRGB {} cs
[0 0 0] sc
140 -251 m
221 -251 263 -205 263 -125 c
263 -46 219 4 140 4 c
59 4 17 -45 17 -125 c
17 -205 59 -251 140 -251 c
h
140 -24 m
203 -24 229 -65 229 -125 c
229 -185 200 -224 140 -224 c
79 -224 51 -185 51 -125 c
51 -65 79 -25 140 -24 c
f
Q
Q
Q
Q
q
[1 0 0 1 280 0] cm
q
[1 0 0 1 0 792] cm
[1 0 0 1 0 0] cm
q
q
/DeviceRGB {} cs
[0 0 0] sc
117 -194 m
206 -198 170 -78 177 0 c
145 0 l
145 -121 l
145 -152 137 -170 106 -169 c
34 -167 62 -67 57 0 c
25 0 l
24 -190 l
54 -190 l
55 -180 53 -166 56 -158 c
67 -180 85 -193 117 -194 c
f
Q
Q
Q
Q
q
[1 0 0 1 480 0] cm
q
[1 0 0 1 0 792] cm
[1 0 0 1 0 0] cm
q
q
/DeviceRGB {} cs
[0 0 0] sc
16 -110 88 28 re
f
Q
Q
Q
Q
q
[1 0 0 1 599 0] cm
q
[1 0 0 1 0 792] cm
[1 0 0 1 0 0] cm
q
q
/DeviceRGB {} cs
[0 0 0] sc
96 -169 m
56 -169 48 -136 48 -96 c
48 -56 57 -21 96 -21 c
120 -21 137 -35 139 -59 c
171 -57 l
165 -20 140 4 97 4 c
38 4 21 -37 15 -95 c
5 -188 116 -226 162 -159 c
166 -152 167 -145 169 -137 c
137 -134 l
133 -155 121 -169 96 -169 c
f
Q
Q
Q
Q
q
[1 0 0 1 779 0] cm
q
[1 0 0 1 0 792] cm
[1 0 0 1 0 0] cm
q
q
/DeviceRGB {} cs
[0 0 0] sc
106 -169 m
34 -169 62 -67 57 0 c
25 0 l
25 -261 l
57 -261 l
56 -158 l
68 -179 84 -194 117 -194 c
206 -194 170 -78 177 0 c
145 0 l
145 -121 l
147 -153 137 -170 106 -169 c
f
Q
Q
Q
Q
q
[1 0 0 1 979 0] cm
q
[1 0 0 1 0 792] cm
[1 0 0 1 0 0] cm
q
q
/DeviceRGB {} cs
[0 0 0] sc
24 -231 m
24 -261 l
56 -261 l
56 -231 l
24 -231 l
h
24 0 m
24 -190 l
56 -190 l
56 0 l
24 0 l
f
Q
Q
Q
Q
q
[1 0 0 1 1058 0] cm
q
[1 0 0 1 0 792] cm
[1 0 0 1 0 0] cm
q
q
/DeviceRGB {} cs
[0 0 0] sc
115 -194 m
170 -193 185 -153 185 -96 c
185 -39 169 2 115 4 c
84 4 66 -9 55 -30 c
56 75 l
24 75 l
23 -190 l
54 -190 l
56 -160 l
66 -181 84 -194 115 -194 c
h
107 -20 m
147 -20 152 -54 152 -95 c
152 -136 146 -168 107 -169 c
65 -169 56 -137 56 -93 c
56 -50 66 -20 107 -20 c
f
Q
Q
Q
Q
q
[1 0 0 1 1258 0] cm
q
[1 0 0 1 0 792] cm
[1 0 0 1 0 0] cm
q
q
/DeviceRGB {} cs
[0 0 0] sc
Q
Q
Q
Q
Q
Q
q
q
[1 0 0 1 277.6 413.5] cm
[0.05 0 0 0.05 0 0] cm
[1 0 0 1 0 -792] cm
q
[1 0 0 1 0 0] cm
q
[1 0 0 1 0 792] cm
[1 0 0 1 0 0] cm
q
q
/DeviceRGB {} cs
[0 0 0] sc
212 -179 m
202 -207 177 -224 139 -224 c
80 -224 52 -184 52 -125 c
52 -65 81 -24 141 -24 c
184 -24 203 -48 219 -76 c
246 -62 l
228 -24 195 4 139 4 c
59 4 22 -46 18 -125 c
12 -229 117 -278 205 -236 c
224 -227 236 -210 244 -190 c
f
Q
Q
Q
Q
q
[1 0 0 1 259 0] cm
q
[1 0 0 1 0 792] cm
[1 0 0 1 0 0] cm
q
q
/DeviceRGB {} cs
[0 0 0] sc
100 -194 m
162 -195 185 -157 185 -95 c
186 -32 158 4 99 4 c
40 4 16 -35 15 -95 c
15 -161 43 -194 100 -194 c
h
99 -20 m
143 -19 152 -51 152 -95 c
152 -138 144 -170 101 -170 c
58 -170 48 -138 48 -95 c
48 -52 58 -21 99 -20 c
f
Q
Q
Q
Q
q
[1 0 0 1 459 0] cm
q
[1 0 0 1 0 792] cm
[1 0 0 1 0 0] cm
q
q
/DeviceRGB {} cs
[0 0 0] sc
210 -169 m
143 -166 172 -64 166 0 c
135 0 l
135 -121 l
135 -150 130 -171 100 -169 c
34 -165 62 -65 56 0 c
25 0 l
24 -190 l
54 -190 l
55 -180 53 -166 56 -158 c
66 -202 155 -208 163 -158 c
174 -179 190 -193 221 -194 c
306 -196 268 -75 276 0 c
245 0 l
245 -121 l
245 -150 240 -170 210 -169 c
f
Q
Q
Q
Q
q
[1 0 0 1 758 0] cm
q
[1 0 0 1 0 792] cm
[1 0 0 1 0 0] cm
q
q
/DeviceRGB {} cs
[0 0 0] sc
210 -169 m
143 -166 172 -64 166 0 c
135 0 l
135 -121 l
135 -150 130 -171 100 -169 c
34 -165 62 -65 56 0 c
25 0 l
24 -190 l
54 -190 l
55 -180 53 -166 56 -158 c
66 -202 155 -208 163 -158 c
174 -179 190 -193 221 -194 c
306 -196 268 -75 276 0 c
245 0 l
245 -121 l
245 -150 240 -170 210 -169 c
f
Q
Q
Q
Q
q
[1 0 0 1 1057 0] cm
q
[1 0 0 1 0 792] cm
[1 0 0 1 0 0] cm
q
q
/DeviceRGB {} cs
[0 0 0] sc
84 4 m
-5 8 30 -112 23 -190 c
55 -190 l
55 -70 l
55 -39 62 -20 94 -21 c
166 -23 139 -122 144 -190 c
175 -190 l
176 0 l
146 0 l
145 -10 147 -25 144 -33 c
133 -11 116 3 84 4 c
f
Q
Q
Q
Q
q
[1 0 0 1 1257 0] cm
q
[1 0 0 1 0 792] cm
[1 0 0 1 0 0] cm
q
q
/DeviceRGB {} cs
[0 0 0] sc
117 -194 m
206 -198 170 -78 177 0 c
145 0 l
145 -121 l
145 -152 137 -170 106 -169 c
34 -167 62 -67 57 0 c
25 0 l
24 -190 l
54 -190 l
55 -180 53 -166 56 -158 c
67 -180 85 -193 117 -194 c
f
Q
Q
Q
Q
q
[1 0 0 1 1457 0] cm
q
[1 0 0 1 0 792] cm
[1 0 0 1 0 0] cm
q
q
/DeviceRGB {} cs
[0 0 0] sc
24 -231 m
24 -261 l
56 -261 l
56 -231 l
24 -231 l
h
24 0 m
24 -190 l
56 -190 l
56 0 l
24 0 l
f
Q
Q
Q
Q
q
[1 0 0 1 1536 0] cm
q
[1 0 0 1 0 792] cm
[1 0 0 1 0 0] cm
q
q
/DeviceRGB {} cs
[0 0 0] sc
96 -169 m
56 -169 48 -136 48 -96 c
48 -56 57 -21 96 -21 c
120 -21 137 -35 139 -59 c
171 -57 l
165 -20 140 4 97 4 c
38 4 21 -37 15 -95 c
5 -188 116 -226 162 -159 c
166 -152 167 -145 169 -137 c
137 -134 l
133 -155 121 -169 96 -169 c
f
Q
Q
Q
Q
q
[1 0 0 1 1716 0] cm
q
[1 0 0 1 0 792] cm
[1 0 0 1 0 0] cm
q
q
/DeviceRGB {} cs
[0 0 0] sc
141 -36 m
126 -15 110 5 73 4 c
37 3 15 -17 15 -53 c
14 -117 78 -116 140 -116 c
143 -151 131 -170 99 -170 c
75 -169 58 -163 57 -139 c
24 -142 l
29 -179 57 -194 100 -194 c
145 -194 172 -174 172 -130 c
172 -48 l
171 -28 179 -16 200 -21 c
200 -1 l
169 8 139 -3 141 -36 c
h
48 -53 m
48 -33 60 -20 80 -20 c
121 -23 143 -49 140 -94 c
97 -92 48 -99 48 -53 c
f
Q
Q
Q
Q
q
[1 0 0 1 1916 0] cm
q
[1 0 0 1 0 792] cm
[1 0 0 1 0 0] cm
q
q
/DeviceRGB {} cs
[0 0 0] sc
59 -47 m
57 -23 77 -18 97 -25 c
97 -1 l
64 9 27 4 27 -40 c
27 -167 l
5 -167 l
5 -190 l
29 -190 l
38 -233 l
59 -233 l
59 -190 l
94 -190 l
94 -167 l
59 -167 l
59 -47 l
f
Q
Q
Q
Q
q
[1 0 0 1 2016 0] cm
q
[1 0 0 1 0 792] cm
[1 0 0 1 0 0] cm
q
q
/DeviceRGB {} cs
[0 0 0] sc
24 -231 m
24 -261 l
56 -261 l
56 -231 l
24 -231 l
h
24 0 m
24 -190 l
56 -190 l
56 0 l
24 0 l
f
Q
Q
Q
Q
q
[1 0 0 1 2095 0] cm
q
[1 0 0 1 0 792] cm
[1 0 0 1 0 0] cm
q
q
/DeviceRGB {} cs
[0 0 0] sc
100 -194 m
162 -195 185 -157 185 -95 c
186 -32 158 4 99 4 c
40 4 16 -35 15 -95 c
15 -161 43 -194 100 -194 c
h
99 -20 m
143 -19 152 -51 152 -95 c
152 -138 144 -170 101 -170 c
58 -170 48 -138 48 -95 c
48 -52 58 -21 99 -20 c
f
Q
Q
Q
Q
q
[1 0 0 1 2295 0] cm
q
[1 0 0 1 0 792] cm
[1 0 0 1 0 0] cm
q
q
/DeviceRGB {} cs
[0 0 0] sc
117 -194 m
206 -198 170 -78 177 0 c
145 0 l
145 -121 l
145 -152 137 -170 106 -169 c
34 -167 62 -67 57 0 c
25 0 l
24 -190 l
54 -190 l
55 -180 53 -166 56 -158 c
67 -180 85 -193 117 -194 c
f
Q
Q
Q
Q
Q
Q
Q
Q
Q
Q
Q
Q
Q
showpage
%%PageTrailer
pdfEndPage
%%Trailer
end
%%DocumentSuppliedResources:
%%EOF
